\relax 
\@nameuse{bbl@beforestart}
\catcode `"\active 
\providecommand\csxdef[2]{}
\@writefile{toc}{\providecommand\autonum@processReference[2]{}}
\@writefile{lof}{\providecommand\autonum@processReference[2]{}}
\babel@aux{russian}{}
\@writefile{toc}{\contentsline {section}{\numberline {1}Ошибка измерительного прибора}{3}\protected@file@percent }
\@writefile{toc}{\contentsline {subsection}{\numberline {1.1}Постановка задачи}{3}\protected@file@percent }
\@writefile{toc}{\contentsline {subsection}{\numberline {1.2}Модель}{3}\protected@file@percent }
\@writefile{toc}{\contentsline {subsection}{\numberline {1.3}Оценка с помощью фильтра Калмана}{3}\protected@file@percent }
\newlabel{systematic-error-kalman1}{{1.1}{3}}
\newlabel{systematic-error-kalman2}{{1.2}{3}}
\newlabel{systematic-error-kalman3}{{1.3}{4}}
\csxdef {autonum@systematic-error-kalman1Referenced}{}
\csxdef {autonum@systematic-error-kalman2Referenced}{}
\csxdef {autonum@systematic-error-kalman3Referenced}{}
\@writefile{toc}{\contentsline {subsection}{\numberline {1.4}Результаты моделирования}{4}\protected@file@percent }
\newlabel{fig:w-10-Ps1-40}{{1.4}{5}}
\newlabel{fig:w-1-Ps1-40}{{1.4}{6}}
\newlabel{fig:w-100-Ps1-40}{{1.4}{7}}
\newlabel{fig:w-10-Ps1-4}{{1.4}{8}}
\newlabel{fig:w-10-Ps1-400}{{1.4}{9}}
\@writefile{toc}{\contentsline {subsection}{\numberline {1.5}Выводы на основе результатов моделирования}{10}\protected@file@percent }
\@writefile{toc}{\contentsline {section}{\numberline {2}Оценка координаты и скорости самолёта}{10}\protected@file@percent }
\@writefile{toc}{\contentsline {subsection}{\numberline {2.1}Постановка задачи}{10}\protected@file@percent }
\@writefile{toc}{\contentsline {subsection}{\numberline {2.2}Модель}{10}\protected@file@percent }
\newlabel{plane-system}{{2.1}{11}}
\@writefile{toc}{\contentsline {subsection}{\numberline {2.3}Оценка с помощью фильтра Калмана}{11}\protected@file@percent }
\csxdef {autonum@plane-systemReferenced}{}
\csxdef {autonum@plane-systemReferenced}{}
\newlabel{plane-system-dicrete}{{2.2}{11}}
\csxdef {autonum@plane-system-dicreteReferenced}{}
\csxdef {autonum@plane-system-dicreteReferenced}{}
\@writefile{toc}{\contentsline {subsection}{\numberline {2.4}Результаты моделирования}{12}\protected@file@percent }
\@writefile{toc}{\contentsline {subsection}{\numberline {2.5}Выводы на основе результатов моделирования}{13}\protected@file@percent }
\newlabel{fig:Q-1-02-R-1-01}{{2.4}{14}}
\newlabel{fig:Q-1-02-R-10-01}{{2.4}{15}}
\newlabel{fig:Q-1-02-R-0-01}{{2.4}{16}}
\newlabel{fig:Q-100-02-R-1-01}{{2.4}{17}}
\newlabel{fig:Q-10-02-R-1-01}{{2.4}{18}}
