\providecommand \autonum@processReference [2]{}
\babel@toc {russian}{}
\contentsline {section}{\numberline {1}Ошибка измерительного прибора}{3}%
\contentsline {subsection}{\numberline {1.1}Постановка задачи}{3}%
\contentsline {subsection}{\numberline {1.2}Модель}{3}%
\contentsline {subsection}{\numberline {1.3}Оценка с помощью фильтра Калмана}{3}%
\contentsline {subsection}{\numberline {1.4}Результаты моделирования}{4}%
\contentsline {subsection}{\numberline {1.5}Выводы на основе результатов моделирования}{10}%
\contentsline {section}{\numberline {2}Оценка координаты и скорости самолёта}{10}%
\contentsline {subsection}{\numberline {2.1}Постановка задачи}{10}%
\contentsline {subsection}{\numberline {2.2}Модель}{10}%
\contentsline {subsection}{\numberline {2.3}Оценка с помощью фильтра Калмана}{11}%
\contentsline {subsection}{\numberline {2.4}Результаты моделирования}{12}%
\contentsline {subsection}{\numberline {2.5}Выводы на основе результатов моделирования}{13}%
