<?xml version='1.0' encoding='UTF-8' standalone='no'?>
<svg height="432pt" xmlns="http://www.w3.org/2000/svg" xmlns:xlink="http://www.w3.org/1999/xlink" width="576pt" viewBox="0 0 576 432">
 <title>gl2ps_renderer figure</title>
 <desc>
Creator: GL2PS 1.4.0, (C) 1999-2017 C. Geuzaine
For: Octave
CreationDate: Sun May 24 19:00:02 2020
</desc>
 <defs/>
 <polygon fill="#ffffff" points="0,0 576,0 576,432 0,432"/>
 <g>
  <polygon fill="#ffffff" points="0,432 576,432 576,0 0,0" shape-rendering="crispEdges"/>
  <clipPath id="cp00576432">
   <polygon points="0,432 576,432 576,0 0,0"/>
  </clipPath>
  <g clip-path="url(#cp00576432)">
   <polygon fill="#ffffff" points="74.88,114.337 521.28,114.337 521.28,59 74.88,59" shape-rendering="crispEdges"/>
   <polyline fill="none" stroke-linecap="butt" points="74.88,114.337 74.88,59" stroke-dasharray="16,0" stroke-linejoin="miter" stroke-width="0.5" stroke-opacity="0.15" stroke="#262626"/>
   <polyline fill="none" stroke-linecap="butt" points="164.16,114.337 164.16,59" stroke-dasharray="16,0" stroke-linejoin="miter" stroke-width="0.5" stroke-opacity="0.15" stroke="#262626"/>
   <polyline fill="none" stroke-linecap="butt" points="253.44,114.337 253.44,59" stroke-dasharray="16,0" stroke-linejoin="miter" stroke-width="0.5" stroke-opacity="0.15" stroke="#262626"/>
   <polyline fill="none" stroke-linecap="butt" points="342.72,114.337 342.72,59" stroke-dasharray="16,0" stroke-linejoin="miter" stroke-width="0.5" stroke-opacity="0.15" stroke="#262626"/>
   <polyline fill="none" stroke-linecap="butt" points="432,114.337 432,59" stroke-dasharray="16,0" stroke-linejoin="miter" stroke-width="0.5" stroke-opacity="0.15" stroke="#262626"/>
   <polyline fill="none" stroke-linecap="butt" points="521.28,114.337 521.28,59" stroke-dasharray="16,0" stroke-linejoin="miter" stroke-width="0.5" stroke-opacity="0.15" stroke="#262626"/>
   <polyline fill="none" stroke-linecap="butt" points="74.88,114.337 74.88,109.846" stroke-linejoin="miter" stroke-width="0.5" stroke="#262626"/>
   <polyline fill="none" stroke-linecap="butt" points="74.88,59 74.88,63.4914" stroke-linejoin="miter" stroke-width="0.5" stroke="#262626"/>
   <polyline fill="none" stroke-linecap="butt" points="164.16,114.337 164.16,109.846" stroke-linejoin="miter" stroke-width="0.5" stroke="#262626"/>
   <polyline fill="none" stroke-linecap="butt" points="164.16,59 164.16,63.4914" stroke-linejoin="miter" stroke-width="0.5" stroke="#262626"/>
   <polyline fill="none" stroke-linecap="butt" points="253.44,114.337 253.44,109.846" stroke-linejoin="miter" stroke-width="0.5" stroke="#262626"/>
   <polyline fill="none" stroke-linecap="butt" points="253.44,59 253.44,63.4914" stroke-linejoin="miter" stroke-width="0.5" stroke="#262626"/>
   <polyline fill="none" stroke-linecap="butt" points="342.72,114.337 342.72,109.846" stroke-linejoin="miter" stroke-width="0.5" stroke="#262626"/>
   <polyline fill="none" stroke-linecap="butt" points="342.72,59 342.72,63.4914" stroke-linejoin="miter" stroke-width="0.5" stroke="#262626"/>
   <polyline fill="none" stroke-linecap="butt" points="432,114.337 432,109.846" stroke-linejoin="miter" stroke-width="0.5" stroke="#262626"/>
   <polyline fill="none" stroke-linecap="butt" points="432,59 432,63.4914" stroke-linejoin="miter" stroke-width="0.5" stroke="#262626"/>
   <polyline fill="none" stroke-linecap="butt" points="521.28,114.337 521.28,109.846" stroke-linejoin="miter" stroke-width="0.5" stroke="#262626"/>
   <polyline fill="none" stroke-linecap="butt" points="521.28,59 521.28,63.4914" stroke-linejoin="miter" stroke-width="0.5" stroke="#262626"/>
   <text font-size="10" font-weight="normal" transform="translate(71.88,129.883) rotate(-0,3,-8)" font-style="normal" xml:space="preserve" font-family="FreeSans">
    <tspan fill="rgb(38,38,38)" y="-0" x="0 ">0</tspan>
   </text>
   <text font-size="10" font-weight="normal" transform="translate(161.16,129.883) rotate(-0,3,-8)" font-style="normal" xml:space="preserve" font-family="FreeSans">
    <tspan fill="rgb(38,38,38)" y="-0" x="0 ">2</tspan>
   </text>
   <text font-size="10" font-weight="normal" transform="translate(250.44,129.883) rotate(-0,3,-8)" font-style="normal" xml:space="preserve" font-family="FreeSans">
    <tspan fill="rgb(38,38,38)" y="-0" x="0 ">4</tspan>
   </text>
   <text font-size="10" font-weight="normal" transform="translate(339.72,129.883) rotate(-0,3,-8)" font-style="normal" xml:space="preserve" font-family="FreeSans">
    <tspan fill="rgb(38,38,38)" y="-0" x="0 ">6</tspan>
   </text>
   <text font-size="10" font-weight="normal" transform="translate(429,129.883) rotate(-0,3,-8)" font-style="normal" xml:space="preserve" font-family="FreeSans">
    <tspan fill="rgb(38,38,38)" y="-0" x="0 ">8</tspan>
   </text>
   <text font-size="10" font-weight="normal" transform="translate(515.28,129.883) rotate(-0,6,-8)" font-style="normal" xml:space="preserve" font-family="FreeSans">
    <tspan fill="rgb(38,38,38)" y="-0" x="0 6 ">10</tspan>
   </text>
   <polyline fill="none" stroke-linecap="butt" points="74.88,114.337 521.28,114.337" stroke-dasharray="16,0" stroke-linejoin="miter" stroke-width="0.5" stroke-opacity="0.15" stroke="#262626"/>
   <polyline fill="none" stroke-linecap="butt" points="74.88,105.114 521.28,105.114" stroke-dasharray="16,0" stroke-linejoin="miter" stroke-width="0.5" stroke-opacity="0.15" stroke="#262626"/>
   <polyline fill="none" stroke-linecap="butt" points="74.88,95.8914 521.28,95.8914" stroke-dasharray="16,0" stroke-linejoin="miter" stroke-width="0.5" stroke-opacity="0.15" stroke="#262626"/>
   <polyline fill="none" stroke-linecap="butt" points="74.88,86.6685 521.28,86.6685" stroke-dasharray="16,0" stroke-linejoin="miter" stroke-width="0.5" stroke-opacity="0.15" stroke="#262626"/>
   <polyline fill="none" stroke-linecap="butt" points="74.88,77.4457 521.28,77.4457" stroke-dasharray="16,0" stroke-linejoin="miter" stroke-width="0.5" stroke-opacity="0.15" stroke="#262626"/>
   <polyline fill="none" stroke-linecap="butt" points="74.88,68.2228 521.28,68.2228" stroke-dasharray="16,0" stroke-linejoin="miter" stroke-width="0.5" stroke-opacity="0.15" stroke="#262626"/>
   <polyline fill="none" stroke-linecap="butt" points="74.88,59 521.28,59" stroke-dasharray="16,0" stroke-linejoin="miter" stroke-width="0.5" stroke-opacity="0.15" stroke="#262626"/>
   <polyline fill="none" stroke-linecap="butt" points="74.88,114.337 79.348,114.337" stroke-linejoin="miter" stroke-width="0.5" stroke="#262626"/>
   <polyline fill="none" stroke-linecap="butt" points="521.28,114.337 516.812,114.337" stroke-linejoin="miter" stroke-width="0.5" stroke="#262626"/>
   <polyline fill="none" stroke-linecap="butt" points="74.88,105.114 79.348,105.114" stroke-linejoin="miter" stroke-width="0.5" stroke="#262626"/>
   <polyline fill="none" stroke-linecap="butt" points="521.28,105.114 516.812,105.114" stroke-linejoin="miter" stroke-width="0.5" stroke="#262626"/>
   <polyline fill="none" stroke-linecap="butt" points="74.88,95.8914 79.348,95.8914" stroke-linejoin="miter" stroke-width="0.5" stroke="#262626"/>
   <polyline fill="none" stroke-linecap="butt" points="521.28,95.8914 516.812,95.8914" stroke-linejoin="miter" stroke-width="0.5" stroke="#262626"/>
   <polyline fill="none" stroke-linecap="butt" points="74.88,86.6685 79.348,86.6685" stroke-linejoin="miter" stroke-width="0.5" stroke="#262626"/>
   <polyline fill="none" stroke-linecap="butt" points="521.28,86.6685 516.812,86.6685" stroke-linejoin="miter" stroke-width="0.5" stroke="#262626"/>
   <polyline fill="none" stroke-linecap="butt" points="74.88,77.4457 79.348,77.4457" stroke-linejoin="miter" stroke-width="0.5" stroke="#262626"/>
   <polyline fill="none" stroke-linecap="butt" points="521.28,77.4457 516.812,77.4457" stroke-linejoin="miter" stroke-width="0.5" stroke="#262626"/>
   <polyline fill="none" stroke-linecap="butt" points="74.88,68.2228 79.348,68.2228" stroke-linejoin="miter" stroke-width="0.5" stroke="#262626"/>
   <polyline fill="none" stroke-linecap="butt" points="521.28,68.2228 516.812,68.2228" stroke-linejoin="miter" stroke-width="0.5" stroke="#262626"/>
   <polyline fill="none" stroke-linecap="butt" points="74.88,59 79.348,59" stroke-linejoin="miter" stroke-width="0.5" stroke="#262626"/>
   <polyline fill="none" stroke-linecap="butt" points="521.28,59 516.812,59" stroke-linejoin="miter" stroke-width="0.5" stroke="#262626"/>
   <text font-size="10" font-weight="normal" transform="translate(63.8755,118.337) rotate(-0,6,-4)" font-style="normal" xml:space="preserve" font-family="FreeSans">
    <tspan fill="rgb(38,38,38)" y="-0" x="0 ">0</tspan>
   </text>
   <text font-size="10" font-weight="normal" transform="translate(63.8755,109.114) rotate(-0,6,-4)" font-style="normal" xml:space="preserve" font-family="FreeSans">
    <tspan fill="rgb(38,38,38)" y="-0" x="0 ">2</tspan>
   </text>
   <text font-size="10" font-weight="normal" transform="translate(63.8755,99.8913) rotate(-0,6,-4)" font-style="normal" xml:space="preserve" font-family="FreeSans">
    <tspan fill="rgb(38,38,38)" y="-0" x="0 ">4</tspan>
   </text>
   <text font-size="10" font-weight="normal" transform="translate(63.8755,90.6685) rotate(-0,6,-4)" font-style="normal" xml:space="preserve" font-family="FreeSans">
    <tspan fill="rgb(38,38,38)" y="-0" x="0 ">6</tspan>
   </text>
   <text font-size="10" font-weight="normal" transform="translate(63.8755,81.4457) rotate(-0,6,-4)" font-style="normal" xml:space="preserve" font-family="FreeSans">
    <tspan fill="rgb(38,38,38)" y="-0" x="0 ">8</tspan>
   </text>
   <text font-size="10" font-weight="normal" transform="translate(57.8755,72.2228) rotate(-0,12,-4)" font-style="normal" xml:space="preserve" font-family="FreeSans">
    <tspan fill="rgb(38,38,38)" y="-0" x="0 6 ">10</tspan>
   </text>
   <text font-size="10" font-weight="normal" transform="translate(57.8755,63) rotate(-0,12,-4)" font-style="normal" xml:space="preserve" font-family="FreeSans">
    <tspan fill="rgb(38,38,38)" y="-0" x="0 6 ">12</tspan>
   </text>
   <polyline fill="none" stroke-linecap="square" points="74.88,114.337 521.28,114.337" stroke-dasharray="16,0" stroke-linejoin="miter" stroke-width="0.5" stroke="#262626"/>
   <polyline fill="none" stroke-linecap="square" points="74.88,59 521.28,59" stroke-dasharray="16,0" stroke-linejoin="miter" stroke-width="0.5" stroke="#262626"/>
   <polyline fill="none" stroke-linecap="square" points="74.88,114.337 74.88,59" stroke-dasharray="16,0" stroke-linejoin="miter" stroke-width="0.5" stroke="#262626"/>
   <polyline fill="none" stroke-linecap="square" points="521.28,114.337 521.28,59" stroke-dasharray="16,0" stroke-linejoin="miter" stroke-width="0.5" stroke="#262626"/>
   <text font-size="16" font-weight="bold" transform="translate(158.08,49) rotate(-0,140,0)" font-style="normal" xml:space="preserve" font-family="FreeSans">
    <tspan fill="rgb(0,0,0)" y="-36" x="35 45 54 58 67 76 80 89 98 102 106 119 128 132 141 150 154 163 172 176 180 192 201 205 214 223 227 236 ">Ts =0.05 ;Qc =1.02 ;Rc =1.01</tspan>
    <tspan fill="rgb(0,0,0)" y="-14" x="0 ">σ</tspan>
    <tspan font-size="14" fill="rgb(0,0,0)" y="-3" x="11 ">y</tspan>
    <tspan fill="rgb(0,0,0)" y="-14" x="19 23 32 41 45 54 63 72 81 85 "> =5.2441 ;</tspan>
    <tspan fill="rgb(0,0,0)" y="-14" x="89 ">σ</tspan>
    <tspan font-size="14" fill="rgb(0,0,0)" y="-3" x="100 108 116 121 ">hatx</tspan>
    <tspan fill="rgb(0,0,0)" y="-14" x="129 133 142 151 155 164 173 182 191 195 "> =2.6002 ;</tspan>
    <tspan fill="rgb(0,0,0)" y="-14" x="199 ">σ</tspan>
    <tspan font-size="14" fill="rgb(0,0,0)" y="-3" x="210 ">e</tspan>
    <tspan fill="rgb(0,0,0)" y="-14" x="218 222 231 240 244 253 262 271 "> =4.7435</tspan>
   </text>
   <text font-size="16" font-weight="normal" transform="translate(32.8755,86.6685) rotate(-90,20,0)" font-style="normal" xml:space="preserve" font-family="FreeSans">
    <tspan fill="rgb(38,38,38)" y="-4" x="0 9 18 22 27 35 ">hat{y}</tspan>
   </text>
   <text font-size="16" font-weight="normal" transform="translate(296.08,146.883) rotate(-0,2,-12)" font-style="normal" xml:space="preserve" font-family="FreeSans">
    <tspan fill="rgb(38,38,38)" y="-0" x="0 ">t</tspan>
   </text>
   <polyline fill="none" stroke-linecap="butt" points="74.88,109.726 77.112,109.245 79.344,108.781 81.576,108.266 83.808,107.838 86.04,107.318 88.272,106.896 90.504,106.477 92.736,106.141 94.968,105.729 97.2,105.404 99.432,104.595 101.664,104.114 103.896,103.657 106.128,103.103 108.36,102.353 110.592,101.191 112.824,99.8707 115.056,99.7229 117.288,99.1967 119.52,98.8404 121.752,98.4365 123.984,98.1873 126.216,98.0063 128.448,97.0981 130.68,95.9451 132.912,93.9396 135.144,94.0892 137.376,93.1995 139.608,93.5479 141.84,92.7634 144.072,91.4502 146.304,91.9809 148.536,91.2643 150.768,91.6006 153,89.3938 155.232,86.4933 157.464,85.8284 159.696,86.2565 161.928,81.281 164.16,83.2468 166.392,84.5902 168.624,80.5962 170.856,81.089 173.088,80.6028 175.32,78.4195 177.552,78.1407 179.784,78.2253 182.016,79.5779 184.248,78.6602 186.48,79.6025 188.712,78.8761 190.944,79.7654 193.176,77.0436 195.408,75.3886 197.64,72.4432 199.872,71.9507 202.104,70.7703 204.336,69.9486 206.568,68.7117 208.8,68.0332 211.032,68.145 213.264,70.1666 215.496,72.3274 217.728,72.7843 219.96,73.4874 222.192,75.5199 224.424,75.6259 226.656,74.3774 228.888,77.8811 231.12,79.3477 233.352,78.3106 235.584,78.9461 237.816,78.1862 240.048,76.2279 242.28,76.6872 244.512,76.2004 246.744,74.7312 248.976,75.8862 251.208,73.3206 253.44,75.0034 255.672,74.3549 257.904,75.8875 260.136,74.9235 262.368,73.6341 264.6,72.134 266.832,71.3565 269.064,72.5577 271.296,71.668 273.528,72.0858 275.76,72.6416 277.992,71.1633 280.224,71.9161 282.456,68.3055 284.688,68.9869 286.92,66.8627 289.152,67.4202 291.384,68.0387 293.616,67.8888 295.848,66.6259 298.08,67.9473 300.312,67.8618 302.544,69.1403 304.776,69.683 307.008,69.5233 309.24,67.253 311.472,65.9205 313.704,65.1205 315.936,63.1879 318.168,61.796 320.4,61.385 322.632,62.2522 324.864,64.4651 327.096,64.2573 329.328,64.0469 331.56,63.5103 333.792,63.2599 336.024,60.8384 338.256,61.2844 340.488,61.964 342.72,62.4079 344.952,62.7562 347.184,60.9439 349.416,61.9877 351.648,62.5047 353.88,61.4767 356.112,62.7331 358.344,65.5651 360.576,67.9777 362.808,64.9296 365.04,67.4776 367.272,69.4076 369.504,70.4107 371.736,72.259 373.968,73.8844 376.2,75.2757 378.432,77.8719 380.664,79.0466 382.896,78.839 385.128,82.0403 387.36,79.683 389.592,79.0343 391.824,79.8835 394.056,82.2176 396.288,80.2791 398.52,79.2935 400.752,79.1644 402.984,79.0005 405.216,78.6239 407.448,81.4836 409.68,82.4457 411.912,81.7807 414.144,80.6709 416.376,81.3955 418.608,80.0133 420.84,82.5061 423.072,81.4113 425.304,78.7901 427.536,77.1666 429.768,79.9499 432,80.3521 434.232,80.8608 436.464,80.8148 438.696,81.6201 440.928,81.4803 443.16,80.1281 445.392,81.5422 447.624,80.2859 449.856,80.5846 452.088,80.3002 454.32,82.6595 456.552,82.575 458.784,84.3363 461.016,83.8251 463.248,88.2333 465.48,88.0472 467.712,87.3479 469.944,87.4443 472.176,86.3213 474.408,83.9586 476.64,82.3156 478.872,84.7209 481.104,87.4404 483.336,87.2589 485.568,86.9628 487.8,85.1036 490.032,83.8686 492.264,84.5104 494.496,86.5827 496.728,86.9998 498.96,88.1143 501.192,91.0157 503.424,89.6385 505.656,88.6581 507.888,88.2198 510.12,89.3257 512.352,90.6544 514.584,89.0887 516.816,87.4568 519.048,86.8115 521.28,88.4526" stroke-linejoin="round" stroke-width="1" stroke="#0071bc"/>
  </g>
  <clipPath id="cp00576432">
   <polygon points="0,432 576,432 576,0 0,0"/>
  </clipPath>
  <g clip-path="url(#cp00576432)">
   <polygon fill="#ffffff" points="74.88,249.409 521.28,249.409 521.28,194.072 74.88,194.072" shape-rendering="crispEdges"/>
   <polyline fill="none" stroke-linecap="butt" points="74.88,249.409 74.88,194.072" stroke-dasharray="16,0" stroke-linejoin="miter" stroke-width="0.5" stroke-opacity="0.15" stroke="#262626"/>
   <polyline fill="none" stroke-linecap="butt" points="164.16,249.409 164.16,194.072" stroke-dasharray="16,0" stroke-linejoin="miter" stroke-width="0.5" stroke-opacity="0.15" stroke="#262626"/>
   <polyline fill="none" stroke-linecap="butt" points="253.44,249.409 253.44,194.072" stroke-dasharray="16,0" stroke-linejoin="miter" stroke-width="0.5" stroke-opacity="0.15" stroke="#262626"/>
   <polyline fill="none" stroke-linecap="butt" points="342.72,249.409 342.72,194.072" stroke-dasharray="16,0" stroke-linejoin="miter" stroke-width="0.5" stroke-opacity="0.15" stroke="#262626"/>
   <polyline fill="none" stroke-linecap="butt" points="432,249.409 432,194.072" stroke-dasharray="16,0" stroke-linejoin="miter" stroke-width="0.5" stroke-opacity="0.15" stroke="#262626"/>
   <polyline fill="none" stroke-linecap="butt" points="521.28,249.409 521.28,194.072" stroke-dasharray="16,0" stroke-linejoin="miter" stroke-width="0.5" stroke-opacity="0.15" stroke="#262626"/>
   <polyline fill="none" stroke-linecap="butt" points="74.88,249.409 74.88,244.917" stroke-linejoin="miter" stroke-width="0.5" stroke="#262626"/>
   <polyline fill="none" stroke-linecap="butt" points="74.88,194.072 74.88,198.563" stroke-linejoin="miter" stroke-width="0.5" stroke="#262626"/>
   <polyline fill="none" stroke-linecap="butt" points="164.16,249.409 164.16,244.917" stroke-linejoin="miter" stroke-width="0.5" stroke="#262626"/>
   <polyline fill="none" stroke-linecap="butt" points="164.16,194.072 164.16,198.563" stroke-linejoin="miter" stroke-width="0.5" stroke="#262626"/>
   <polyline fill="none" stroke-linecap="butt" points="253.44,249.409 253.44,244.917" stroke-linejoin="miter" stroke-width="0.5" stroke="#262626"/>
   <polyline fill="none" stroke-linecap="butt" points="253.44,194.072 253.44,198.563" stroke-linejoin="miter" stroke-width="0.5" stroke="#262626"/>
   <polyline fill="none" stroke-linecap="butt" points="342.72,249.409 342.72,244.917" stroke-linejoin="miter" stroke-width="0.5" stroke="#262626"/>
   <polyline fill="none" stroke-linecap="butt" points="342.72,194.072 342.72,198.563" stroke-linejoin="miter" stroke-width="0.5" stroke="#262626"/>
   <polyline fill="none" stroke-linecap="butt" points="432,249.409 432,244.917" stroke-linejoin="miter" stroke-width="0.5" stroke="#262626"/>
   <polyline fill="none" stroke-linecap="butt" points="432,194.072 432,198.563" stroke-linejoin="miter" stroke-width="0.5" stroke="#262626"/>
   <polyline fill="none" stroke-linecap="butt" points="521.28,249.409 521.28,244.917" stroke-linejoin="miter" stroke-width="0.5" stroke="#262626"/>
   <polyline fill="none" stroke-linecap="butt" points="521.28,194.072 521.28,198.563" stroke-linejoin="miter" stroke-width="0.5" stroke="#262626"/>
   <text font-size="10" font-weight="normal" transform="translate(71.88,264.954) rotate(-0,3,-8)" font-style="normal" xml:space="preserve" font-family="FreeSans">
    <tspan fill="rgb(38,38,38)" y="-0" x="0 ">0</tspan>
   </text>
   <text font-size="10" font-weight="normal" transform="translate(161.16,264.954) rotate(-0,3,-8)" font-style="normal" xml:space="preserve" font-family="FreeSans">
    <tspan fill="rgb(38,38,38)" y="-0" x="0 ">2</tspan>
   </text>
   <text font-size="10" font-weight="normal" transform="translate(250.44,264.954) rotate(-0,3,-8)" font-style="normal" xml:space="preserve" font-family="FreeSans">
    <tspan fill="rgb(38,38,38)" y="-0" x="0 ">4</tspan>
   </text>
   <text font-size="10" font-weight="normal" transform="translate(339.72,264.954) rotate(-0,3,-8)" font-style="normal" xml:space="preserve" font-family="FreeSans">
    <tspan fill="rgb(38,38,38)" y="-0" x="0 ">6</tspan>
   </text>
   <text font-size="10" font-weight="normal" transform="translate(429,264.954) rotate(-0,3,-8)" font-style="normal" xml:space="preserve" font-family="FreeSans">
    <tspan fill="rgb(38,38,38)" y="-0" x="0 ">8</tspan>
   </text>
   <text font-size="10" font-weight="normal" transform="translate(515.28,264.954) rotate(-0,6,-8)" font-style="normal" xml:space="preserve" font-family="FreeSans">
    <tspan fill="rgb(38,38,38)" y="-0" x="0 6 ">10</tspan>
   </text>
   <polyline fill="none" stroke-linecap="butt" points="74.88,249.409 521.28,249.409" stroke-dasharray="16,0" stroke-linejoin="miter" stroke-width="0.5" stroke-opacity="0.15" stroke="#262626"/>
   <polyline fill="none" stroke-linecap="butt" points="74.88,241.503 521.28,241.503" stroke-dasharray="16,0" stroke-linejoin="miter" stroke-width="0.5" stroke-opacity="0.15" stroke="#262626"/>
   <polyline fill="none" stroke-linecap="butt" points="74.88,233.598 521.28,233.598" stroke-dasharray="16,0" stroke-linejoin="miter" stroke-width="0.5" stroke-opacity="0.15" stroke="#262626"/>
   <polyline fill="none" stroke-linecap="butt" points="74.88,225.693 521.28,225.693" stroke-dasharray="16,0" stroke-linejoin="miter" stroke-width="0.5" stroke-opacity="0.15" stroke="#262626"/>
   <polyline fill="none" stroke-linecap="butt" points="74.88,217.787 521.28,217.787" stroke-dasharray="16,0" stroke-linejoin="miter" stroke-width="0.5" stroke-opacity="0.15" stroke="#262626"/>
   <polyline fill="none" stroke-linecap="butt" points="74.88,209.882 521.28,209.882" stroke-dasharray="16,0" stroke-linejoin="miter" stroke-width="0.5" stroke-opacity="0.15" stroke="#262626"/>
   <polyline fill="none" stroke-linecap="butt" points="74.88,201.977 521.28,201.977" stroke-dasharray="16,0" stroke-linejoin="miter" stroke-width="0.5" stroke-opacity="0.15" stroke="#262626"/>
   <polyline fill="none" stroke-linecap="butt" points="74.88,194.072 521.28,194.072" stroke-dasharray="16,0" stroke-linejoin="miter" stroke-width="0.5" stroke-opacity="0.15" stroke="#262626"/>
   <polyline fill="none" stroke-linecap="butt" points="74.88,249.409 79.348,249.409" stroke-linejoin="miter" stroke-width="0.5" stroke="#262626"/>
   <polyline fill="none" stroke-linecap="butt" points="521.28,249.409 516.812,249.409" stroke-linejoin="miter" stroke-width="0.5" stroke="#262626"/>
   <polyline fill="none" stroke-linecap="butt" points="74.88,241.503 79.348,241.503" stroke-linejoin="miter" stroke-width="0.5" stroke="#262626"/>
   <polyline fill="none" stroke-linecap="butt" points="521.28,241.503 516.812,241.503" stroke-linejoin="miter" stroke-width="0.5" stroke="#262626"/>
   <polyline fill="none" stroke-linecap="butt" points="74.88,233.598 79.348,233.598" stroke-linejoin="miter" stroke-width="0.5" stroke="#262626"/>
   <polyline fill="none" stroke-linecap="butt" points="521.28,233.598 516.812,233.598" stroke-linejoin="miter" stroke-width="0.5" stroke="#262626"/>
   <polyline fill="none" stroke-linecap="butt" points="74.88,225.693 79.348,225.693" stroke-linejoin="miter" stroke-width="0.5" stroke="#262626"/>
   <polyline fill="none" stroke-linecap="butt" points="521.28,225.693 516.812,225.693" stroke-linejoin="miter" stroke-width="0.5" stroke="#262626"/>
   <polyline fill="none" stroke-linecap="butt" points="74.88,217.787 79.348,217.787" stroke-linejoin="miter" stroke-width="0.5" stroke="#262626"/>
   <polyline fill="none" stroke-linecap="butt" points="521.28,217.787 516.812,217.787" stroke-linejoin="miter" stroke-width="0.5" stroke="#262626"/>
   <polyline fill="none" stroke-linecap="butt" points="74.88,209.882 79.348,209.882" stroke-linejoin="miter" stroke-width="0.5" stroke="#262626"/>
   <polyline fill="none" stroke-linecap="butt" points="521.28,209.882 516.812,209.882" stroke-linejoin="miter" stroke-width="0.5" stroke="#262626"/>
   <polyline fill="none" stroke-linecap="butt" points="74.88,201.977 79.348,201.977" stroke-linejoin="miter" stroke-width="0.5" stroke="#262626"/>
   <polyline fill="none" stroke-linecap="butt" points="521.28,201.977 516.812,201.977" stroke-linejoin="miter" stroke-width="0.5" stroke="#262626"/>
   <polyline fill="none" stroke-linecap="butt" points="74.88,194.072 79.348,194.072" stroke-linejoin="miter" stroke-width="0.5" stroke="#262626"/>
   <polyline fill="none" stroke-linecap="butt" points="521.28,194.072 516.812,194.072" stroke-linejoin="miter" stroke-width="0.5" stroke="#262626"/>
   <text font-size="10" font-weight="normal" transform="translate(54.8755,253.409) rotate(-0,15,-4)" font-style="normal" xml:space="preserve" font-family="FreeSans">
    <tspan fill="rgb(38,38,38)" y="-0" x="0 3 9 ">-10</tspan>
   </text>
   <text font-size="10" font-weight="normal" transform="translate(60.8755,245.503) rotate(-0,9,-4)" font-style="normal" xml:space="preserve" font-family="FreeSans">
    <tspan fill="rgb(38,38,38)" y="-0" x="0 3 ">-5</tspan>
   </text>
   <text font-size="10" font-weight="normal" transform="translate(63.8755,237.598) rotate(-0,6,-4)" font-style="normal" xml:space="preserve" font-family="FreeSans">
    <tspan fill="rgb(38,38,38)" y="-0" x="0 ">0</tspan>
   </text>
   <text font-size="10" font-weight="normal" transform="translate(63.8755,229.693) rotate(-0,6,-4)" font-style="normal" xml:space="preserve" font-family="FreeSans">
    <tspan fill="rgb(38,38,38)" y="-0" x="0 ">5</tspan>
   </text>
   <text font-size="10" font-weight="normal" transform="translate(57.8755,221.787) rotate(-0,12,-4)" font-style="normal" xml:space="preserve" font-family="FreeSans">
    <tspan fill="rgb(38,38,38)" y="-0" x="0 6 ">10</tspan>
   </text>
   <text font-size="10" font-weight="normal" transform="translate(57.8755,213.882) rotate(-0,12,-4)" font-style="normal" xml:space="preserve" font-family="FreeSans">
    <tspan fill="rgb(38,38,38)" y="-0" x="0 6 ">15</tspan>
   </text>
   <text font-size="10" font-weight="normal" transform="translate(57.8755,205.977) rotate(-0,12,-4)" font-style="normal" xml:space="preserve" font-family="FreeSans">
    <tspan fill="rgb(38,38,38)" y="-0" x="0 6 ">20</tspan>
   </text>
   <text font-size="10" font-weight="normal" transform="translate(57.8755,198.071) rotate(-0,12,-4)" font-style="normal" xml:space="preserve" font-family="FreeSans">
    <tspan fill="rgb(38,38,38)" y="-0" x="0 6 ">25</tspan>
   </text>
   <polyline fill="none" stroke-linecap="square" points="74.88,249.409 521.28,249.409" stroke-dasharray="16,0" stroke-linejoin="miter" stroke-width="0.5" stroke="#262626"/>
   <polyline fill="none" stroke-linecap="square" points="74.88,194.072 521.28,194.072" stroke-dasharray="16,0" stroke-linejoin="miter" stroke-width="0.5" stroke="#262626"/>
   <polyline fill="none" stroke-linecap="square" points="74.88,249.409 74.88,194.072" stroke-dasharray="16,0" stroke-linejoin="miter" stroke-width="0.5" stroke="#262626"/>
   <polyline fill="none" stroke-linecap="square" points="521.28,249.409 521.28,194.072" stroke-dasharray="16,0" stroke-linejoin="miter" stroke-width="0.5" stroke="#262626"/>
   <text font-size="16" font-weight="normal" transform="translate(45.8755,221.74) rotate(-90,4,0)" font-style="normal" xml:space="preserve" font-family="FreeSans">
    <tspan fill="rgb(38,38,38)" y="-4" x="0 ">y</tspan>
   </text>
   <text font-size="16" font-weight="normal" transform="translate(296.08,281.954) rotate(-0,2,-12)" font-style="normal" xml:space="preserve" font-family="FreeSans">
    <tspan fill="rgb(38,38,38)" y="-0" x="0 ">t</tspan>
   </text>
   <polyline fill="none" stroke-linecap="butt" points="74.88,234.866 77.112,225.093 79.344,232.297 81.576,223.187 83.808,237.224 86.04,225.589 88.272,235.481 90.504,234.499 92.736,238.738 94.968,232.826 97.2,236.305 99.432,215.502 101.664,229.621 103.896,230.296 106.128,227.39 108.36,222.786 110.592,214.601 112.824,213.365 115.056,236.17 117.288,228.872 119.52,231.138 121.752,229.98 123.984,231.538 126.216,231.807 128.448,223.442 130.68,221.148 132.912,213.352 135.144,233.32 137.376,223.903 139.608,233.804 141.84,224.542 144.072,220.52 146.304,233.576 148.536,224.62 150.768,231.428 153,214.786 155.232,210.389 157.464,223.951 159.696,230.253 161.928,198.331 164.16,238.002 166.392,234.316 168.624,204.332 170.856,228.664 173.088,223.163 175.32,213.752 177.552,223.577 179.784,225.311 182.016,231.876 184.248,219.954 186.48,229.443 188.712,220.746 190.944,228.923 193.176,210.234 195.408,215.222 197.64,208.191 199.872,220.219 202.104,216.473 204.336,217.989 206.568,215.594 208.8,218.114 211.032,221.909 213.264,231.557 215.496,232.493 217.728,224.063 219.96,225.308 222.192,232.124 224.424,222.583 226.656,215.639 228.888,239.562 231.12,229.739 233.352,217.213 235.584,225.509 237.816,218.488 240.048,212.232 242.28,224.139 244.512,219.369 246.744,214.255 248.976,227.274 251.208,208.552 253.44,229.607 255.672,218.028 257.904,228.923 260.136,216.501 262.368,214.651 264.6,213.321 266.832,216.67 269.064,226.485 271.296,216.072 273.528,222.476 275.76,223.195 277.992,212.98 280.224,223.937 282.456,202.016 284.688,222.98 286.92,208.899 289.152,221.981 291.384,222.32 293.616,218.499 295.848,212.817 298.08,225.544 300.312,218.64 302.544,225.435 304.776,221.912 307.008,218.438 309.24,207.772 311.472,212.05 313.704,214.444 315.936,208.564 318.168,210.883 320.4,215.497 322.632,221.769 324.864,228.604 327.096,216.787 329.328,216.69 331.56,214.969 333.792,216.264 336.024,205.283 338.256,219.187 340.488,220.377 342.72,219.26 344.952,218.81 347.184,207.995 349.416,221.95 351.648,219.444 353.88,211.748 356.112,222.977 358.344,231.054 360.576,229.42 362.808,202.465 365.04,229.968 367.272,227.303 369.504,222.997 371.736,227.418 373.968,226.642 376.2,225.782 378.432,232.099 380.664,225.476 382.896,218.811 385.128,235.914 387.36,208.685 389.592,216.899 391.824,224.345 394.056,231.986 396.288,211.045 398.52,215.54 400.752,219.708 402.984,219.554 405.216,218.501 407.448,234.688 409.68,225.723 411.912,217.792 414.144,215.5 416.376,224.542 418.608,214.156 420.84,233.369 423.072,215.87 425.304,208.075 427.536,212.648 429.768,234.461 432,223.037 434.232,223.67 436.464,221.01 438.696,225.299 440.928,220.736 443.16,214.67 445.392,228.321 447.624,215.216 449.856,222.813 452.088,219.966 454.32,233.184 456.552,221.379 458.784,230.645 461.016,219.603 463.248,244.201 465.48,222 467.712,219.457 469.944,223.377 472.176,217.336 474.408,210.976 476.64,214.204 478.872,234.222 481.104,236.239 483.336,222.216 485.568,221.654 487.8,213.811 490.032,216.647 492.264,225.858 494.496,233.157 496.728,225.253 498.96,228.854 501.192,238.038 503.424,217.155 505.656,218.954 507.888,221.541 510.12,229.237 512.352,230.584 514.584,216.356 516.816,215.792 519.048,220.48 521.28,231.845" stroke-linejoin="round" stroke-width="1" stroke="#0071bc"/>
  </g>
  <clipPath id="cp00576432">
   <polygon points="0,432 576,432 576,0 0,0"/>
  </clipPath>
  <g clip-path="url(#cp00576432)">
   <polygon fill="#ffffff" points="74.88,384.48 521.28,384.48 521.28,329.143 74.88,329.143" shape-rendering="crispEdges"/>
   <polyline fill="none" stroke-linecap="butt" points="74.88,384.48 74.88,329.143" stroke-dasharray="16,0" stroke-linejoin="miter" stroke-width="0.5" stroke-opacity="0.15" stroke="#262626"/>
   <polyline fill="none" stroke-linecap="butt" points="164.16,384.48 164.16,329.143" stroke-dasharray="16,0" stroke-linejoin="miter" stroke-width="0.5" stroke-opacity="0.15" stroke="#262626"/>
   <polyline fill="none" stroke-linecap="butt" points="253.44,384.48 253.44,329.143" stroke-dasharray="16,0" stroke-linejoin="miter" stroke-width="0.5" stroke-opacity="0.15" stroke="#262626"/>
   <polyline fill="none" stroke-linecap="butt" points="342.72,384.48 342.72,329.143" stroke-dasharray="16,0" stroke-linejoin="miter" stroke-width="0.5" stroke-opacity="0.15" stroke="#262626"/>
   <polyline fill="none" stroke-linecap="butt" points="432,384.48 432,329.143" stroke-dasharray="16,0" stroke-linejoin="miter" stroke-width="0.5" stroke-opacity="0.15" stroke="#262626"/>
   <polyline fill="none" stroke-linecap="butt" points="521.28,384.48 521.28,329.143" stroke-dasharray="16,0" stroke-linejoin="miter" stroke-width="0.5" stroke-opacity="0.15" stroke="#262626"/>
   <polyline fill="none" stroke-linecap="butt" points="74.88,384.48 74.88,379.989" stroke-linejoin="miter" stroke-width="0.5" stroke="#262626"/>
   <polyline fill="none" stroke-linecap="butt" points="74.88,329.143 74.88,333.634" stroke-linejoin="miter" stroke-width="0.5" stroke="#262626"/>
   <polyline fill="none" stroke-linecap="butt" points="164.16,384.48 164.16,379.989" stroke-linejoin="miter" stroke-width="0.5" stroke="#262626"/>
   <polyline fill="none" stroke-linecap="butt" points="164.16,329.143 164.16,333.634" stroke-linejoin="miter" stroke-width="0.5" stroke="#262626"/>
   <polyline fill="none" stroke-linecap="butt" points="253.44,384.48 253.44,379.989" stroke-linejoin="miter" stroke-width="0.5" stroke="#262626"/>
   <polyline fill="none" stroke-linecap="butt" points="253.44,329.143 253.44,333.634" stroke-linejoin="miter" stroke-width="0.5" stroke="#262626"/>
   <polyline fill="none" stroke-linecap="butt" points="342.72,384.48 342.72,379.989" stroke-linejoin="miter" stroke-width="0.5" stroke="#262626"/>
   <polyline fill="none" stroke-linecap="butt" points="342.72,329.143 342.72,333.634" stroke-linejoin="miter" stroke-width="0.5" stroke="#262626"/>
   <polyline fill="none" stroke-linecap="butt" points="432,384.48 432,379.989" stroke-linejoin="miter" stroke-width="0.5" stroke="#262626"/>
   <polyline fill="none" stroke-linecap="butt" points="432,329.143 432,333.634" stroke-linejoin="miter" stroke-width="0.5" stroke="#262626"/>
   <polyline fill="none" stroke-linecap="butt" points="521.28,384.48 521.28,379.989" stroke-linejoin="miter" stroke-width="0.5" stroke="#262626"/>
   <polyline fill="none" stroke-linecap="butt" points="521.28,329.143 521.28,333.634" stroke-linejoin="miter" stroke-width="0.5" stroke="#262626"/>
   <text font-size="10" font-weight="normal" transform="translate(71.88,400.026) rotate(-0,3,-8)" font-style="normal" xml:space="preserve" font-family="FreeSans">
    <tspan fill="rgb(38,38,38)" y="-0" x="0 ">0</tspan>
   </text>
   <text font-size="10" font-weight="normal" transform="translate(161.16,400.026) rotate(-0,3,-8)" font-style="normal" xml:space="preserve" font-family="FreeSans">
    <tspan fill="rgb(38,38,38)" y="-0" x="0 ">2</tspan>
   </text>
   <text font-size="10" font-weight="normal" transform="translate(250.44,400.026) rotate(-0,3,-8)" font-style="normal" xml:space="preserve" font-family="FreeSans">
    <tspan fill="rgb(38,38,38)" y="-0" x="0 ">4</tspan>
   </text>
   <text font-size="10" font-weight="normal" transform="translate(339.72,400.026) rotate(-0,3,-8)" font-style="normal" xml:space="preserve" font-family="FreeSans">
    <tspan fill="rgb(38,38,38)" y="-0" x="0 ">6</tspan>
   </text>
   <text font-size="10" font-weight="normal" transform="translate(429,400.026) rotate(-0,3,-8)" font-style="normal" xml:space="preserve" font-family="FreeSans">
    <tspan fill="rgb(38,38,38)" y="-0" x="0 ">8</tspan>
   </text>
   <text font-size="10" font-weight="normal" transform="translate(515.28,400.026) rotate(-0,6,-8)" font-style="normal" xml:space="preserve" font-family="FreeSans">
    <tspan fill="rgb(38,38,38)" y="-0" x="0 6 ">10</tspan>
   </text>
   <polyline fill="none" stroke-linecap="butt" points="74.88,384.48 521.28,384.48" stroke-dasharray="16,0" stroke-linejoin="miter" stroke-width="0.5" stroke-opacity="0.15" stroke="#262626"/>
   <polyline fill="none" stroke-linecap="butt" points="74.88,376.575 521.28,376.575" stroke-dasharray="16,0" stroke-linejoin="miter" stroke-width="0.5" stroke-opacity="0.15" stroke="#262626"/>
   <polyline fill="none" stroke-linecap="butt" points="74.88,368.669 521.28,368.669" stroke-dasharray="16,0" stroke-linejoin="miter" stroke-width="0.5" stroke-opacity="0.15" stroke="#262626"/>
   <polyline fill="none" stroke-linecap="butt" points="74.88,360.764 521.28,360.764" stroke-dasharray="16,0" stroke-linejoin="miter" stroke-width="0.5" stroke-opacity="0.15" stroke="#262626"/>
   <polyline fill="none" stroke-linecap="butt" points="74.88,352.859 521.28,352.859" stroke-dasharray="16,0" stroke-linejoin="miter" stroke-width="0.5" stroke-opacity="0.15" stroke="#262626"/>
   <polyline fill="none" stroke-linecap="butt" points="74.88,344.954 521.28,344.954" stroke-dasharray="16,0" stroke-linejoin="miter" stroke-width="0.5" stroke-opacity="0.15" stroke="#262626"/>
   <polyline fill="none" stroke-linecap="butt" points="74.88,337.048 521.28,337.048" stroke-dasharray="16,0" stroke-linejoin="miter" stroke-width="0.5" stroke-opacity="0.15" stroke="#262626"/>
   <polyline fill="none" stroke-linecap="butt" points="74.88,329.143 521.28,329.143" stroke-dasharray="16,0" stroke-linejoin="miter" stroke-width="0.5" stroke-opacity="0.15" stroke="#262626"/>
   <polyline fill="none" stroke-linecap="butt" points="74.88,384.48 79.348,384.48" stroke-linejoin="miter" stroke-width="0.5" stroke="#262626"/>
   <polyline fill="none" stroke-linecap="butt" points="521.28,384.48 516.812,384.48" stroke-linejoin="miter" stroke-width="0.5" stroke="#262626"/>
   <polyline fill="none" stroke-linecap="butt" points="74.88,376.575 79.348,376.575" stroke-linejoin="miter" stroke-width="0.5" stroke="#262626"/>
   <polyline fill="none" stroke-linecap="butt" points="521.28,376.575 516.812,376.575" stroke-linejoin="miter" stroke-width="0.5" stroke="#262626"/>
   <polyline fill="none" stroke-linecap="butt" points="74.88,368.669 79.348,368.669" stroke-linejoin="miter" stroke-width="0.5" stroke="#262626"/>
   <polyline fill="none" stroke-linecap="butt" points="521.28,368.669 516.812,368.669" stroke-linejoin="miter" stroke-width="0.5" stroke="#262626"/>
   <polyline fill="none" stroke-linecap="butt" points="74.88,360.764 79.348,360.764" stroke-linejoin="miter" stroke-width="0.5" stroke="#262626"/>
   <polyline fill="none" stroke-linecap="butt" points="521.28,360.764 516.812,360.764" stroke-linejoin="miter" stroke-width="0.5" stroke="#262626"/>
   <polyline fill="none" stroke-linecap="butt" points="74.88,352.859 79.348,352.859" stroke-linejoin="miter" stroke-width="0.5" stroke="#262626"/>
   <polyline fill="none" stroke-linecap="butt" points="521.28,352.859 516.812,352.859" stroke-linejoin="miter" stroke-width="0.5" stroke="#262626"/>
   <polyline fill="none" stroke-linecap="butt" points="74.88,344.954 79.348,344.954" stroke-linejoin="miter" stroke-width="0.5" stroke="#262626"/>
   <polyline fill="none" stroke-linecap="butt" points="521.28,344.954 516.812,344.954" stroke-linejoin="miter" stroke-width="0.5" stroke="#262626"/>
   <polyline fill="none" stroke-linecap="butt" points="74.88,337.048 79.348,337.048" stroke-linejoin="miter" stroke-width="0.5" stroke="#262626"/>
   <polyline fill="none" stroke-linecap="butt" points="521.28,337.048 516.812,337.048" stroke-linejoin="miter" stroke-width="0.5" stroke="#262626"/>
   <polyline fill="none" stroke-linecap="butt" points="74.88,329.143 79.348,329.143" stroke-linejoin="miter" stroke-width="0.5" stroke="#262626"/>
   <polyline fill="none" stroke-linecap="butt" points="521.28,329.143 516.812,329.143" stroke-linejoin="miter" stroke-width="0.5" stroke="#262626"/>
   <text font-size="10" font-weight="normal" transform="translate(54.8755,388.48) rotate(-0,15,-4)" font-style="normal" xml:space="preserve" font-family="FreeSans">
    <tspan fill="rgb(38,38,38)" y="-0" x="0 3 9 ">-20</tspan>
   </text>
   <text font-size="10" font-weight="normal" transform="translate(54.8755,380.575) rotate(-0,15,-4)" font-style="normal" xml:space="preserve" font-family="FreeSans">
    <tspan fill="rgb(38,38,38)" y="-0" x="0 3 9 ">-15</tspan>
   </text>
   <text font-size="10" font-weight="normal" transform="translate(54.8755,372.669) rotate(-0,15,-4)" font-style="normal" xml:space="preserve" font-family="FreeSans">
    <tspan fill="rgb(38,38,38)" y="-0" x="0 3 9 ">-10</tspan>
   </text>
   <text font-size="10" font-weight="normal" transform="translate(60.8755,364.764) rotate(-0,9,-4)" font-style="normal" xml:space="preserve" font-family="FreeSans">
    <tspan fill="rgb(38,38,38)" y="-0" x="0 3 ">-5</tspan>
   </text>
   <text font-size="10" font-weight="normal" transform="translate(63.8755,356.859) rotate(-0,6,-4)" font-style="normal" xml:space="preserve" font-family="FreeSans">
    <tspan fill="rgb(38,38,38)" y="-0" x="0 ">0</tspan>
   </text>
   <text font-size="10" font-weight="normal" transform="translate(63.8755,348.954) rotate(-0,6,-4)" font-style="normal" xml:space="preserve" font-family="FreeSans">
    <tspan fill="rgb(38,38,38)" y="-0" x="0 ">5</tspan>
   </text>
   <text font-size="10" font-weight="normal" transform="translate(57.8755,341.048) rotate(-0,12,-4)" font-style="normal" xml:space="preserve" font-family="FreeSans">
    <tspan fill="rgb(38,38,38)" y="-0" x="0 6 ">10</tspan>
   </text>
   <text font-size="10" font-weight="normal" transform="translate(57.8755,333.143) rotate(-0,12,-4)" font-style="normal" xml:space="preserve" font-family="FreeSans">
    <tspan fill="rgb(38,38,38)" y="-0" x="0 6 ">15</tspan>
   </text>
   <polyline fill="none" stroke-linecap="square" points="74.88,384.48 521.28,384.48" stroke-dasharray="16,0" stroke-linejoin="miter" stroke-width="0.5" stroke="#262626"/>
   <polyline fill="none" stroke-linecap="square" points="74.88,329.143 521.28,329.143" stroke-dasharray="16,0" stroke-linejoin="miter" stroke-width="0.5" stroke="#262626"/>
   <polyline fill="none" stroke-linecap="square" points="74.88,384.48 74.88,329.143" stroke-dasharray="16,0" stroke-linejoin="miter" stroke-width="0.5" stroke="#262626"/>
   <polyline fill="none" stroke-linecap="square" points="521.28,384.48 521.28,329.143" stroke-dasharray="16,0" stroke-linejoin="miter" stroke-width="0.5" stroke="#262626"/>
   <text font-size="16" font-weight="normal" transform="translate(21.3755,356.811) rotate(-90,28.5,0)" font-style="normal" xml:space="preserve" font-family="FreeSans">
    <tspan fill="rgb(38,38,38)" y="-4" x="0 9 18 22 27 35 40 45 49 ">hat{y}- y</tspan>
   </text>
   <text font-size="16" font-weight="normal" transform="translate(296.08,417.026) rotate(-0,2,-12)" font-style="normal" xml:space="preserve" font-family="FreeSans">
    <tspan fill="rgb(38,38,38)" y="-0" x="0 ">t</tspan>
   </text>
   <polyline fill="none" stroke-linecap="butt" points="74.88,350.01 77.112,359.618 79.344,352.255 81.576,361.189 83.808,347.005 86.04,358.462 88.272,348.424 90.504,349.263 92.736,344.909 94.968,350.679 97.2,347.089 99.432,367.615 101.664,353.331 103.896,352.499 106.128,355.215 108.36,359.562 110.592,367.349 112.824,368.132 115.056,345.276 117.288,352.394 119.52,350.005 121.752,351.025 123.984,349.381 126.216,349.05 128.448,357.105 130.68,359.003 132.912,366.111 135.144,346.194 137.376,355.307 139.608,345.525 141.84,354.518 144.072,358.09 146.304,345.216 148.536,353.926 150.768,347.234 153,363.119 155.232,366.522 157.464,352.732 159.696,346.577 161.928,376.792 164.16,337.795 166.392,341.942 168.624,370.556 170.856,346.394 173.088,351.728 175.32,360.39 177.552,350.47 179.784,348.765 182.016,342.663 184.248,354.271 186.48,345.105 188.712,353.553 190.944,345.681 193.176,363.436 195.408,357.881 197.64,363.902 199.872,351.705 202.104,355.046 204.336,353.249 206.568,355.22 208.8,352.467 211.032,348.71 213.264,339.755 215.496,339.561 217.728,348.147 219.96,347.143 222.192,341.024 224.424,350.602 226.656,357.118 228.888,334.396 231.12,344.722 233.352,356.892 235.584,348.814 237.816,355.574 240.048,361.159 242.28,349.409 244.512,354.013 246.744,358.622 248.976,346 251.208,363.842 253.44,343.364 255.672,354.72 257.904,344.351 260.136,356.443 262.368,357.85 264.6,358.666 266.832,355.051 269.064,345.648 271.296,355.755 273.528,349.495 275.76,348.966 277.992,358.674 280.224,347.975 282.456,368.659 284.688,347.928 286.92,361.281 289.152,348.39 291.384,348.263 293.616,352.033 295.848,357.282 298.08,345.008 300.312,351.882 302.544,345.526 304.776,349.235 307.008,352.654 309.24,362.542 311.472,357.807 313.704,355.139 315.936,360.356 318.168,357.56 320.4,352.805 322.632,346.83 324.864,340.754 327.096,352.5 329.328,352.525 331.56,354.061 333.792,352.681 336.024,362.831 338.256,349.081 340.488,348.124 342.72,349.393 344.952,349.962 347.184,360.156 349.416,346.559 351.648,349.242 353.88,356.585 356.112,345.787 358.344,338.681 360.576,341.142 362.808,367.052 365.04,340.423 367.272,343.749 369.504,348.399 371.736,344.612 373.968,345.945 376.2,347.283 378.432,341.856 380.664,348.881 382.896,355.475 385.128,339.47 387.36,365.89 389.592,357.454 391.824,350.299 394.056,343.459 396.288,363.734 398.52,358.902 400.752,354.689 402.984,354.788 405.216,355.712 407.448,340.504 409.68,349.8 411.912,357.503 414.144,359.414 416.376,350.62 418.608,360.533 420.84,342.174 423.072,359.298 425.304,366.195 427.536,361.065 429.768,340.205 432,351.767 434.232,351.309 436.464,353.954 438.696,349.941 440.928,354.456 443.16,360.058 445.392,346.891 447.624,359.566 449.856,352.071 452.088,354.821 454.32,342.412 456.552,354.188 458.784,345.526 461.016,356.392 463.248,333.306 465.48,355.443 467.712,357.747 469.944,353.859 472.176,359.516 474.408,365.066 476.64,361.274 478.872,342.081 481.104,340.996 483.336,354.957 485.568,355.417 487.8,362.622 490.032,359.363 492.264,350.372 494.496,343.784 496.728,351.831 498.96,348.612 501.192,340.423 503.424,360.833 505.656,358.699 507.888,355.962 510.12,348.645 512.352,347.753 514.584,361.444 516.816,361.449 519.048,356.539 521.28,345.737" stroke-linejoin="round" stroke-width="1" stroke="#0071bc"/>
  </g>
 </g>
</svg>
