 1;0.0;0.0;0.0; 
 2;1.3333333333333253;0.5464557375519206;7.380818309558611; 
 3;1.3333333333333313;1.216151562466333;5.16443994916571; 
 4;1.3333333333333317;1.6948278780783201;4.4531628210135; 
 5;1.3333333333333341;2.0139455556681414;4.1445915216599; 
 6;1.333333333333334;2.2163751326982624;3.9927071937368472; 
 7;1.3333333333333308;2.339540533761379;3.9136602362424964; 
 8;1.333333333333332;2.4115744198335154;3.87200239018942; 
 9;1.333333333333326;2.452059033055486;3.8502780156054075; 
 10;1.3333333333333262;2.4739029328086755;3.8392012040837606; 
 11;1.3333333333333217;2.485208468964337;3.8337159771552463; 
 12;1.3333333333333337;2.4908185745066165;3.8310882749360675; 
 13;1.333333333333319;2.4934875486722827;3.8298733542690995; 
 14;1.3333333333333248;2.4947052408657333;3.8293319126460474; 
 15;1.3333333333333308;2.495238323111978;3.829099458162914; 
 16;1.3333333333333361;2.4954624234488634;3.8290033255198117; 
 17;1.3333333333333157;2.495552968938308;3.8289650200006644; 
 18;1.3333333333333033;2.495588164346373;3.8289503063850177; 
 19;1.3333333333333122;2.4956013389304985;3.8289448548289156; 
 20;1.3333333333333335;2.4956060929677837;3.828942905067916; 
 21;1.3333333333333317;2.495607748371772;3.82894223140397; 
 22;1.3333333333332975;2.495608305165775;3.8289420063637474; 
 23;1.3333333333333104;2.4956084862399073;3.828941933621006; 
 24;1.333333333333304;2.4956085432298702;3.82894191084964; 
 25;1.3333333333333066;2.495608560604417;3.8289419039407098; 
 26;1.3333333333333082;2.4956085657398925;3.828941901907411; 
 27;1.3333333333333421;2.49560856721282;3.8289419013266297; 
 28;1.3333333333333037;2.495608567623016;3.828941901165385; 
 29;1.33333333333329;2.4956085677340343;3.828941901121853; 
 30;1.3333333333332922;2.49560856776326;3.8289419011104155; 
 31;1.3333333333332706;2.4956085677708026;3.828941901107501; 
 32;1.3333333333333528;2.4956085677726896;3.8289419011068855; 
 33;1.3333333333332016;2.4956085677727917;3.8289419011062114; 
 34;1.3333333333332114;2.4956085677731554;3.8289419011064263; 
 35;1.3333333333334394;2.4956085677734845;3.8289419011069588; 
 36;1.3333333333333601;2.4956085677732465;3.828941901106599; 
 37;1.33333333333332;2.4956085677731967;3.828941901106545; 
 38;1.3333333333333037;2.4956085677733206;3.828941901106638; 
 39;1.3333333333334088;2.495608567773241;3.828941901106687; 
