\relax 
\@nameuse{bbl@beforestart}
\catcode `"\active 
\providecommand\csxdef[2]{}
\@writefile{toc}{\providecommand\autonum@processReference[2]{}}
\@writefile{lof}{\providecommand\autonum@processReference[2]{}}
\babel@aux{russian}{}
\@writefile{toc}{\contentsline {section}{\numberline {1}Постановка задачи}{2}\protected@file@percent }
\newlabel{sec:task}{{1}{2}}
\@writefile{toc}{\contentsline {section}{\numberline {2}Анализ выпуклости целевой функции и функции ограничений}{2}\protected@file@percent }
\newlabel{fig:convexf}{{2}{4}}
\@writefile{toc}{\contentsline {section}{\numberline {3}Исследование регулярности области}{4}\protected@file@percent }
\newlabel{sec:regular}{{3}{4}}
\newlabel{eq:nablas-condition}{{3.1}{4}}
\@writefile{toc}{\contentsline {subsection}{\numberline {3.1}Регулярность в точках $(x,y)\in D$:$\wp (I(x,y)) = 1$}{4}\protected@file@percent }
\csxdef {autonum@eq:nablas-conditionReferenced}{}
\@writefile{toc}{\contentsline {subsection}{\numberline {3.2}Регулярность в точках $(x,y)\in D$:$\wp (I(x,y)) = 2$}{5}\protected@file@percent }
\newlabel{eq:regular-case1-system}{{3.2}{5}}
\csxdef {autonum@eq:regular-case1-systemReferenced}{}
\newlabel{eq:regular-case2-system}{{3.3}{6}}
\csxdef {autonum@eq:regular-case2-systemReferenced}{}
\newlabel{eq:regular-case3-system}{{3.4}{7}}
\csxdef {autonum@eq:regular-case3-systemReferenced}{}
\@writefile{toc}{\contentsline {subsection}{\numberline {3.3}Регулярность в точках $(x,y)\in D$:$\wp (I(x,y)) = 3$}{7}\protected@file@percent }
\newlabel{eq:regular-case4-system}{{3.5}{7}}
\csxdef {autonum@eq:regular-case4-systemReferenced}{}
\@writefile{toc}{\contentsline {subsection}{\numberline {3.4}Регулярность в точках $(x,y)\in D$:$I(x,y) = \emptyset $}{8}\protected@file@percent }
\@writefile{toc}{\contentsline {subsection}{\numberline {3.5}Итог}{8}\protected@file@percent }
\@writefile{toc}{\contentsline {section}{\numberline {4}Поиск минимума функции с использованием условий Каруша-Куна-Таккера}{9}\protected@file@percent }
\@writefile{toc}{\contentsline {subsection}{\numberline {4.1}Проверка необходимого условия локального минимума}{9}\protected@file@percent }
\newlabel{sec:necessary}{{4.1}{9}}
\newlabel{th:kkt}{{4.1}{9}}
\newlabel{eq:kkt-necessary}{{4.1}{9}}
\csxdef {autonum@sec:regularReferenced}{}
\csxdef {autonum@th:kktReferenced}{}
\newlabel{eq:case0-necessary}{{4.2}{10}}
\csxdef {autonum@eq:case0-necessaryReferenced}{}
\csxdef {autonum@eq:case0-necessaryReferenced}{}
\newlabel{fig:case0-necessary}{{4.1}{10}}
\csxdef {autonum@eq:case0-necessaryReferenced}{}
\newlabel{eq:case1-necessary}{{4.3}{11}}
\newlabel{eq:case1-necessary-equiv}{{4.4}{11}}
\csxdef {autonum@eq:case1-necessaryReferenced}{}
\csxdef {autonum@eq:case1-necessary-equivReferenced}{}
\csxdef {autonum@eq:case1-necessaryReferenced}{}
\newlabel{fig:case1-necessary}{{4.1}{12}}
\newlabel{fig:case1-necessary-zoom}{{4.1}{12}}
\newlabel{fig:case1-necessary-zoomzoom}{{4.1}{13}}
\newlabel{fig:case1-necessary-zoom3}{{4.1}{13}}
\newlabel{eq:case2-necessary}{{4.5}{13}}
\newlabel{eq:case2-necessary-equiv}{{4.6}{14}}
\csxdef {autonum@eq:case2-necessaryReferenced}{}
\csxdef {autonum@eq:case2-necessary-equivReferenced}{}
\csxdef {autonum@eq:case2-necessaryReferenced}{}
\newlabel{fig:case2-necessary}{{4.1}{14}}
\newlabel{eq:case3-necessary}{{4.7}{15}}
\newlabel{eq:case3-necessary-equiv}{{4.8}{15}}
\csxdef {autonum@eq:case3-necessaryReferenced}{}
\csxdef {autonum@eq:case3-necessary-equivReferenced}{}
\csxdef {autonum@eq:case3-necessaryReferenced}{}
\newlabel{fig:case3-necessary}{{4.1}{16}}
\newlabel{eq:case12-necessary}{{4.9}{16}}
\csxdef {autonum@eq:case12-necessaryReferenced}{}
\newlabel{eq:case13-necessary}{{4.10}{17}}
\csxdef {autonum@eq:case13-necessaryReferenced}{}
\newlabel{eq:case23-necessary}{{4.11}{18}}
\csxdef {autonum@eq:case23-necessaryReferenced}{}
\csxdef {autonum@sec:regularReferenced}{}
\@writefile{toc}{\contentsline {subsection}{\numberline {4.2}Анализ полученных результатов}{18}\protected@file@percent }
\@writefile{lot}{\contentsline {table}{\numberline {1}{\ignorespaces }}{19}\protected@file@percent }
\newlabel{tab:values}{{1}{19}}
\newlabel{th:Cconditionforz}{{4.2}{19}}
\csxdef {autonum@sec:necessaryReferenced}{}
\csxdef {autonum@eq:kkt-necessaryReferenced}{}
\csxdef {autonum@sec:necessaryReferenced}{}
\csxdef {autonum@sec:regularReferenced}{}
\csxdef {autonum@th:CconditionforzReferenced}{}
\csxdef {autonum@tab:valuesReferenced}{}
\@writefile{toc}{\contentsline {subsection}{\numberline {4.3}Итог}{20}\protected@file@percent }
\@writefile{toc}{\contentsline {section}{\numberline {5}Решение задачи при помощи мат.пакета}{21}\protected@file@percent }
\newlabel{fig:solution}{{5}{21}}
\@writefile{toc}{\contentsline {section}{\numberline {6}Сравнение полученных решений}{21}\protected@file@percent }
