\relax 
\@nameuse{bbl@beforestart}
\catcode `"\active 
\providecommand\csxdef[2]{}
\@writefile{toc}{\providecommand\autonum@processReference[2]{}}
\@writefile{lof}{\providecommand\autonum@processReference[2]{}}
\babel@aux{russian}{}
\@writefile{toc}{\contentsline {section}{\numberline {1}Постановка задачи}{3}\protected@file@percent }
\csxdef {autonum@eq:1-73Referenced}{}
\csxdef {autonum@eq:1-68Referenced}{}
\csxdef {autonum@eq:state-equationReferenced}{}
\csxdef {autonum@eq:state-equationReferenced}{}
\newlabel{eq:state-equation}{{1.1}{3}}
\newlabel{eq:spectr}{{1.2}{3}}
\@writefile{toc}{\contentsline {section}{\numberline {2}Модель}{3}\protected@file@percent }
\newlabel{eq:1-73}{{2.1}{3}}
\csxdef {autonum@eq:1-73Referenced}{}
\newlabel{eq:1-73-without-alpha}{{2.2}{4}}
\csxdef {autonum@eq:1-73-without-alphaReferenced}{}
\newlabel{eq:1-73-with-Uy}{{2.3}{4}}
\newlabel{eq:1-68}{{2.4}{4}}
\csxdef {autonum@eq:1-68Referenced}{}
\csxdef {autonum@eq:1-73-with-UyReferenced}{}
\csxdef {autonum@eq:state-equationReferenced}{}
\newlabel{eq:system-matrix-form}{{2.5}{4}}
\@writefile{toc}{\contentsline {section}{\numberline {3}Фильтр Калмана}{4}\protected@file@percent }
\csxdef {autonum@eq:system-matrix-formReferenced}{}
\csxdef {autonum@eq:system-matrix-formReferenced}{}
\csxdef {autonum@eq:spectrReferenced}{}
\newlabel{eq:model-discrete}{{3.1}{5}}
\csxdef {autonum@eq:model-discreteReferenced}{}
\newlabel{eq:kalman-filter}{{3.2}{5}}
\@writefile{toc}{\contentsline {section}{\numberline {4}Результаты моделирования}{5}\protected@file@percent }
\csxdef {autonum@eq:kalman-filterReferenced}{}
\newlabel{fig:y1-9}{{4}{6}}
\newlabel{fig:y2-9}{{4}{7}}
\newlabel{fig:y1-90}{{4}{8}}
\newlabel{fig:y2-90}{{4}{9}}
\newlabel{fig:y1-908}{{4}{10}}
\newlabel{fig:y2-980}{{4}{11}}
\@writefile{toc}{\contentsline {section}{\numberline {5}Выводы на основе результатов моделирования}{12}\protected@file@percent }
