\providecommand \autonum@processReference [2]{}
\babel@toc {russian}{}
\contentsline {section}{\numberline {1}Постановка задачи}{3}%
\contentsline {section}{\numberline {2}Модель}{3}%
\contentsline {section}{\numberline {3}Фильтр Калмана}{4}%
\contentsline {section}{\numberline {4}Результаты моделирования}{5}%
\contentsline {section}{\numberline {5}Выводы на основе результатов моделирования}{12}%
