 ;000;011;110;022;121;220;033;132;231;330;043;142;241;340;053;152;251;350;063;162;261;360; 
 000;-1.0;1.0;0.0;0.0;0.0;0.0;0.0;0.0;0.0;0.0;0.0;0.0;0.0;0.0;0.0;0.0;0.0;0.0;0.0;0.0;0.0;0.0 
 011;0.0;-3.0;2.0;1.0;0.0;0.0;0.0;0.0;0.0;0.0;0.0;0.0;0.0;0.0;0.0;0.0;0.0;0.0;0.0;0.0;0.0;0.0 
 110;3.0;0.0;-4.0;0.0;1.0;0.0;0.0;0.0;0.0;0.0;0.0;0.0;0.0;0.0;0.0;0.0;0.0;0.0;0.0;0.0;0.0;0.0 
 022;0.0;0.0;0.0;-5.0;4.0;0.0;1.0;0.0;0.0;0.0;0.0;0.0;0.0;0.0;0.0;0.0;0.0;0.0;0.0;0.0;0.0;0.0 
 121;0.0;0.0;3.0;0.0;-6.0;2.0;0.0;1.0;0.0;0.0;0.0;0.0;0.0;0.0;0.0;0.0;0.0;0.0;0.0;0.0;0.0;0.0 
 220;0.0;0.0;6.0;0.0;0.0;-7.0;0.0;0.0;1.0;0.0;0.0;0.0;0.0;0.0;0.0;0.0;0.0;0.0;0.0;0.0;0.0;0.0 
 033;0.0;0.0;0.0;0.0;0.0;0.0;-7.0;6.0;0.0;0.0;1.0;0.0;0.0;0.0;0.0;0.0;0.0;0.0;0.0;0.0;0.0;0.0 
 132;0.0;0.0;0.0;0.0;3.0;0.0;0.0;-8.0;4.0;0.0;0.0;1.0;0.0;0.0;0.0;0.0;0.0;0.0;0.0;0.0;0.0;0.0 
 231;0.0;0.0;0.0;0.0;0.0;6.0;0.0;0.0;-9.0;2.0;0.0;0.0;1.0;0.0;0.0;0.0;0.0;0.0;0.0;0.0;0.0;0.0 
 330;0.0;0.0;0.0;0.0;0.0;9.0;0.0;0.0;0.0;-10.0;0.0;0.0;0.0;1.0;0.0;0.0;0.0;0.0;0.0;0.0;0.0;0.0 
 043;0.0;0.0;0.0;0.0;0.0;0.0;0.0;0.0;0.0;0.0;-7.0;6.0;0.0;0.0;1.0;0.0;0.0;0.0;0.0;0.0;0.0;0.0 
 142;0.0;0.0;0.0;0.0;0.0;0.0;0.0;3.0;0.0;0.0;0.0;-8.0;4.0;0.0;0.0;1.0;0.0;0.0;0.0;0.0;0.0;0.0 
 241;0.0;0.0;0.0;0.0;0.0;0.0;0.0;0.0;6.0;0.0;0.0;0.0;-9.0;2.0;0.0;0.0;1.0;0.0;0.0;0.0;0.0;0.0 
 340;0.0;0.0;0.0;0.0;0.0;0.0;0.0;0.0;0.0;9.0;0.0;0.0;0.0;-10.0;0.0;0.0;0.0;1.0;0.0;0.0;0.0;0.0 
 053;0.0;0.0;0.0;0.0;0.0;0.0;0.0;0.0;0.0;0.0;0.0;0.0;0.0;0.0;-7.0;6.0;0.0;0.0;1.0;0.0;0.0;0.0 
 152;0.0;0.0;0.0;0.0;0.0;0.0;0.0;0.0;0.0;0.0;0.0;3.0;0.0;0.0;0.0;-8.0;4.0;0.0;0.0;1.0;0.0;0.0 
 251;0.0;0.0;0.0;0.0;0.0;0.0;0.0;0.0;0.0;0.0;0.0;0.0;6.0;0.0;0.0;0.0;-9.0;2.0;0.0;0.0;1.0;0.0 
 350;0.0;0.0;0.0;0.0;0.0;0.0;0.0;0.0;0.0;0.0;0.0;0.0;0.0;9.0;0.0;0.0;0.0;-10.0;0.0;0.0;0.0;1.0 
 063;0.0;0.0;0.0;0.0;0.0;0.0;0.0;0.0;0.0;0.0;0.0;0.0;0.0;0.0;0.0;0.0;0.0;0.0;-7.0;6.0;0.0;0.0 
 162;0.0;0.0;0.0;0.0;0.0;0.0;0.0;0.0;0.0;0.0;0.0;0.0;0.0;0.0;0.0;3.0;0.0;0.0;0.0;-8.0;4.0;0.0 
 261;0.0;0.0;0.0;0.0;0.0;0.0;0.0;0.0;0.0;0.0;0.0;0.0;0.0;0.0;0.0;0.0;6.0;0.0;0.0;0.0;-9.0;2.0 
 360;0.0;0.0;0.0;0.0;0.0;0.0;0.0;0.0;0.0;0.0;0.0;0.0;0.0;0.0;0.0;0.0;0.0;9.0;0.0;0.0;0.0;-10.0 
