# Fdb version 3
["pdflatex"] 1620551300 "c:/Users/sizov/Documents/kids-codes/latex/pakshin_final_task/main.tex" "c:/Users/sizov/Documents/kids-codes/latex/pakshin_final_task/main.pdf" "main" 1620551300
  "../preamble.tex" 1616959653 2602 475f28a2f17758f6c04cded881193abf ""
  "c:/Users/sizov/.texlive2020/texmf-var/fonts/tfm/lh/lh-t2a/labx1200.tfm" 1590870991 3308 eee81981029f67083258db36df06e523 ""
  "c:/Users/sizov/.texlive2020/texmf-var/fonts/tfm/lh/lh-t2a/labx1728.tfm" 1590870997 3312 d199be9bd555944e2403193d58a0256a ""
  "c:/Users/sizov/.texlive2020/texmf-var/fonts/tfm/lh/lh-t2a/laocc10.tfm" 1590870993 3656 7713a056740b9982ccb80c9f3fb34c3b ""
  "c:/Users/sizov/.texlive2020/texmf-var/fonts/tfm/lh/lh-t2a/laorm10.tfm" 1590870989 3704 06ce76bdb8a6bad5487b483f81db7aef ""
  "c:/Users/sizov/Documents/kids-codes/latex/pakshin_final_task/euler-maruyama.tex" 0 -1 0 ""
  "c:/Users/sizov/Documents/kids-codes/latex/pakshin_final_task/main.aux" 1620551300 9 a94a2480d3289e625eea47cd1b285758 ""
  "c:/Users/sizov/Documents/kids-codes/latex/pakshin_final_task/main.tex" 1620551295 1035 9bb72034d4d1b52fe4da8cc385c55556 ""
  "c:/Users/sizov/Documents/kids-codes/latex/pakshin_final_task/main.toc" 0 -1 0 ""
  "c:/texlive/2020/texmf-dist/fonts/map/fontname/texfonts.map" 1590843363 3524 cb3e574dea2d1052e39280babc910dc8 ""
  "c:/texlive/2020/texmf-dist/fonts/tfm/jknappen/ec/ecrm1000.tfm" 1590842557 3584 adb004a0c8e7c46ee66cad73671f37b4 ""
  "c:/texlive/2020/texmf-dist/fonts/tfm/public/amsfonts/cmextra/cmex7.tfm" 1590839329 1004 54797486969f23fa377b128694d548df ""
  "c:/texlive/2020/texmf-dist/fonts/tfm/public/amsfonts/cmextra/cmex8.tfm" 1590839329 988 bdf658c3bfc2d96d3c8b02cfc1c94c20 ""
  "c:/texlive/2020/texmf-dist/fonts/tfm/public/amsfonts/euler/euex10.tfm" 1590839330 808 f0482638b09e07d31277eba36400f7dc ""
  "c:/texlive/2020/texmf-dist/fonts/tfm/public/amsfonts/euler/euex7.tfm" 1590839330 808 ffd475d90f7bb606e739dfb01f8e0300 ""
  "c:/texlive/2020/texmf-dist/fonts/tfm/public/amsfonts/euler/euex8.tfm" 1590839330 808 f7a165c5327ac5bfc6623d1288e07ad3 ""
  "c:/texlive/2020/texmf-dist/fonts/tfm/public/amsfonts/euler/eufm10.tfm" 1590839330 1040 b84415f97d114011685943ade933dc71 ""
  "c:/texlive/2020/texmf-dist/fonts/tfm/public/amsfonts/euler/eufm7.tfm" 1590839330 1040 82eb6630b094bff824fccca83ff507f9 ""
  "c:/texlive/2020/texmf-dist/fonts/tfm/public/amsfonts/euler/eurm10.tfm" 1590839330 1228 9be37fdf0dc0e1f4df4af3594876d628 ""
  "c:/texlive/2020/texmf-dist/fonts/tfm/public/amsfonts/euler/eurm7.tfm" 1590839330 1228 22a83614922c993c1b2e124955a38ca1 ""
  "c:/texlive/2020/texmf-dist/fonts/tfm/public/amsfonts/euler/eusm10.tfm" 1590839330 896 1783287efa3eab95c325db36ffb6426d ""
  "c:/texlive/2020/texmf-dist/fonts/tfm/public/amsfonts/euler/eusm7.tfm" 1590839330 896 f42c809574a0246151e60b2c0dcf38d5 ""
  "c:/texlive/2020/texmf-dist/fonts/tfm/public/amsfonts/symbols/msam10.tfm" 1590839331 916 f87d7c45f9c908e672703b83b72241a3 ""
  "c:/texlive/2020/texmf-dist/fonts/tfm/public/amsfonts/symbols/msam7.tfm" 1590839331 928 2dc8d444221b7a635bb58038579b861a ""
  "c:/texlive/2020/texmf-dist/fonts/tfm/public/amsfonts/symbols/msbm10.tfm" 1590839331 908 2921f8a10601f252058503cc6570e581 ""
  "c:/texlive/2020/texmf-dist/fonts/tfm/public/amsfonts/symbols/msbm7.tfm" 1590839331 940 228d6584342e91276bf566bcf9716b83 ""
  "c:/texlive/2020/texmf-dist/fonts/tfm/public/cm/cmex10.tfm" 1590841253 992 662f679a0b3d2d53c1b94050fdaa3f50 ""
  "c:/texlive/2020/texmf-dist/fonts/tfm/public/cm/cmmi12.tfm" 1590841253 1524 4414a8315f39513458b80dfc63bff03a ""
  "c:/texlive/2020/texmf-dist/fonts/tfm/public/cm/cmmi6.tfm" 1590841253 1512 f21f83efb36853c0b70002322c1ab3ad ""
  "c:/texlive/2020/texmf-dist/fonts/tfm/public/cm/cmmi8.tfm" 1590841253 1520 eccf95517727cb11801f4f1aee3a21b4 ""
  "c:/texlive/2020/texmf-dist/fonts/tfm/public/cm/cmr12.tfm" 1590841253 1288 655e228510b4c2a1abe905c368440826 ""
  "c:/texlive/2020/texmf-dist/fonts/tfm/public/cm/cmr6.tfm" 1590841253 1300 b62933e007d01cfd073f79b963c01526 ""
  "c:/texlive/2020/texmf-dist/fonts/tfm/public/cm/cmr8.tfm" 1590841253 1292 21c1c5bfeaebccffdb478fd231a0997d ""
  "c:/texlive/2020/texmf-dist/fonts/tfm/public/cm/cmsy10.tfm" 1590841254 1124 6c73e740cf17375f03eec0ee63599741 ""
  "c:/texlive/2020/texmf-dist/fonts/tfm/public/cm/cmsy6.tfm" 1590841254 1116 933a60c408fc0a863a92debe84b2d294 ""
  "c:/texlive/2020/texmf-dist/fonts/tfm/public/cm/cmsy8.tfm" 1590841254 1120 8b7d695260f3cff42e636090a8002094 ""
  "c:/texlive/2020/texmf-dist/fonts/tfm/public/ecc/eorm10.tfm" 1590842572 3220 d012f6db1564a303263b11c8d398042f ""
  "c:/texlive/2020/texmf-dist/tex/context/base/mkii/supp-pdf.mkii" 1590846975 71627 94eb9990bed73c364d7f53f960cc8c5b ""
  "c:/texlive/2020/texmf-dist/tex/generic/atbegshi/atbegshi.sty" 1590839791 24708 5584a51a7101caf7e6bbf1fc27d8f7b1 ""
  "c:/texlive/2020/texmf-dist/tex/generic/babel-english/english.ldf" 1590839899 7008 9ff5fdcc865b01beca2b0fe4a46231d4 ""
  "c:/texlive/2020/texmf-dist/tex/generic/babel-russian/russianb.ldf" 1590839968 26091 c8ae0c5e664e3887bd445441d24e5ab6 ""
  "c:/texlive/2020/texmf-dist/tex/generic/babel/babel.def" 1590839861 107158 a58f7a1696ebeb13376aa0f8720600d4 ""
  "c:/texlive/2020/texmf-dist/tex/generic/babel/babel.sty" 1590839861 35343 180ff3fc8cf1d846a7f48b26f8aa7c17 ""
  "c:/texlive/2020/texmf-dist/tex/generic/babel/txtbabel.def" 1590839869 5211 2c3605e674ad86cdc9fdcfcd3de3a1da ""
  "c:/texlive/2020/texmf-dist/tex/generic/iftex/iftex.sty" 1590844435 6501 4011d89d9621e0b0901138815ba5ff29 ""
  "c:/texlive/2020/texmf-dist/tex/generic/infwarerr/infwarerr.sty" 1590844511 8356 7bbb2c2373aa810be568c29e333da8ed ""
  "c:/texlive/2020/texmf-dist/tex/generic/kvdefinekeys/kvdefinekeys.sty" 1590845088 5412 d5a2436094cd7be85769db90f29250a6 ""
  "c:/texlive/2020/texmf-dist/tex/generic/kvsetkeys/kvsetkeys.sty" 1590845095 13807 952b0226d4efca026f0e19dd266dcc22 ""
  "c:/texlive/2020/texmf-dist/tex/generic/ltxcmds/ltxcmds.sty" 1590846112 18552 1e1cc7b75da0dfaacce7cdcb27d306bf ""
  "c:/texlive/2020/texmf-dist/tex/generic/pgf/basiclayer/pgfcore.code.tex" 1590848189 992 fb3cda354707a54fda62787a411c7c22 ""
  "c:/texlive/2020/texmf-dist/tex/generic/pgf/basiclayer/pgfcorearrows.code.tex" 1590848189 43820 bc6cf5aa959817914ace33f5c6232161 ""
  "c:/texlive/2020/texmf-dist/tex/generic/pgf/basiclayer/pgfcoreexternal.code.tex" 1590848189 19324 c9a64402f22bd8d81821141a357af653 ""
  "c:/texlive/2020/texmf-dist/tex/generic/pgf/basiclayer/pgfcoregraphicstate.code.tex" 1590848189 6038 d639d02574be9a72f3c602c2a3510e02 ""
  "c:/texlive/2020/texmf-dist/tex/generic/pgf/basiclayer/pgfcoreimage.code.tex" 1590848189 6948 284bbe3c9a7ca0a826c1c03895e69b9f ""
  "c:/texlive/2020/texmf-dist/tex/generic/pgf/basiclayer/pgfcorelayers.code.tex" 1590848189 4883 a6f3eb1f71d8c4affaf43a169828b043 ""
  "c:/texlive/2020/texmf-dist/tex/generic/pgf/basiclayer/pgfcoreobjects.code.tex" 1590848189 2544 3b1b198fd49f01e328adc9162a07b213 ""
  "c:/texlive/2020/texmf-dist/tex/generic/pgf/basiclayer/pgfcorepathconstruct.code.tex" 1590848189 44189 1fd6229dad4c898883516c032f2ca5d2 ""
  "c:/texlive/2020/texmf-dist/tex/generic/pgf/basiclayer/pgfcorepathprocessing.code.tex" 1590848189 17311 3092579be20ef0f229c42ad3f09da85c ""
  "c:/texlive/2020/texmf-dist/tex/generic/pgf/basiclayer/pgfcorepathusage.code.tex" 1590848189 21302 d6c4b340248adbe650ebf6ca76bdccca ""
  "c:/texlive/2020/texmf-dist/tex/generic/pgf/basiclayer/pgfcorepatterns.code.tex" 1590848189 9690 7585efa5a591822837f837bc5bc35621 ""
  "c:/texlive/2020/texmf-dist/tex/generic/pgf/basiclayer/pgfcorepoints.code.tex" 1590848189 33335 942ccafe284041918d36e54696b98aa7 ""
  "c:/texlive/2020/texmf-dist/tex/generic/pgf/basiclayer/pgfcorequick.code.tex" 1590848189 2965 502761b60f43ab2de5ecb2f4625163ae ""
  "c:/texlive/2020/texmf-dist/tex/generic/pgf/basiclayer/pgfcorerdf.code.tex" 1590848190 5196 f8c5c775d4d6e2cb050392127cabda72 ""
  "c:/texlive/2020/texmf-dist/tex/generic/pgf/basiclayer/pgfcorescopes.code.tex" 1590848190 20726 ed6ec1d6f0f35e7a93de4e79af83dbce ""
  "c:/texlive/2020/texmf-dist/tex/generic/pgf/basiclayer/pgfcoreshade.code.tex" 1590848190 35249 144a6b9c4df4644618bb3a0a40472608 ""
  "c:/texlive/2020/texmf-dist/tex/generic/pgf/basiclayer/pgfcoretransformations.code.tex" 1590848190 21989 266e83c51fe41eb8b8d5e6896dc71cc1 ""
  "c:/texlive/2020/texmf-dist/tex/generic/pgf/basiclayer/pgfcoretransparency.code.tex" 1590848190 8842 5cc856e132fac404805c6da091779283 ""
  "c:/texlive/2020/texmf-dist/tex/generic/pgf/frontendlayer/tikz/libraries/tikzlibrarydecorations.code.tex" 1590848190 5493 6342997a7484f1ea9feacd1b25ead9ea ""
  "c:/texlive/2020/texmf-dist/tex/generic/pgf/frontendlayer/tikz/libraries/tikzlibrarydecorations.pathmorphing.code.tex" 1590848190 321 61aafaff3134e44ce6305fdd6927cdc5 ""
  "c:/texlive/2020/texmf-dist/tex/generic/pgf/frontendlayer/tikz/libraries/tikzlibrarydecorations.pathreplacing.code.tex" 1590848190 1319 b38e66120927828ef91b8bfec59e82f3 ""
  "c:/texlive/2020/texmf-dist/tex/generic/pgf/frontendlayer/tikz/libraries/tikzlibraryplotmarks.code.tex" 1590848191 325 dd99a5daacaad68231ba39fa31c3e277 ""
  "c:/texlive/2020/texmf-dist/tex/generic/pgf/frontendlayer/tikz/libraries/tikzlibrarytopaths.code.tex" 1590848191 11544 2a5d66a3270abf4ef673e8a0b7734a90 ""
  "c:/texlive/2020/texmf-dist/tex/generic/pgf/frontendlayer/tikz/tikz.code.tex" 1590848191 187592 7922ceab1864698dec4c84978d5b182f ""
  "c:/texlive/2020/texmf-dist/tex/generic/pgf/libraries/decorations/pgflibrarydecorations.pathmorphing.code.tex" 1590848195 8843 8328b4068b5b11eaa173e0957cd0eac5 ""
  "c:/texlive/2020/texmf-dist/tex/generic/pgf/libraries/decorations/pgflibrarydecorations.pathreplacing.code.tex" 1590848195 7474 acce7114514030373cc6cb938a73a92e ""
  "c:/texlive/2020/texmf-dist/tex/generic/pgf/libraries/pgflibraryfpu.code.tex" 1590848195 83910 20dfc3ec7fa0b1c2b3bb20376d4a1a54 ""
  "c:/texlive/2020/texmf-dist/tex/generic/pgf/libraries/pgflibraryplothandlers.code.tex" 1590848195 32995 a4d54c043ae5274ceaaddeb36ad43a6f ""
  "c:/texlive/2020/texmf-dist/tex/generic/pgf/libraries/pgflibraryplotmarks.code.tex" 1590848195 14524 f7f259aa362ad7d5bf9235db788feef3 ""
  "c:/texlive/2020/texmf-dist/tex/generic/pgf/math/pgfint.code.tex" 1590848195 3063 8c415c68a0f3394e45cfeca0b65f6ee6 ""
  "c:/texlive/2020/texmf-dist/tex/generic/pgf/math/pgfmath.code.tex" 1590848195 521 c70cf6ad609de83a27ee7929eb356332 ""
  "c:/texlive/2020/texmf-dist/tex/generic/pgf/math/pgfmathcalc.code.tex" 1590848195 13391 933cab19c6d27039dbfc487330d1005a ""
  "c:/texlive/2020/texmf-dist/tex/generic/pgf/math/pgfmathfloat.code.tex" 1590848195 104938 15f2d8bdabd6bf9ca70f62cd8e3d4940 ""
  "c:/texlive/2020/texmf-dist/tex/generic/pgf/math/pgfmathfunctions.base.code.tex" 1590848195 10157 218d58ab074e5bd0d027de45ec64cc00 ""
  "c:/texlive/2020/texmf-dist/tex/generic/pgf/math/pgfmathfunctions.basic.code.tex" 1590848195 28176 568b081ec39645f2db1a29fbd0c635e2 ""
  "c:/texlive/2020/texmf-dist/tex/generic/pgf/math/pgfmathfunctions.code.tex" 1590848195 9054 388d21239a1b6df2cc8beaae31c976b0 ""
  "c:/texlive/2020/texmf-dist/tex/generic/pgf/math/pgfmathfunctions.comparison.code.tex" 1590848195 3865 cddf7ddc80f018587c55afdcc79fc333 ""
  "c:/texlive/2020/texmf-dist/tex/generic/pgf/math/pgfmathfunctions.integerarithmetics.code.tex" 1590848195 3177 27d85c44fbfe09ff3b2cf2879e3ea434 ""
  "c:/texlive/2020/texmf-dist/tex/generic/pgf/math/pgfmathfunctions.misc.code.tex" 1590848195 10925 df50b8a6e5660a585e3a2bf55726dcc8 ""
  "c:/texlive/2020/texmf-dist/tex/generic/pgf/math/pgfmathfunctions.random.code.tex" 1590848195 7787 1750fc3f164703caf31fc8ea9218c67e ""
  "c:/texlive/2020/texmf-dist/tex/generic/pgf/math/pgfmathfunctions.round.code.tex" 1590848195 3379 cbd0948a550bd7a495a160ca6beee9ed ""
  "c:/texlive/2020/texmf-dist/tex/generic/pgf/math/pgfmathfunctions.trigonometric.code.tex" 1590848195 92405 bba89470858d7b0788a9c09331c39653 ""
  "c:/texlive/2020/texmf-dist/tex/generic/pgf/math/pgfmathparser.code.tex" 1590848195 36526 453db1f8626a56b5ebb0fad496d6a39f ""
  "c:/texlive/2020/texmf-dist/tex/generic/pgf/math/pgfmathutil.code.tex" 1590848195 8471 b18959397c76e1e582402ab9f592ed9f ""
  "c:/texlive/2020/texmf-dist/tex/generic/pgf/modules/pgfmoduledecorations.code.tex" 1590848195 71722 1aa2adb2b5cb7aafc25e92426626ab63 ""
  "c:/texlive/2020/texmf-dist/tex/generic/pgf/modules/pgfmodulematrix.code.tex" 1590848195 21201 46a4dded6619f990ac7347f99fbaac9f ""
  "c:/texlive/2020/texmf-dist/tex/generic/pgf/modules/pgfmoduleplot.code.tex" 1590848196 16121 9e240115374a8d489f2f786115df83a9 ""
  "c:/texlive/2020/texmf-dist/tex/generic/pgf/modules/pgfmoduleshapes.code.tex" 1590848196 43259 3e05ba63539916af2eaca603c2eda780 ""
  "c:/texlive/2020/texmf-dist/tex/generic/pgf/pgf.revision.tex" 1590848196 465 1f401ab1e7fc6cb7ede39e96c66531fd ""
  "c:/texlive/2020/texmf-dist/tex/generic/pgf/systemlayer/pgf.cfg" 1590848196 926 70ff613fabeb70f5d1673dc0c93987bd ""
  "c:/texlive/2020/texmf-dist/tex/generic/pgf/systemlayer/pgfsys-common-pdf.def" 1590848196 5546 3586827e6032c95512b2a6682d2979a3 ""
  "c:/texlive/2020/texmf-dist/tex/generic/pgf/systemlayer/pgfsys-luatex.def" 1590848196 13214 dd7528d1b54531af922516f1e20068a2 ""
  "c:/texlive/2020/texmf-dist/tex/generic/pgf/systemlayer/pgfsys-pdftex.def" 1590848196 12603 c02869ea216d842c29d52fae8738264e ""
  "c:/texlive/2020/texmf-dist/tex/generic/pgf/systemlayer/pgfsys.code.tex" 1590848196 60269 e86bc0081af83a4ad47e4500ee09a2e4 ""
  "c:/texlive/2020/texmf-dist/tex/generic/pgf/systemlayer/pgfsysprotocol.code.tex" 1590848196 1896 82c274ff520f9e450ccea4e3ef4edc12 ""
  "c:/texlive/2020/texmf-dist/tex/generic/pgf/systemlayer/pgfsyssoftpath.code.tex" 1590848196 7778 a25a32a10ca820357491d4c7b3ac02ea ""
  "c:/texlive/2020/texmf-dist/tex/generic/pgf/utilities/pgffor.code.tex" 1590848196 23777 cb6c8f02f87d86d621f5cb92c44f4998 ""
  "c:/texlive/2020/texmf-dist/tex/generic/pgf/utilities/pgfkeys.code.tex" 1590848196 36815 f7f1772c398f07af2cb741992963045c ""
  "c:/texlive/2020/texmf-dist/tex/generic/pgf/utilities/pgfkeysfiltered.code.tex" 1590848196 37439 bd44d50aef702b03193f731207931834 ""
  "c:/texlive/2020/texmf-dist/tex/generic/pgf/utilities/pgfrcs.code.tex" 1590848196 4494 7e5ace0ccf59408f2cf63219a5d36927 ""
  "c:/texlive/2020/texmf-dist/tex/generic/pgf/utilities/pgfutil-common-lists.tex" 1590848196 7250 03b2b9fb5fa38e7ca5cc3c45860fb210 ""
  "c:/texlive/2020/texmf-dist/tex/generic/pgf/utilities/pgfutil-common.tex" 1590848196 28309 488ccc6c701bbdd1bf671f708757aa5c ""
  "c:/texlive/2020/texmf-dist/tex/generic/pgf/utilities/pgfutil-latex.def" 1590848196 6286 1bd76fc45da9929ab2a64f51cba3ab6f ""
  "c:/texlive/2020/texmf-dist/tex/generic/pgfplots/libs/pgflibrarypgfplots.surfshading.code.tex" 1590848275 22701 5fab7b8ebb90b053dc067d1bd37e43c2 ""
  "c:/texlive/2020/texmf-dist/tex/generic/pgfplots/libs/pgfplotslibrary.code.tex" 1590848275 3047 aa82404aec57311271f4991c44bd71dc ""
  "c:/texlive/2020/texmf-dist/tex/generic/pgfplots/liststructure/pgfplotsarray.code.tex" 1590848276 23537 54be8160344d894595f6d145b1311658 ""
  "c:/texlive/2020/texmf-dist/tex/generic/pgfplots/liststructure/pgfplotsdeque.code.tex" 1590848276 4288 b8d6247899b21e3bb66bb11b24d30f2c ""
  "c:/texlive/2020/texmf-dist/tex/generic/pgfplots/liststructure/pgfplotsliststructure.code.tex" 1590848276 13828 11d1b09335a4a8baa693dd1e6cac3edf ""
  "c:/texlive/2020/texmf-dist/tex/generic/pgfplots/liststructure/pgfplotsliststructureext.code.tex" 1590848276 24373 6544c1554e5da33118301011eb03058d ""
  "c:/texlive/2020/texmf-dist/tex/generic/pgfplots/liststructure/pgfplotsmatrix.code.tex" 1590848276 18861 7dc35832c8ccea3aa73cdcd75ec0a60b ""
  "c:/texlive/2020/texmf-dist/tex/generic/pgfplots/numtable/pgfplotstable.code.tex" 1590848276 121116 f03e90e14394016fff23c6c4177349b8 ""
  "c:/texlive/2020/texmf-dist/tex/generic/pgfplots/numtable/pgfplotstable.coltype.code.tex" 1590848276 2713 fd4cc0a81e533baadca64f656777ffd6 ""
  "c:/texlive/2020/texmf-dist/tex/generic/pgfplots/numtable/pgfplotstableshared.code.tex" 1590848276 83469 f77a7d8a23834d4c2472f8dba8e67bff ""
  "c:/texlive/2020/texmf-dist/tex/generic/pgfplots/oldpgfcompatib/pgfplotsoldpgfsupp_loader.code.tex" 1590848276 12347 43d867ea29e34d528123d9ef750aa146 ""
  "c:/texlive/2020/texmf-dist/tex/generic/pgfplots/pgfplots.code.tex" 1590848277 484290 caea27cd6fb92bee42d780744628835e ""
  "c:/texlive/2020/texmf-dist/tex/generic/pgfplots/pgfplots.errorbars.code.tex" 1590848277 22428 72578a4c9324bc5dfafe23fe64f64024 ""
  "c:/texlive/2020/texmf-dist/tex/generic/pgfplots/pgfplots.markers.code.tex" 1590848277 12489 859c23df41fb9067128ef5a64b01c0a4 ""
  "c:/texlive/2020/texmf-dist/tex/generic/pgfplots/pgfplots.paths.code.tex" 1590848277 3533 973f376afa5a4526f16b11630b9931b4 ""
  "c:/texlive/2020/texmf-dist/tex/generic/pgfplots/pgfplots.revision.tex" 1590848277 516 008784cc48c9187f099ff003cec6516a ""
  "c:/texlive/2020/texmf-dist/tex/generic/pgfplots/pgfplots.scaling.code.tex" 1590848277 123680 d33fda4929d7200c3e6f0ec83c006aef ""
  "c:/texlive/2020/texmf-dist/tex/generic/pgfplots/pgfplotscoordprocessing.code.tex" 1590848277 367035 be5ad6faf030b5e07b899b712359f9d2 ""
  "c:/texlive/2020/texmf-dist/tex/generic/pgfplots/pgfplotscore.code.tex" 1590848277 19944 7957349fbe31c4e8dea9de4cd41cb086 ""
  "c:/texlive/2020/texmf-dist/tex/generic/pgfplots/pgfplotsmeshplothandler.code.tex" 1590848277 133871 7247b31742a2240343a6739cb76d6821 ""
  "c:/texlive/2020/texmf-dist/tex/generic/pgfplots/pgfplotsmeshplotimage.code.tex" 1590848277 24402 288fc3f6c7980728b8a519dfd1737d22 ""
  "c:/texlive/2020/texmf-dist/tex/generic/pgfplots/pgfplotsplothandlers.code.tex" 1590848277 117959 1e3bc7fa9f198fdae686d98f31121098 ""
  "c:/texlive/2020/texmf-dist/tex/generic/pgfplots/pgfplotsstackedplots.code.tex" 1590848277 26190 c428334c805ae1d15110eb8670292947 ""
  "c:/texlive/2020/texmf-dist/tex/generic/pgfplots/pgfplotsticks.code.tex" 1590848277 91244 1a0e9e49b7a2d10d1b1a610306ba4f8c ""
  "c:/texlive/2020/texmf-dist/tex/generic/pgfplots/sys/pgflibrarypgfplots.surfshading.pgfsys-pdftex.def" 1590848277 5907 9dc460712c23e5b3338820499d47608c ""
  "c:/texlive/2020/texmf-dist/tex/generic/pgfplots/sys/pgfplotssysgeneric.code.tex" 1590848277 3095 c82d281b748902a65be2ccca97360b11 ""
  "c:/texlive/2020/texmf-dist/tex/generic/pgfplots/util/pgfplotsbinary.code.tex" 1590848277 23050 a369aa910ef860a3621fe0459faa335c ""
  "c:/texlive/2020/texmf-dist/tex/generic/pgfplots/util/pgfplotsbinary.data.code.tex" 1590848277 26859 7a4ee9d206fb0a0daa0d3108445afb57 ""
  "c:/texlive/2020/texmf-dist/tex/generic/pgfplots/util/pgfplotscolor.code.tex" 1590848277 23958 1b96260863091af1669c3a38b1c4c9af ""
  "c:/texlive/2020/texmf-dist/tex/generic/pgfplots/util/pgfplotscolormap.code.tex" 1590848277 88956 018b2512ef27998e97af72e8b1dcdbd5 ""
  "c:/texlive/2020/texmf-dist/tex/generic/pgfplots/util/pgfplotsutil.code.tex" 1590848277 71110 bbc5bf1ad9c1c1213e14ccb5d14dd931 ""
  "c:/texlive/2020/texmf-dist/tex/generic/pgfplots/util/pgfplotsutil.verb.code.tex" 1590848277 3286 c17079ba50483e1ac1721268ea016041 ""
  "c:/texlive/2020/texmf-dist/tex/latex/amscls/amsthm.sty" 1590839308 12241 7004ea68a77032a2a6cf9ee3e06d18d2 ""
  "c:/texlive/2020/texmf-dist/tex/latex/amsfonts/amsfonts.sty" 1590839333 5949 3f3fd50a8cc94c3d4cbf4fc66cd3df1c ""
  "c:/texlive/2020/texmf-dist/tex/latex/amsfonts/amssymb.sty" 1590839333 13829 94730e64147574077f8ecfea9bb69af4 ""
  "c:/texlive/2020/texmf-dist/tex/latex/amsfonts/ueuex.fd" 1590839333 1001 ebfbbf5441dcc5764bd08a9636bca400 ""
  "c:/texlive/2020/texmf-dist/tex/latex/amsfonts/ueuf.fd" 1590839333 1047 4252767c0fde12e3ce9f914ef4bb1ea1 ""
  "c:/texlive/2020/texmf-dist/tex/latex/amsfonts/ueur.fd" 1590839333 1065 55c4c6a48223d6c0832237c226be423c ""
  "c:/texlive/2020/texmf-dist/tex/latex/amsfonts/ueus.fd" 1590839333 1063 80474fdfb43411691d8ceb1c8eb7d1de ""
  "c:/texlive/2020/texmf-dist/tex/latex/amsfonts/umsa.fd" 1590839333 961 6518c6525a34feb5e8250ffa91731cff ""
  "c:/texlive/2020/texmf-dist/tex/latex/amsfonts/umsb.fd" 1590839333 961 d02606146ba5601b5645f987c92e6193 ""
  "c:/texlive/2020/texmf-dist/tex/latex/amsmath/amsbsy.sty" 1590839347 2211 ca7ce284ab93c8eecdc6029dc5ccbd73 ""
  "c:/texlive/2020/texmf-dist/tex/latex/amsmath/amsgen.sty" 1590839347 4161 7f6eb9092061a11f87d08ed13515b48d ""
  "c:/texlive/2020/texmf-dist/tex/latex/amsmath/amsmath.sty" 1590839347 85660 baee036978c7a91f4e2bba43f05e5945 ""
  "c:/texlive/2020/texmf-dist/tex/latex/amsmath/amsopn.sty" 1590839347 4116 32e6abd27229755a83a8b7f18e583890 ""
  "c:/texlive/2020/texmf-dist/tex/latex/amsmath/amstext.sty" 1590839347 2432 8ff93b1137020e8f21930562a874ae66 ""
  "c:/texlive/2020/texmf-dist/tex/latex/autonum/autonum.sty" 1590839836 10733 ef45f7bb535dd9fe302d7425401e3559 ""
  "c:/texlive/2020/texmf-dist/tex/latex/base/exscale.sty" 1590845208 2582 740b94c0cd36fe969fdd17c721f35f3d ""
  "c:/texlive/2020/texmf-dist/tex/latex/base/fontenc.sty" 1590845208 4947 0c2888dd88121ae675fc6e82213623ba ""
  "c:/texlive/2020/texmf-dist/tex/latex/base/ifthen.sty" 1590845208 5159 892429808d9e0e2b3548aaefd9a06ed0 ""
  "c:/texlive/2020/texmf-dist/tex/latex/base/inputenc.sty" 1590845208 5050 8933a39ad74377accd18991c5eb90c58 ""
  "c:/texlive/2020/texmf-dist/tex/latex/base/size12.clo" 1590845208 8447 5c4b8ee712f8e349df2722115bc8c513 ""
  "c:/texlive/2020/texmf-dist/tex/latex/base/t2aenc.dfu" 1590845209 9891 9d0875feb07a471658e4b3eeb906125d ""
  "c:/texlive/2020/texmf-dist/tex/latex/beton/beton.sty" 1590840245 2963 e0bad5266dfa96326eabb4ca0c1c2aff ""
  "c:/texlive/2020/texmf-dist/tex/latex/ccfonts/t1ccr.fd" 1590840973 1666 895c0081e5b7c63cf25e9de784a75d8a ""
  "c:/texlive/2020/texmf-dist/tex/latex/chngcntr/chngcntr.sty" 1590841142 4336 84bc4a8edb126e69abec1a67dc0c36cf ""
  "c:/texlive/2020/texmf-dist/tex/latex/colortbl/colortbl.sty" 1590841481 10793 d0af3aa11e27ae35ba4685b17597b122 ""
  "c:/texlive/2020/texmf-dist/tex/latex/cyrillic/t2accr.fd" 1590842016 3148 0b1bec047c599fd8d5594804ccb93d62 ""
  "c:/texlive/2020/texmf-dist/tex/latex/cyrillic/t2acmr.fd" 1590842016 2562 d9552c7bbba7c739be0e3edc79b79dbb ""
  "c:/texlive/2020/texmf-dist/tex/latex/cyrillic/t2aenc.def" 1590842016 12038 0675a914f4ef655c59b5d82e90103345 ""
  "c:/texlive/2020/texmf-dist/tex/latex/epstopdf-pkg/epstopdf-base.sty" 1590842809 13886 d1306dcf79a944f6988e688c1785f9ce ""
  "c:/texlive/2020/texmf-dist/tex/latex/eso-pic/eso-pic.sty" 1590842875 11991 c1669f88e13f8bb6243df144e456b477 ""
  "c:/texlive/2020/texmf-dist/tex/latex/etex-pkg/etex.sty" 1590842902 19013 c49da619eb7bd8093706fabc7ba9ceae ""
  "c:/texlive/2020/texmf-dist/tex/latex/etextools/etextools.sty" 1590842906 53492 4d40bc192d73974908f75dd1cd902199 ""
  "c:/texlive/2020/texmf-dist/tex/latex/etoolbox/etoolbox.sty" 1590842922 45259 743c52a37a6e5ed83cfe0e128b2da10d ""
  "c:/texlive/2020/texmf-dist/tex/latex/euler/euler.sty" 1590842935 12115 41b0643e9034a77043b93735fc5e552c ""
  "c:/texlive/2020/texmf-dist/tex/latex/extsizes/extarticle.cls" 1590843012 20602 3112294ba237d94ce4a1502cfef3594f ""
  "c:/texlive/2020/texmf-dist/tex/latex/float/float.sty" 1590843292 6749 16d2656a1984957e674b149555f1ea1d ""
  "c:/texlive/2020/texmf-dist/tex/latex/graphics-cfg/color.cfg" 1590843873 1213 620bba36b25224fa9b7e1ccb4ecb76fd ""
  "c:/texlive/2020/texmf-dist/tex/latex/graphics-cfg/graphics.cfg" 1590843873 1224 978390e9c2234eab29404bc21b268d1e ""
  "c:/texlive/2020/texmf-dist/tex/latex/graphics-def/pdftex.def" 1590843874 17448 c8e20d5f7e69b0cbecf82ab29daeebd9 ""
  "c:/texlive/2020/texmf-dist/tex/latex/graphics/graphics.sty" 1590843867 16932 04729abe63b66ec59ea56edcd722b058 ""
  "c:/texlive/2020/texmf-dist/tex/latex/graphics/graphicx.sty" 1590843867 9067 1b996612394a52e1efe89c8bfe8a5892 ""
  "c:/texlive/2020/texmf-dist/tex/latex/graphics/keyval.sty" 1590843867 2590 e3b24ff953e5b58d924f163d25380312 ""
  "c:/texlive/2020/texmf-dist/tex/latex/graphics/lscape.sty" 1590843867 1753 f80abc75c0e3a4915097779c2649cc98 ""
  "c:/texlive/2020/texmf-dist/tex/latex/graphics/trig.sty" 1590843867 3976 d7fa7d81d2870d509d25b17d0245e735 ""
  "c:/texlive/2020/texmf-dist/tex/latex/grfext/grfext.sty" 1590843923 7133 b94bbacbee6e4fdccdc7f810b2aec370 ""
  "c:/texlive/2020/texmf-dist/tex/latex/kvoptions/kvoptions.sty" 1590845092 22520 c4c2dab203104295e1e618be7e5c0f5b ""
  "c:/texlive/2020/texmf-dist/tex/latex/l3backend/l3backend-pdfmode.def" 1590845112 25681 ff44b84000da696ec5fec7018b319c95 ""
  "c:/texlive/2020/texmf-dist/tex/latex/latexconfig/epstopdf-sys.cfg" 1590845459 678 4792914a8f45be57bb98413425e4c7af ""
  "c:/texlive/2020/texmf-dist/tex/latex/letltxmacro/letltxmacro.sty" 1590845577 5766 13a9e8766c47f30327caf893ece86ac8 ""
  "c:/texlive/2020/texmf-dist/tex/latex/mathtools/mathtools.sty" 1590846461 55731 4347f70fb23a75dbacb3c5fd21dd2675 ""
  "c:/texlive/2020/texmf-dist/tex/latex/mathtools/mhsetup.sty" 1590846461 5437 39f2bba90502a381bd48d78339c1a5f0 ""
  "c:/texlive/2020/texmf-dist/tex/latex/ms/everyshi.sty" 1590846980 3878 6aa7c08ff2621006e0603349e40a30a8 ""
  "c:/texlive/2020/texmf-dist/tex/latex/pdflscape/pdflscape.sty" 1590848097 6575 25396d208d8f2b9395d06ef315d5886c ""
  "c:/texlive/2020/texmf-dist/tex/latex/pdfpages/pdfpages.sty" 1590848109 54071 88f1e37dc9e1f95352061a066ed07263 ""
  "c:/texlive/2020/texmf-dist/tex/latex/pdfpages/pppdftex.def" 1590848109 6418 197ed301e61ce5b7f446e70345a43a62 ""
  "c:/texlive/2020/texmf-dist/tex/latex/pdftexcmds/pdftexcmds.sty" 1590848135 19963 36fd8e818f9f0f32e2db8413d4970122 ""
  "c:/texlive/2020/texmf-dist/tex/latex/pgf/basiclayer/pgf.sty" 1590848196 1090 d20f587ea9464d1841bd0d13d3ff9856 ""
  "c:/texlive/2020/texmf-dist/tex/latex/pgf/basiclayer/pgfcore.sty" 1590848196 410 5bf12ea7330e5f12c445332a4fe9a263 ""
  "c:/texlive/2020/texmf-dist/tex/latex/pgf/compatibility/pgfcomp-version-0-65.sty" 1590848196 21013 e98e1aaaf40d31632787c2bd25d24b57 ""
  "c:/texlive/2020/texmf-dist/tex/latex/pgf/compatibility/pgfcomp-version-1-18.sty" 1590848196 989 2cf3da8e8ec55131c49389428d565e37 ""
  "c:/texlive/2020/texmf-dist/tex/latex/pgf/frontendlayer/tikz.sty" 1590848197 339 592cf35cba3d400082b8a9a5d0199d70 ""
  "c:/texlive/2020/texmf-dist/tex/latex/pgf/math/pgfmath.sty" 1590848197 306 0796eafca5e159e6ec2167a6d22d81b1 ""
  "c:/texlive/2020/texmf-dist/tex/latex/pgf/systemlayer/pgfsys.sty" 1590848197 443 0b2e781830192df35c0fd357cf13e26e ""
  "c:/texlive/2020/texmf-dist/tex/latex/pgf/utilities/pgffor.sty" 1590848197 348 8927fde343487e003b01a4c2ca34073b ""
  "c:/texlive/2020/texmf-dist/tex/latex/pgf/utilities/pgfkeys.sty" 1590848197 274 4cad6e665cc93ac2ac979039a94fa1e1 ""
  "c:/texlive/2020/texmf-dist/tex/latex/pgf/utilities/pgfrcs.sty" 1590848197 325 2bcd023400636339210573e2b3ee298b ""
  "c:/texlive/2020/texmf-dist/tex/latex/pgfplots/pgfplots.sty" 1590848277 4904 ee78b44e85d6fccf08cd99370557481e ""
  "c:/texlive/2020/texmf-dist/tex/latex/pgfplots/pgfplotstable.sty" 1590848277 1440 4c1495abf57fc4dd215ebbf2a95b1cf8 ""
  "c:/texlive/2020/texmf-dist/tex/latex/textpos/textpos.sty" 1590851461 11821 3b6b6a65b34b5571ce1cf4e3f37f3fa5 ""
  "c:/texlive/2020/texmf-dist/tex/latex/tocloft/tocloft.sty" 1590851902 36103 3e78d14f0f4b1a30560fea5e04de805d ""
  "c:/texlive/2020/texmf-dist/tex/latex/tools/array.sty" 1590851917 12560 ce3f59ceae9d9a27bfe037d6bf1d903c ""
  "c:/texlive/2020/texmf-dist/tex/latex/tools/calc.sty" 1590851917 10216 5efd55f2010055e7b7875afd6a75be82 ""
  "c:/texlive/2020/texmf-dist/tex/latex/tools/indentfirst.sty" 1590851917 1619 d4cd7231755dd1dfa89af8ceddfb0e4d ""
  "c:/texlive/2020/texmf-dist/tex/latex/vmargin/vmargin.sty" 1590852550 6845 5eae49c3f07fead60d92def0a4f5c30f ""
  "c:/texlive/2020/texmf-dist/tex/latex/wrapfig/wrapfig.sty" 1590852676 26220 3701aebf80ccdef248c0c20dd062fea9 ""
  "c:/texlive/2020/texmf-dist/tex/latex/xcolor/xcolor.sty" 1590852720 55589 34128738f682d033422ca125f82e5d62 ""
  "c:/texlive/2020/texmf-dist/web2c/texmf.cnf" 1590845024 39451 60d7debd9ef8ece44cbe965493576c2d ""
  "c:/texlive/2020/texmf-var/fonts/map/pdftex/updmap/pdftex.map" 1590853090 4897526 3fd29688b0c6ad0ad52e6d0472f52f04 ""
  "c:/texlive/2020/texmf-var/web2c/pdftex/pdflatex.fmt" 1590853358 2434984 570cd009366f263dd4f8813e0384f3f9 ""
  "c:/texlive/2020/texmf.cnf" 1590853050 673 4ae7b2f49cee444c5343a45b5d0f169c ""
  "euler-maruyama.tex" 0 -1 0 ""
  "main.aux" 0 -1 0 "pdflatex"
  "main.tex" 1620551295 1035 9bb72034d4d1b52fe4da8cc385c55556 ""
  "main.toc" 0 -1 0 "pdflatex"
  "title.tex" 1620550699 1773 2c013acb235cf2e085bcf58ccf3e36db ""
  (generated)
  "c:/Users/sizov/Documents/kids-codes/latex/pakshin_final_task/main.pdf"
  "main.toc"
  "main.log"
  "main.aux"
  "c:/Users/sizov/Documents/kids-codes/latex/pakshin_final_task/main.log"
