\providecommand \autonum@processReference [2]{}
\babel@toc {russian}{}
\contentsline {section}{\numberline {1}Аппроксимация Эйлера-Маруямы}{3}%
\contentsline {subsection}{\numberline {1.1}Пример}{3}%
\contentsline {section}{\numberline {2}Метод Эйлера-Маруямы}{5}%
\contentsline {subsection}{\numberline {2.1}Пример}{6}%
\contentsline {section}{\numberline {3}Схема Мильштейна}{9}%
\contentsline {subsection}{\numberline {3.1}Пример}{9}%
\contentsline {section}{\numberline {4}Сильная схема Тейлора-Платена порядка 1.5}{13}%
\contentsline {subsection}{\numberline {4.1}Упражнение}{13}%
