\relax 
\@nameuse{bbl@beforestart}
\catcode `"\active 
\providecommand\csxdef[2]{}
\@writefile{toc}{\providecommand\autonum@processReference[2]{}}
\@writefile{lof}{\providecommand\autonum@processReference[2]{}}
\babel@aux{russian}{}
\@writefile{toc}{\contentsline {section}{\numberline {1}Аппроксимация Эйлера-Маруямы}{3}\protected@file@percent }
\newlabel{sec:approx-euler-maruyama}{{1}{3}}
\newlabel{approx-euler-maruyama}{{1.1}{3}}
\@writefile{toc}{\contentsline {subsection}{\numberline {1.1}Пример}{3}\protected@file@percent }
\newlabel{exact-e3-8}{{1.2}{3}}
\csxdef {autonum@approx-euler-maruyamaReferenced}{}
\csxdef {autonum@exact-e3-8Referenced}{}
\@writefile{toc}{\contentsline {section}{\numberline {2}Метод Эйлера-Маруямы}{5}\protected@file@percent }
\newlabel{sec:euler-maruyama}{{2}{5}}
\@writefile{toc}{\contentsline {subsection}{\numberline {2.1}Пример}{6}\protected@file@percent }
\@writefile{toc}{\contentsline {section}{\numberline {3}Схема Мильштейна}{9}\protected@file@percent }
\newlabel{sec:milstein-scheme}{{3}{9}}
\@writefile{toc}{\contentsline {subsection}{\numberline {3.1}Пример}{9}\protected@file@percent }
\@writefile{toc}{\contentsline {section}{\numberline {4}Сильная схема Тейлора-Платена порядка 1.5}{13}\protected@file@percent }
\newlabel{sec:taylor-platen}{{4}{13}}
\@writefile{toc}{\contentsline {subsection}{\numberline {4.1}Упражнение}{13}\protected@file@percent }
\csxdef {autonum@eq:t3_15Referenced}{}
\csxdef {autonum@eq:exact_t3_15Referenced}{}
\newlabel{eq:t3_15}{{4.1}{13}}
\newlabel{eq:exact_t3_15}{{4.2}{13}}
