\relax 
\@nameuse{bbl@beforestart}
\catcode `"\active 
\providecommand\csxdef[2]{}
\@writefile{toc}{\providecommand\autonum@processReference[2]{}}
\@writefile{lof}{\providecommand\autonum@processReference[2]{}}
\babel@aux{russian}{}
\@writefile{toc}{\contentsline {section}{\numberline {1}Моделирование стохастических интегралов}{3}\protected@file@percent }
\newlabel{2_5_2}{{1.1}{3}}
\csxdef {autonum@2_5_2Referenced}{}
\newlabel{2_5_33}{{1.2}{3}}
\@writefile{toc}{\contentsline {section}{\numberline {2}Аппроксимация стохастического интеграла суммами Ито}{4}\protected@file@percent }
\newlabel{approx-stohastic-integrals}{{2}{4}}
\newlabel{example_2_23}{{2.1}{4}}
\csxdef {autonum@example_2_23Referenced}{}
\@writefile{toc}{\contentsline {section}{\numberline {3}Решение линейного стохастического дифференциального уравнения}{5}\protected@file@percent }
\newlabel{2_5_13}{{3.1}{5}}
\csxdef {autonum@2_5_13Referenced}{}
\csxdef {autonum@2_5_13Referenced}{}
\newlabel{2_5_18}{{3.2}{5}}
\csxdef {autonum@2_5_18Referenced}{}
\@writefile{toc}{\contentsline {section}{\numberline {4}Процесс Орнштейна-Уленбека}{7}\protected@file@percent }
\newlabel{2_5_1}{{4.1}{7}}
\csxdef {autonum@2_5_1Referenced}{}
\newlabel{solution_OY}{{4.2}{7}}
\@writefile{toc}{\contentsline {section}{\numberline {5}Упражнение 2.21}{7}\protected@file@percent }
\@writefile{toc}{\contentsline {section}{\numberline {6}Упражнение 2.22}{9}\protected@file@percent }
\newlabel{2_5_3_1}{{6.1}{9}}
\csxdef {autonum@2_5_3_1Referenced}{}
\csxdef {autonum@2_5_1Referenced}{}
\csxdef {autonum@solution_OYReferenced}{}
\@writefile{toc}{\contentsline {section}{\numberline {7}Упражнение 2.23}{12}\protected@file@percent }
\newlabel{2_23_y}{{7.1}{12}}
\csxdef {autonum@2_5_33Referenced}{}
\csxdef {autonum@2_23_yReferenced}{}
\csxdef {autonum@approx-stohastic-integralsReferenced}{}
