 0.01;0.1793466154739887;0.15000000000000274;0.02934661547398596;0.1793466154739882 
 0.0198989898989899;0.35567379546922334;0.29848484848469425;0.057188946984529074;0.3556737954692233 
 0.029797979797979796;0.5309060476301727;0.4469696969697473;0.08393635066042536;0.5309060476301716 
 0.039696969696969696;0.7051368081539965;0.595454545454513;0.10968226269948342;0.7051368081539984 
 0.049595959595959596;0.8784484990368743;0.7439393939394104;0.13450910509746383;0.8784484990368793 
 0.059494949494949496;1.0509141304532161;0.8924242424244856;0.1584898880287306;1.0509141304532659 
 0.06939393939393938;1.222598629658515;1.0409090909086844;0.1816895387498305;1.222598629658987 
 0.07929292929292929;1.39355994956997;1.1893939393939899;0.20416601017598013;1.393559949573288 
 0.08919191919191918;1.5638499986321825;1.3378787878788823;0.22597121075330018;1.5638499986504786 
 0.09909090909090908;1.733515424830595;1.4863636363635693;0.24715178846702582;1.7335154249134717 
 0.10898989898989898;1.9025982799215448;1.634848484848494;0.26774979507305086;1.9025982802417583 
 0.11888888888888888;2.0711365847370584;1.7833333333330836;0.28780325140397495;2.071136585822284 
 0.12878787878787878;2.239164812323078;1.931818181818384;0.30734663050469413;2.239164815618097 
 0.1386868686868687;2.4067143024170288;2.0803030303035226;0.3264112721135062;2.406714311528742 
 0.1485858585858586;2.5738136182130167;2.2287878787880735;0.34502573942494313;2.5738136414624995 
 0.15848484848484848;2.7404888542581065;2.3772727272730245;0.3632161269850819;2.740488909575643 
 0.16838383838383839;2.9067639026339607;2.5257575757579644;0.3810063268759961;2.906764026422657 
 0.1782828282828283;3.072660683194529;2.674242424242287;0.39841825895224176;3.072660945591441 
 0.18818181818181817;3.2381993424644357;2.8227272727274437;0.41547206973699186;3.238199872474444 
 0.19808080808080808;3.4033984248410163;2.971212121211959;0.4321863036290572;3.4033994501285756 
 0.207979797979798;3.5682750189796573;3.1196969696969;0.44857804928275724;3.56827692668304 
 0.21787878787878787;3.7328448815514017;3.268181818181883;0.4646630633695189;3.732848308325319 
 0.22777777777777777;3.897122540082145;3.4166666666668823;0.48045587341526297;3.897128501651202 
 0.23767676767676768;4.061121376152393;3.565151515151593;0.4959698610007993;4.0611314489279735 
 0.24757575757575756;4.224853689957436;3.7136363636363616;0.511217326321074;4.224870259677318 
 0.25747474747474747;4.388330747023606;3.8621212121217874;0.5262095349018188;4.388357341844476 
 0.2673737373737374;4.551562807779481;4.010606060605573;0.5409567471739081;4.551604535709274 
 0.2772727272727273;4.714559140672364;4.1590909090910975;0.5554682315812666;4.714623253587555 
 0.2871717171717172;4.877328019528779;4.3075757575757425;0.5697522619530366;4.877424628192128 
 0.29707070707070704;5.039876706044175;4.4560606060605785;0.583816099983596;5.040019672445625 
 0.30696969696969695;5.202211418363543;4.604545454545617;0.5976659638179257;5.202419453273194 
 0.31686868686868686;5.3643372869659;4.753030303030452;0.6113069839354475;5.364635281757707 
 0.32676767676767676;5.526258299247429;4.901515151515178;0.6247431477322511;5.5266789217819365 
 0.33666666666666667;5.687977234413025;5.049999999999604;0.6379772344134215;5.688562819032337 
 0.3465656565656566;5.849495590497275;5.198484848484989;0.6510107420122861;5.850300351986647 
 0.3564646464646465;6.010813505500497;5.346969696969394;0.6638438085311035;6.011906106224876 
 0.36636363636363634;6.171929674802988;5.4954545454544;0.6764751293485877;6.173396173176939 
 0.37626262626262624;6.332841267081038;5.6439393939391085;0.68890187314193;6.334788474139953 
 0.38616161616161615;6.49354384105668;5.792424242424277;0.7011195986324035;6.496103110246784 
 0.39606060606060606;6.654031265376081;5.940909090909153;0.7131221744669285;6.657362738871963 
 0.40595959595959596;6.814295643895718;6.089393939393979;0.7249017045017391;6.818592976900418 
 0.41585858585858587;6.974327248531065;6.237878787878605;0.7364484606524591;6.979822831243361 
 0.4257575757575757;7.134114461688163;6.386363636363732;0.7477508253244307;7.141085157072008 
 0.43565656565656563;7.293643730088402;6.534848484848403;0.758795245239998;7.3024171443938295 
 0.44555555555555554;7.452899531578241;6.683333333333434;0.7695661982448072;7.46386083389518 
 0.45545454545454545;7.611864356223295;6.831818181818266;0.7800461744050291;7.625463663350333 
 0.46535353535353535;7.770518702721335;6.9803030303031015;0.7902156724182339;7.787279046465919 
 0.47525252525252526;7.92884109083978;7.128787878787705;0.8000532120520752;7.949366986691048 
 0.4851515151515151;8.086808090284553;7.277272727272474;0.8095353630120778;8.111794729392441 
 0.495050505050505;8.244394366085466;7.425757575757564;0.8186367903279006;8.274637456812801 
 0.5049494949494949;8.401572740287987;7.574242424242633;0.8273303160453539;8.437979031471084 
 0.5148484848484849;8.55831426945353;7.722727272727174;0.8355869967263575;8.601912795123456 
 0.5247474747474747;8.71458833720691;7.871212121212291;0.8433762159946203;8.766542432124089 
 0.5346464646464646;8.870362760828598;8.019696969696959;0.8506657911316391;8.931982908046269 
 0.5445454545454546;9.025603910703383;8.168181818181749;0.8574220925216353;9.09836149682659 
 0.5544444444444444;9.180276841242502;8.316666666666528;0.8636101745759739;9.265818912481684 
 0.5643434343434344;9.334345431782715;8.46515151515138;0.8691939166313355;9.43451056479625 
 0.5742424242424242;9.48777253585622;8.613636363636363;0.8741361722198563;9.60460796232912 
 0.5841414141414141;9.640520137165014;8.762121212121144;0.8783989250438694;9.776300290823247 
 0.594040404040404;9.792549510567387;8.910606060605984;0.8819434499614028;9.949796200808091 
 0.6039393939393939;9.943821386380112;9.059090909090854;0.8847304772892574;10.125325845083896 
 0.6138383838383838;10.094296116339134;9.207575757575633;0.8867203587635013;10.30314321520919 
 0.6237373737373737;10.243933839615146;9.356060606060543;0.8878732335546027;10.483528836451825 
 0.6336363636363637;10.392694647360024;9.504545454545287;0.8881491928147378;10.666792893456373 
 0.6435353535353535;10.540538744363616;9.653030303030132;0.887508441333484;10.853278874803898 
 0.6534343434343434;10.68742660650777;9.801515151514986;0.8859114549927855;11.043367844589925 
 0.6633333333333333;10.83331913283666;9.949999999999934;0.8833191328367265;11.237483474335537 
 0.6732323232323232;10.978177791191596;10.098484848484762;0.8796929427068332;11.436098000545881 
 0.6831313131313131;11.121964756499835;10.246969696969458;0.8749950595303768;11.63973931419876 
 0.693030303030303;11.264643040944733;10.395454545454125;0.8691884954906071;11.848999441271665 
 0.702929292929293;11.406176615385236;10.543939393938478;0.8622372214467575;12.064544742064534 
 0.7128282828282828;11.546530521529482;10.692424242421644;0.8541062791078379;12.287128247013852 
 0.7227272727272727;11.685670974497551;10.840909090902151;0.8447618835954003;12.517604665524392 
 0.7326262626262626;11.823565455529993;10.98939393937506;0.8341715161549337;12.756948762769113 
 0.7425252525252525;11.960182794719595;11.137878787828301;0.8223040068912945;13.006278012677974 
 0.7524242424242424;12.095493243741151;11.286363636228655;0.8091296075124957;13.266880725343373 
 0.7623232323232323;12.229468538654595;11.434848484489724;0.7946200541648721;13.540251245824242 
 0.7722222222222221;12.362081952922214;11.58333333238588;0.7787486205363331;13.828134376015923 
 0.7821212121212121;0.0;0.0;0.0;0.0 
 0.792020202020202;0.0;0.0;0.0;0.0 
 0.8019191919191919;0.0;0.0;0.0;0.0 
 0.8118181818181818;0.0;0.0;0.0;0.0 
 0.8217171717171717;0.0;0.0;0.0;0.0 
 0.8316161616161616;0.0;0.0;0.0;0.0 
 0.8415151515151514;0.0;0.0;0.0;0.0 
 0.8514141414141414;0.0;0.0;0.0;0.0 
 0.8613131313131313;0.0;0.0;0.0;0.0 
 0.8712121212121212;0.0;0.0;0.0;0.0 