 0.1109090909090909;21.095444011595717;24.36466457270072;8.99999823842321;12.095445773172507 
 0.21181818181818182;17.97975425592174;18.618973777850673;8.999999999998094;8.979754255923647 
 0.31272727272727274;16.278208476362202;16.45858633924993;8.999999999999368;7.278208476362834 
 0.41363636363636364;15.209270683334049;15.271448398599025;8.999999999999638;6.209270683334411 
 0.5145454545454545;14.473433489349084;14.498100914480466;8.99999999999956;5.473433489349525 
 0.6154545454545455;13.93308787873785;13.944006314100235;8.999999999999702;4.933087878738148 
 0.7163636363636363;13.517005677028026;13.52229112448671;8.999999999999545;4.5170056770284805 
 0.8172727272727273;13.18490304169061;13.1876612789801;8.99999999999973;4.1849030416908795 
 0.9181818181818182;12.912356773334203;12.913891339975809;8.999999999999623;3.9123567733345785 
 1.019090909090909;12.683706518963147;12.684608675299435;8.999999999999734;3.683706518963413 
 1.1199999999999999;12.488439460416817;12.488995820815903;8.999999999999869;3.4884394604169477 
 1.220909090909091;12.319224822901248;12.319582572125046;8.999999999999723;3.3192248229015253 
 1.3218181818181818;12.170785164126713;12.171023801799297;8.999999999999632;3.170785164127081 
 1.4227272727272726;12.039217263898973;12.039381687660256;8.999999999999526;3.039217263899447 
 1.5236363636363637;11.921566831047894;11.921683420266032;8.999999999999815;2.9215668310480782 
 1.6245454545454545;11.815552771650706;11.815637582337121;8.999999999999691;2.815552771651015 
 1.7254545454545454;11.71938294176454;11.71944606077109;8.999999999999817;2.7193829417647217 
 1.8263636363636364;11.631627726349395;11.631675673657648;8.999999999999861;2.6316277263495333 
 1.9272727272727272;11.55113124373343;11.551168343659073;9.000000000000014;2.5511312437334164 
 2.028181818181818;11.47694766947703;11.476976857822278;8.999999999999643;2.476947669477386 
 2.129090909090909;11.408294719644832;11.408318032326296;8.999999999999925;2.408294719644906 
 2.2299999999999995;11.344519099607204;11.344537976121666;8.999999999999876;2.344519099607329 
 2.3309090909090906;11.285070452748345;11.285085929109838;8.99999999999979;2.285070452748555 
 2.4318181818181817;11.229481449361746;11.229494283432995;9.000000000000087;2.2294814493616584 
 2.5327272727272723;11.177352379262436;11.177363133800961;8.999999999999778;2.177352379262658 
 2.6336363636363633;11.128339094064716;11.128348192764127;8.999999999999515;2.128339094065201 
 2.7345454545454544;11.082143472708255;11.082151238663302;8.99999999999994;2.082143472708315 
 2.835454545454545;11.038505810084576;11.038512492609662;8.999999999999751;2.0385058100848257 
 2.936363636363636;10.99719868726431;10.997204480867305;8.999999999999908;1.9971986872644034 
 3.037272727272727;10.958021994588373;10.95802705257779;8.999999999999837;1.9580219945885369 
 3.1381818181818177;10.92079886019981;10.920803304568174;9.000000000000032;1.9207988601997779 
 3.239090909090909;10.885372295791477;10.885376224479883;9.00000000000022;1.8853722957912573 
 3.34;10.851602415070843;10.851605907367901;8.999999999999918;1.8516024150709252 
 3.4409090909090905;10.81936411297327;10.819367233569999;9.000000000000169;1.8193641129731017 
 3.5418181818181815;10.788545118147827;10.788547920212457;8.999999999999838;1.7885451181479883 
 3.6427272727272726;10.759044349859202;10.759046877391803;8.999999999999904;1.7590443498592976 
 3.743636363636363;10.730770524660088;10.730772814309422;8.999999999999808;1.7307705246602785 
 3.8445454545454543;10.703640969219025;10.703643051698023;8.99999999999976;1.7036409692192653 
 3.9454545454545453;10.677580604222346;10.677582505418082;9.000000000000018;1.677580604222328 
 4.046363636363636;10.652521070980894;10.652522812831451;8.999999999999545;1.6525210709813485 
 4.1472727272727266;10.628399977670671;10.628401578864423;8.999999999999183;1.6283999776714884 
 4.248181818181818;10.605160246313698;10.605161722847438;8.999999999999867;1.6051602463138308 
 4.349090909090909;10.58274954497739;10.582750910608548;8.999999999999828;1.5827495449775624 
 4.449999999999999;10.561119792374443;10.561121058986036;8.999999999999472;1.56111979237497 
 4.550909090909091;10.54022672418883;10.540227902087851;8.999999999999483;1.5402267241893473 
 4.651818181818181;10.520029512256455;10.520030610418509;8.999999999999993;1.5200295122564629 
 4.752727272727272;10.500490429150807;10.500491455421814;9.000000000000057;1.5004904291507504 
 4.8536363636363635;10.481574551921028;10.481575513183818;8.999999999999435;1.4815745519215926 
 4.954545454545454;10.463249499692841;10.463250402006693;8.999999999999774;1.4632494996930663 
 5.055454545454545;10.44548520064488;10.445486049361449;9.000000000000123;1.4454852006447578 
 5.156363636363636;10.428253684571821;10.428254484432317;9.00000000000042;1.428253684571402 
 5.257272727272727;10.411528897762247;10.411529652979901;8.999999999999757;1.4115288977624914 
 5.3581818181818175;10.395286537423337;10.395287251753112;9.000000000000027;1.3952865374233099 
 5.459090909090909;10.379503903246926;10.379504580044305;8.999999999999943;1.379503903246983 
 5.56;10.364159764073676;10.364160406345304;9.000000000000696;1.36415976407298 
 5.66090909090909;10.349234237859783;10.349234848306518;8.999999999999847;1.349234237859936 
 5.761818181818182;10.334708683424633;10.334709264478612;9.000000000000428;1.334708683424205 
 5.862727272727272;10.320565602608736;10.320566156465066;8.999999999999854;1.3205656026088828 
 5.963636363636363;10.306788551714991;10.306789080359291;8.999999999999584;1.3067885517154063 
 6.0645454545454545;10.293362061179984;10.293362566412226;9.000000000000032;1.2933620611799528 
 6.165454545454545;10.280271562598864;10.280272046054748;8.999999999999577;1.2802715625992878 
 6.266363636363636;10.267503322333294;10.267503785501289;9.000000000000103;1.2675033223331915 
 6.367272727272727;10.255044380982508;10.25504482522036;8.99999999999973;1.2550443809827776 
 6.468181818181818;10.242882498148415;10.24288292469661;8.999999999999249;1.2428824981491666 
 6.569090909090908;10.231006101933913;10.231006511927937;8.999999999999662;1.2310061019342506 
 6.67;10.219404242706116;10.21940463718718;8.999999999999561;1.2194042427065546 
 6.7709090909090905;10.208066550716612;10.208066930641115;8.999999999998197;1.2080665507184154 
 6.871818181818181;10.196983197197218;10.196983563444855;8.999999999999767;1.1969831971974512 
 6.972727272727273;10.186144858580294;10.18614521196187;8.999999999999828;1.1861448585804666 
 7.073636363636363;10.175542683598708;10.175543024862296;9.000000000000492;1.1755426835982163 
 7.174545454545454;10.165168262940792;10.165168592777665;9.000000000000147;1.165168262940645 
 7.275454545454545;10.155013601271351;10.155013920321336;8.999999999999549;1.1550136012718024 
 7.376363636363636;10.14507109137942;10.145071400235489;8.99999999999908;1.145071091380339 
 7.477272727272727;10.135333490273261;10.135333789485786;8.999999999999375;1.1353334902738863 
 7.578181818181818;10.12579389705192;10.125794187131891;8.999999999999556;1.1257938970523655 
 7.679090909090909;10.116445732398407;10.116446013821356;8.999999999999927;1.1164457323984804 
 7.779999999999999;10.107282719552549;10.107282992761878;8.999999999999655;1.1072827195528934 
 7.880909090909091;10.09829886664977;10.09829913205826;9.000000000000107;1.0982988666496638 
 7.9818181818181815;10.089488450289991;10.089488708283454;8.9999999999998;1.0894884502901911 
 8.082727272727272;10.0808460002664;10.080846251205246;8.999999999998982;1.0808460002674167 
 8.183636363636364;10.072366285332391;10.07236652955396;8.999999999999536;1.0723662853328546 
 8.284545454545453;10.06404429993388;10.064044537753992;8.99999999999976;1.0640442999341202 
 8.385454545454545;10.055875251837238;10.055875483552141;8.999999999999769;1.055875251837468 
 8.486363636363636;10.047854550572872;10.047854776460602;8.999999999999478;1.0478545505733936 
 8.587272727272726;10.039977796636462;10.03997801695801;9.000000000000403;1.0399777966360588 
 8.688181818181818;10.032240771380712;10.032240986381694;8.99999999999957;1.0322407713811426 
 8.789090909090909;10.024639427570683;10.02463963748209;8.999999999999156;1.0246394275715267 
 8.889999999999999;10.01716988051764;10.017170085557243;9.000000000000513;1.017169880517127 
 8.99090909090909;10.00982839977167;10.009828600144512;9.000000000001316;1.0098283997703537 
 9.091818181818182;10.002611401332963;10.002611597232875;8.999999999999794;1.002611401333169 
 9.192727272727272;9.995515440343164;9.995515631952697;9.000000000000991;0.9955154403421729 
 9.293636363636363;9.98853720419188;9.988537391684124;9.00000000000028;0.9885372041916001 
 9.394545454545455;9.981673506071907;9.981673689610238;9.000000000000076;0.9816735060718306 
 9.495454545454544;9.974921278886269;9.974921458625452;8.999999999999254;0.9749212788870142 
 9.596363636363636;9.968277569527878;9.968277745614294;9.00000000000027;0.9682775695276085 
 9.697272727272727;9.961739533476933;9.961739706049826;8.999999999999938;0.9617395334769961 
 9.798181818181817;9.955304429725508;9.95530459891647;8.999999999999671;0.9553044297258364 
 9.899090909090908;9.948969615972969;9.94896978190723;9.000000000000204;0.9489696159727642 
 10.0;9.942732544096883;9.94273270689318;8.99999999999985;0.9427325440970317 
