 1.0;0.8750000000000003;0.7000000000000001;0.1750000000000003;4.023193483275632 
 2.0;1.7756976947279604;1.399999999999999;0.3756976947279614;5.000894542711994 
 3.0;2.6731257756867004;2.0999999999999948;0.5731257756867059;5.904407071269879 
 4.0;3.566295687861409;2.7999999999999967;0.7662956878614121;6.774224061089306 
 5.0;4.455197284785305;3.4999999999999933;0.9551972847853119;7.625127931114546 
 6.0;5.339982899441852;4.199999999999977;1.1399828994418746;8.463929582558574 
 7.0;6.220832090580411;4.8999999999999915;1.3208320905804198;9.294254992336473 
 8.0;7.09792147324697;5.599999999999997;1.4979214732469726;10.1182390655342 
 9.0;7.971417266857409;6.299999999999969;1.67141726685744;10.93723641230809 
 10.0;8.841473913098913;6.999999999999965;1.8414739130989477;11.752157840526033 
 11.0;9.708234514424166;7.699999999999974;2.008234514424193;12.563644960495001 
 12.0;10.571831794651684;8.399999999999915;2.171831794651769;13.372167517492068 
 13.0;11.432389146080816;9.099999999999872;2.3323891460809447;14.178080848605628 
 14.0;12.290021615230136;9.799999999999926;2.49002161523021;14.981661422936119 
 15.0;13.144836783294739;10.499999999999877;2.644836783294862;15.783129695127222 
 16.0;13.996935536100091;11.199999999999793;2.796935536100298;16.582665290503304 
 17.0;14.846412732143321;11.8999999999999;2.9464127321434197;17.38041738237471 
 18.0;15.693357781332763;12.599999999999763;3.0933577813329993;18.176511959082717 
 19.0;16.537855147226384;13.299999999999743;3.237855147226641;18.97105702366623 
 20.0;17.379984784355102;13.999999999999682;3.3799847843554214;19.764146386377227 
