 1.0;0.0;0.0;0.0;0.0 
 2.0;1.9673958722173408;1.399962008281796;0.5674338639355448;19.63034878988092 
 3.0;2.951697367165066;2.0998322375629965;0.8518651296020695;23.064237300374163 
 4.0;3.9347270354188284;2.7995379497287307;1.1351890856900977;25.853061631900307 
 5.0;4.9164690689132575;3.499037402990174;1.4174316659230837;28.239836652553368 
 6.0;5.896924708821725;4.198318527145965;1.6986061816757603;30.343936433501746 
 7.0;6.876100303359436;4.897388569168843;1.9787117341905935;32.2379060453306 
 8.0;7.854004910680745;5.596264297138241;2.257740613542504;33.970270228049465 
 9.0;8.830649360017368;6.294965893003421;2.535683467013948;35.57531779608658 
 10.0;9.806045585625913;6.9935137219586245;2.8125318636672882;37.078158532639435 
