\relax 
\@nameuse{bbl@beforestart}
\catcode `"\active 
\providecommand\csxdef[2]{}
\@writefile{toc}{\providecommand\autonum@processReference[2]{}}
\@writefile{lof}{\providecommand\autonum@processReference[2]{}}
\babel@aux{russian}{}
\@writefile{toc}{\contentsline {section}{\numberline {1}Стохастическое разложение Тейлора-Ито}{3}\protected@file@percent }
\newlabel{determine-taylor}{{1.1}{3}}
\csxdef {autonum@determine-taylorReferenced}{}
\newlabel{stohastic-eq}{{1.2}{3}}
\newlabel{taylor-ito}{{1.3}{3}}
\csxdef {autonum@stohastic-eqReferenced}{}
\@writefile{toc}{\contentsline {subsection}{\numberline {1.1}Аппроксимации многократных интегралов Стратоновича}{4}\protected@file@percent }
\csxdef {autonum@taylor-itoReferenced}{}
\newlabel{stranovich-ints}{{1.4}{4}}
\@writefile{toc}{\contentsline {subsubsection}{\numberline {1.1.1}Пример 2.5.1}{4}\protected@file@percent }
\csxdef {autonum@stranovich-intsReferenced}{}
\@writefile{toc}{\contentsline {section}{\numberline {2}Численные методы для решения обычных дифференциальных уравнений}{10}\protected@file@percent }
\newlabel{de}{{2.1}{10}}
\csxdef {autonum@deReferenced}{}
\@writefile{toc}{\contentsline {subsection}{\numberline {2.1}Метод Эйлера}{11}\protected@file@percent }
\csxdef {autonum@deReferenced}{}
\newlabel{euler}{{2.2}{11}}
\@writefile{toc}{\contentsline {subsubsection}{\numberline {2.1.1}Пример 3.1}{11}\protected@file@percent }
\csxdef {autonum@eulerReferenced}{}
\@writefile{toc}{\contentsline {subsubsection}{\numberline {2.1.2}Пример 3.2}{14}\protected@file@percent }
\@writefile{toc}{\contentsline {subsection}{\numberline {2.2}Методы высших порядков}{15}\protected@file@percent }
\@writefile{toc}{\contentsline {subsubsection}{\numberline {2.2.1}Пример 3.3}{16}\protected@file@percent }
\@writefile{toc}{\contentsline {subsection}{\numberline {2.3}Другие схемы высоких порядков}{18}\protected@file@percent }
\newlabel{rk4}{{2.3}{18}}
\newlabel{middle-point}{{2.4}{18}}
\@writefile{toc}{\contentsline {subsubsection}{\numberline {2.3.1}Пример 3.4}{18}\protected@file@percent }
\newlabel{eq:3_4}{{2.5}{18}}
\@writefile{toc}{\contentsline {subsubsection}{\numberline {2.3.2}Упражнение 3.1}{21}\protected@file@percent }
\csxdef {autonum@rk4Referenced}{}
\csxdef {autonum@eq:3_4Referenced}{}
\@writefile{toc}{\contentsline {subsubsection}{\numberline {2.3.3}Пример 3.5}{23}\protected@file@percent }
\csxdef {autonum@eulerReferenced}{}
\csxdef {autonum@middle-pointReferenced}{}
\newlabel{eq:3_5}{{2.6}{23}}
\csxdef {autonum@eq:3_5Referenced}{}
\@writefile{toc}{\contentsline {subsection}{\numberline {2.4}Погрешность округления}{25}\protected@file@percent }
\@writefile{toc}{\contentsline {subsubsection}{\numberline {2.4.1}Пример 3.6}{26}\protected@file@percent }
\@writefile{toc}{\contentsline {subsubsection}{\numberline {2.4.2}Пример 3.7}{27}\protected@file@percent }
