   ;0000;0110;0101;1100;0220;0211;1210;0202;1201;2200;0330;0321;1320;0312;1311;2310;0303;1302;2301;3300;0430;0421;1420;0412;1411;2410;0403;1402;2401;3400;0530;0521;1520;0512;1511;2510;0503;1502;2501;3500; 
 0000;-(l);l;0;0;0;0;0;0;0;0;0;0;0;0;0;0;0;0;0;0;0;0;0;0;0;0;0;0;0;0;0;0;0;0;0;0;0;0;0;0; 
 0110;0;-(l  +  1a);a;;l;0;0;0;0;0;0;0;0;0;0;0;0;0;0;0;0;0;0;0;0;0;0;0;0;0;0;0;0;0;0;0;0;0;0;0; 
 0101;0;0;-(l  +  1a);a;0;l;0;0;0;0;0;0;0;0;0;0;0;0;0;0;0;0;0;0;0;0;0;0;0;0;0;0;0;0;0;0;0;0;0;0; 
 1100;m;0;0;-(l  +  1m);0;0;l;0;0;0;0;0;0;0;0;0;0;0;0;0;0;0;0;0;0;0;0;0;0;0;0;0;0;0;0;0;0;0;0;0; 
 0220;0;0;0;0;-(l  +  2a);2a;;0;0;0;l;0;0;0;0;0;0;0;0;0;0;0;0;0;0;0;0;0;0;0;0;0;0;0;0;0;0;0;0;0; 
 0211;0;0;0;0;0;-(l  +  2a);a;a;;0;0;l;0;0;0;0;0;0;0;0;0;0;0;0;0;0;0;0;0;0;0;0;0;0;0;0;0;0;0;0; 
 1210;0;0;0;m;0;0;-(l  +  1m  +  1a);0;a;;0;0;l;0;0;0;0;0;0;0;0;0;0;0;0;0;0;0;0;0;0;0;0;0;0;0;0;0;0;0; 
 0202;0;0;0;0;0;0;0;-(l  +  2a);2a;0;0;0;0;l;0;0;0;0;0;0;0;0;0;0;0;0;0;0;0;0;0;0;0;0;0;0;0;0;0;0; 
 1201;0;0;0;m;0;0;0;0;-(l  +  1m  +  1a);a;0;0;0;0;l;0;0;0;0;0;0;0;0;0;0;0;0;0;0;0;0;0;0;0;0;0;0;0;0;0; 
 2200;0;0;0;2m;0;0;0;0;0;-(l  +  2m);0;0;0;0;0;l;0;0;0;0;0;0;0;0;0;0;0;0;0;0;0;0;0;0;0;0;0;0;0;0; 
 0330;0;0;0;0;0;0;0;0;0;0;-(l  +  3a);3a;;0;0;0;0;0;0;0;l;0;0;0;0;0;0;0;0;0;0;0;0;0;0;0;0;0;0;0; 
 0321;0;0;0;0;0;0;0;0;0;0;0;-(l  +  3a);a;2a;;0;0;0;0;0;0;l;0;0;0;0;0;0;0;0;0;0;0;0;0;0;0;0;0;0; 
 1320;0;0;0;0;0;0;m;0;0;0;0;0;-(l  +  1m  +  2a);0;2a;;0;0;0;0;0;0;l;0;0;0;0;0;0;0;0;0;0;0;0;0;0;0;0;0; 
 0312;0;0;0;0;0;0;0;0;0;0;0;0;0;-(l  +  3a);2a;0;a;;0;0;0;0;0;l;0;0;0;0;0;0;0;0;0;0;0;0;0;0;0;0; 
 1311;0;0;0;0;0;0;m;0;m;0;0;0;0;0;-(l  +  1m  +  2a);a;0;a;;0;0;0;0;0;l;0;0;0;0;0;0;0;0;0;0;0;0;0;0;0; 
 2310;0;0;0;0;0;0;0;0;0;2m;0;0;0;0;0;-(l  +  2m  +  1a);0;0;a;;0;0;0;0;0;l;0;0;0;0;0;0;0;0;0;0;0;0;0;0; 
 0303;0;0;0;0;0;0;0;0;0;0;0;0;0;0;0;0;-(l  +  3a);3a;0;0;0;0;0;0;0;0;l;0;0;0;0;0;0;0;0;0;0;0;0;0; 
 1302;0;0;0;0;0;0;0;0;m;0;0;0;0;0;0;0;0;-(l  +  1m  +  2a);2a;0;0;0;0;0;0;0;0;l;0;0;0;0;0;0;0;0;0;0;0;0; 
 2301;0;0;0;0;0;0;0;0;0;2m;0;0;0;0;0;0;0;0;-(l  +  2m  +  1a);a;0;0;0;0;0;0;0;0;l;0;0;0;0;0;0;0;0;0;0;0; 
 3300;0;0;0;0;0;0;0;0;0;3m;0;0;0;0;0;0;0;0;0;-(l  +  3m);0;0;0;0;0;0;0;0;0;l;0;0;0;0;0;0;0;0;0;0; 
 0430;0;0;0;0;0;0;0;0;0;0;0;0;0;0;0;0;0;0;0;0;-(l  +  3a);3a;;0;0;0;0;0;0;0;l;0;0;0;0;0;0;0;0;0; 
 0421;0;0;0;0;0;0;0;0;0;0;0;0;0;0;0;0;0;0;0;0;0;-(l  +  3a);a;2a;;0;0;0;0;0;0;l;0;0;0;0;0;0;0;0; 
 1420;0;0;0;0;0;0;0;0;0;0;0;0;m;0;0;0;0;0;0;0;0;0;-(l  +  1m  +  2a);0;2a;;0;0;0;0;0;0;l;0;0;0;0;0;0;0; 
 0412;0;0;0;0;0;0;0;0;0;0;0;0;0;0;0;0;0;0;0;0;0;0;0;-(l  +  3a);2a;0;a;;0;0;0;0;0;l;0;0;0;0;0;0; 
 1411;0;0;0;0;0;0;0;0;0;0;0;0;0;0;m;0;0;0;0;0;0;0;0;0;-(l  +  1m  +  2a);a;0;a;;0;0;0;0;0;l;0;0;0;0;0; 
 2410;0;0;0;0;0;0;0;0;0;0;0;0;0;0;0;2m;0;0;0;0;0;0;0;0;0;-(l  +  2m  +  1a);0;0;a;;0;0;0;0;0;l;0;0;0;0; 
 0403;0;0;0;0;0;0;0;0;0;0;0;0;0;0;0;0;0;0;0;0;0;0;0;0;0;0;-(l  +  3a);3a;0;0;0;0;0;0;0;0;l;0;0;0; 
 1402;0;0;0;0;0;0;0;0;0;0;0;0;0;0;0;0;0;m;0;0;0;0;0;0;0;0;0;-(l  +  1m  +  2a);2a;0;0;0;0;0;0;0;0;l;0;0; 
 2401;0;0;0;0;0;0;0;0;0;0;0;0;0;0;0;0;0;0;2m;0;0;0;0;0;0;0;0;0;-(l  +  2m  +  1a);a;0;0;0;0;0;0;0;0;l;0; 
 3400;0;0;0;0;0;0;0;0;0;0;0;0;0;0;0;0;0;0;0;3m;0;0;0;0;0;0;0;0;0;-(l  +  3m);0;0;0;0;0;0;0;0;0;l; 
 0530;0;0;0;0;0;0;0;0;0;0;0;0;0;0;0;0;0;0;0;0;0;0;0;0;0;0;0;0;0;0;-(l  +  3a);3a;;0;0;0;0;0;0;0; 
 0521;0;0;0;0;0;0;0;0;0;0;0;0;0;0;0;0;0;0;0;0;0;0;0;0;0;0;0;0;0;0;0;-(l  +  3a);a;2a;;0;0;0;0;0; 
 1520;0;0;0;0;0;0;0;0;0;0;0;0;0;0;0;0;0;0;0;0;0;0;m;0;0;0;0;0;0;0;0;0;-(l  +  1m  +  2a);0;2a;;0;0;0;0; 
 0512;0;0;0;0;0;0;0;0;0;0;0;0;0;0;0;0;0;0;0;0;0;0;0;0;0;0;0;0;0;0;0;0;0;-(l  +  3a);2a;0;a;;0;0; 
 1511;0;0;0;0;0;0;0;0;0;0;0;0;0;0;0;0;0;0;0;0;0;0;0;0;m;0;0;0;0;0;0;0;0;0;-(l  +  1m  +  2a);a;0;a;;0; 
 2510;0;0;0;0;0;0;0;0;0;0;0;0;0;0;0;0;0;0;0;0;0;0;0;0;0;2m;0;0;0;0;0;0;0;0;0;-(l  +  2m  +  1a);0;0;a;; 
 0503;0;0;0;0;0;0;0;0;0;0;0;0;0;0;0;0;0;0;0;0;0;0;0;0;0;0;0;0;0;0;0;0;0;0;0;0;-(l  +  3a);3a;0;0; 
 1502;0;0;0;0;0;0;0;0;0;0;0;0;0;0;0;0;0;0;0;0;0;0;0;0;0;0;0;m;0;0;0;0;0;0;0;0;0;-(l  +  1m  +  2a);2a;0; 
 2501;0;0;0;0;0;0;0;0;0;0;0;0;0;0;0;0;0;0;0;0;0;0;0;0;0;0;0;0;2m;0;0;0;0;0;0;0;0;0;-(l  +  2m  +  1a);a; 
 3500;0;0;0;0;0;0;0;0;0;0;0;0;0;0;0;0;0;0;0;0;0;0;0;0;0;0;0;0;0;3m;0;0;0;0;0;0;0;0;0;-(l  +  3m); 
