\relax 
\@nameuse{bbl@beforestart}
\catcode `"\active 
\providecommand\csxdef[2]{}
\@writefile{toc}{\providecommand\autonum@processReference[2]{}}
\@writefile{lof}{\providecommand\autonum@processReference[2]{}}
\babel@aux{russian}{}
\@writefile{toc}{\contentsline {section}{Введение}{3}\protected@file@percent }
\citation{EnergyEfficient}
\citation{CaseEnergyPropotional}
\@writefile{toc}{\contentsline {section}{\numberline {1}Серверные фермы с разогревом}{4}\protected@file@percent }
\newlabel{section:servers-farm}{{1}{4}}
\citation{PhungDuc}
\citation{Ventsel}
\@writefile{toc}{\contentsline {section}{\numberline {2}Постановка задачи}{5}\protected@file@percent }
\newlabel{section:formulation-of-the-problem}{{2}{5}}
\citation{Ivchenko}
\@writefile{toc}{\contentsline {section}{\numberline {3}Построение модели}{6}\protected@file@percent }
\newlabel{section:model}{{3}{6}}
\newlabel{eq:state}{{3.1}{6}}
\citation{BocharovPage37}
\newlabel{eq:state-condition}{{3.2}{7}}
\csxdef {autonum@eq:stateReferenced}{}
\csxdef {autonum@eq:state-conditionReferenced}{}
\newlabel{process}{{3}{7}}
\citation{Fedotkin}
\newlabel{intensity}{{3.3}{8}}
\@writefile{toc}{\contentsline {section}{\numberline {4}Вычисление интенсивностей переходов}{8}\protected@file@percent }
\newlabel{section:intenses}{{4}{8}}
\newlabel{th:intense-1}{{4.1}{8}}
\newlabel{intensity:case1}{{4.1}{9}}
\csxdef {autonum@intensityReferenced}{}
\newlabel{th:intense-2}{{4.2}{9}}
\newlabel{intensity:case2}{{4.2}{9}}
\csxdef {autonum@intensityReferenced}{}
\newlabel{th:intense-3}{{4.3}{9}}
\newlabel{intensity:case3}{{4.3}{10}}
\csxdef {autonum@intensity:case3Referenced}{}
\newlabel{th-regular}{{4}{10}}
\citation{Ivchenko}
\csxdef {autonum@intensityReferenced}{}
\csxdef {autonum@processReferenced}{}
\newlabel{regular}{{4.4}{11}}
\csxdef {autonum@regularReferenced}{}
\@writefile{toc}{\contentsline {section}{\numberline {5}Матрица интенсивностей переходов}{11}\protected@file@percent }
\@writefile{toc}{\contentsline {subsection}{\numberline {5.1}Система дифференциальных уравнений Колмогорова}{11}\protected@file@percent }
\newlabel{section:intense-matrix-Kolmogorov-system}{{5.1}{11}}
\newlabel{Kolmogorov-system-matrix}{{5.1}{12}}
\@writefile{toc}{\contentsline {subsection}{\numberline {5.2}Структура вектора $\vec  {p}(t)$ и матрицы $Q$}{12}\protected@file@percent }
\newlabel{section:intense-matrix-p-Q-structure}{{5.2}{12}}
\csxdef {autonum@Kolmogorov-system-matrixReferenced}{}
\newlabel{th:Q-is-block-triangle}{{5.1}{13}}
\csxdef {autonum@th:intense-1Referenced}{}
\csxdef {autonum@th:intense-3Referenced}{}
\newlabel{th:from-Sk-to-Sc}{{5.2}{13}}
\csxdef {autonum@th:from-Sk-to-ScReferenced}{}
\newlabel{th:from-Sc-to-Sk}{{5.3}{14}}
\newlabel{th:homogeneous-sets}{{5.4}{14}}
\csxdef {autonum@th:from-Sc-to-SkReferenced}{}
\csxdef {autonum@th:from-Sk-to-ScReferenced}{}
\newlabel{th:homogeneous-matrix}{{5.5}{14}}
\csxdef {autonum@th:homogeneous-setsReferenced}{}
\csxdef {autonum@th:from-Sc-to-SkReferenced}{}
\csxdef {autonum@th:from-Sk-to-ScReferenced}{}
\csxdef {autonum@th:intense-1Referenced}{}
\csxdef {autonum@th:intense-3Referenced}{}
\csxdef {autonum@th:Q-is-block-triangleReferenced}{}
\csxdef {autonum@th:homogeneous-matrixReferenced}{}
\@writefile{toc}{\contentsline {subsection}{\numberline {5.3}Структура матриц $N_k, M_k, \Lambda _k$}{15}\protected@file@percent }
\newlabel{section:intense-matrix-Nk-Lk-structure}{{5.3}{15}}
\newlabel{th:Nk-structure}{{5.6}{15}}
\csxdef {autonum@th:intense-3Referenced}{}
\citation{GJMiller}
\newlabel{th:Lk-structure}{{5.7}{16}}
\csxdef {autonum@intensity:case1Referenced}{}
\csxdef {autonum@intensity:case2Referenced}{}
\csxdef {autonum@intensity:case3Referenced}{}
\csxdef {autonum@th:Lk-structureReferenced}{}
\csxdef {autonum@th:homogeneous-setsReferenced}{}
\@writefile{toc}{\contentsline {section}{\numberline {6}Стационарное распределение}{16}\protected@file@percent }
\newlabel{section:stationary-distr}{{6}{16}}
\@writefile{toc}{\contentsline {subsection}{\numberline {6.1}Система уравнений для поиска стационарного распределения}{16}\protected@file@percent }
\newlabel{section:stationary-distr-definition}{{6.1}{16}}
\newlabel{th:ergodic}{{6.1}{17}}
\csxdef {autonum@section:modelReferenced}{}
\csxdef {autonum@section:intensesReferenced}{}
\csxdef {autonum@th:ergodicReferenced}{}
\csxdef {autonum@th:ergodicReferenced}{}
\csxdef {autonum@Kolmogorov-system-matrixReferenced}{}
\newlabel{ssae-matrix}{{6.1}{17}}
\citation{neuts}
\citation{BocharovPage240}
\newlabel{eq:ssae}{{6.2}{18}}
\csxdef {autonum@eq:ssaeReferenced}{}
\csxdef {autonum@eq:ssaeReferenced}{}
\newlabel{eq:recurrence-solve}{{6.3}{18}}
\csxdef {autonum@eq:recurrence-solveReferenced}{}
\newlabel{eq:homogeneous-quadric-eq}{{6.4}{18}}
\@writefile{toc}{\contentsline {subsection}{\numberline {6.2}Поиск однородных компонент вектора $\vec  {\pi }$}{18}\protected@file@percent }
\newlabel{section:stationary-distr-homogeneous-Ri}{{6.2}{18}}
\csxdef {autonum@eq:homogeneous-quadric-eqReferenced}{}
\csxdef {autonum@eq:homogeneous-quadric-eqReferenced}{}
\newlabel{eq:solution-for-homogeneous-Ri}{{6.5}{18}}
\citation{BocharovPage240}
\citation{DemidovichMathStability}
\@writefile{toc}{\contentsline {subsection}{\numberline {6.3}Поиск неоднородных компонент вектора $\vec  {\pi }$}{19}\protected@file@percent }
\newlabel{section:stationary-distr-nonhomogeneous-Ri}{{6.3}{19}}
\csxdef {autonum@eq:ssaeReferenced}{}
\csxdef {autonum@eq:homogeneous-quadric-eqReferenced}{}
\newlabel{eq:finite-ssae}{{6.6}{19}}
\newlabel{th:convergence-series}{{6.2}{19}}
\csxdef {autonum@eq:homogeneous-quadric-eqReferenced}{}
\csxdef {autonum@th:convergence-seriesReferenced}{}
\csxdef {autonum@eq:finite-ssaeReferenced}{}
\csxdef {autonum@th:convergence-seriesReferenced}{}
\csxdef {autonum@eq:finite-ssaeReferenced}{}
\csxdef {autonum@eq:finite-ssaeReferenced}{}
\csxdef {autonum@eq:recurrence-solveReferenced}{}
\csxdef {autonum@eq:homogeneous-quadric-eqReferenced}{}
\csxdef {autonum@eq:finite-ssaeReferenced}{}
\@writefile{toc}{\contentsline {section}{\numberline {7}Вычисление основных характеристик системы}{20}\protected@file@percent }
\newlabel{section:measures}{{7}{20}}
\csxdef {autonum@section:intense-matrix-p-Q-structureReferenced}{}
\@writefile{toc}{\contentsline {subsection}{\numberline {7.1}Среднее число занятых серверов в стационарном режиме}{20}\protected@file@percent }
\newlabel{section:mean-number-of-active-servers}{{7.1}{20}}
\@writefile{toc}{\contentsline {subsection}{\numberline {7.2}Среднее число разогревающихся серверов в стационарном режиме}{21}\protected@file@percent }
\newlabel{section:mean-number-of-setup-servers}{{7.2}{21}}
\@writefile{toc}{\contentsline {subsection}{\numberline {7.3}Среднее число требований системы в стационарном режиме}{21}\protected@file@percent }
\newlabel{section:mean-queue-length}{{7.3}{21}}
\@writefile{toc}{\contentsline {subsection}{\numberline {7.4}Среднее значение потребляемой энергии}{21}\protected@file@percent }
\newlabel{section:mean-power-consumption}{{7.4}{21}}
\newlabel{eq:mean-energy-consumption}{{7.1}{21}}
\citation{Ventsel}
\csxdef {autonum@eq:mean-energy-consumptionReferenced}{}
\@writefile{toc}{\contentsline {section}{\numberline {8}Программная реализация поиска стационарного распределения}{22}\protected@file@percent }
\newlabel{section:code-implementation}{{8}{22}}
\csxdef {autonum@section:stationary-distrReferenced}{}
\csxdef {autonum@intensity:case1Referenced}{}
\csxdef {autonum@intensity:case2Referenced}{}
\csxdef {autonum@intensity:case3Referenced}{}
\csxdef {autonum@th:from-Sk-to-ScReferenced}{}
\citation{knut_tom4}
\csxdef {autonum@eq:stateReferenced}{}
\csxdef {autonum@eq:state-conditionReferenced}{}
\newlabel{eq:j-sum}{{8.1}{23}}
\csxdef {autonum@eq:stateReferenced}{}
\csxdef {autonum@eq:j-sumReferenced}{}
\@writefile{loa}{\contentsline {algorithm}{\numberline {1}{\ignorespaces Генерация подмножества пространства состояний}}{23}\protected@file@percent }
\csxdef {autonum@intensity:case1Referenced}{}
\csxdef {autonum@intensity:case2Referenced}{}
\csxdef {autonum@intensity:case3Referenced}{}
\citation{hubbard1999vector}
\csxdef {autonum@eq:homogeneous-quadric-eqReferenced}{}
\csxdef {autonum@eq:solution-for-homogeneous-RiReferenced}{}
\csxdef {autonum@eq:solution-for-homogeneous-RiReferenced}{}
\csxdef {autonum@eq:homogeneous-quadric-eqReferenced}{}
\@writefile{loa}{\contentsline {algorithm}{\numberline {2}{\ignorespaces Решение квадратного матричного уравнения}}{24}\protected@file@percent }
\csxdef {autonum@eq:finite-ssaeReferenced}{}
\csxdef {autonum@eq:finite-ssaeReferenced}{}
\csxdef {autonum@eq:finite-ssaeReferenced}{}
\@writefile{loa}{\contentsline {algorithm}{\numberline {3}{\ignorespaces Решение конечной системы уравнений}}{25}\protected@file@percent }
\@writefile{toc}{\contentsline {section}{\numberline {9}Проведение численных экспериментов}{25}\protected@file@percent }
\newlabel{section:numerical-results}{{9}{25}}
\csxdef {autonum@section:stationary-distrReferenced}{}
\csxdef {autonum@section:code-implementationReferenced}{}
\csxdef {autonum@section:measuresReferenced}{}
\@writefile{toc}{\contentsline {subsection}{\numberline {9.1}Зависимость численных характеристик от $\alpha $}{25}\protected@file@percent }
\newlabel{section:measures-on-alpha}{{9.1}{25}}
\newlabel{fig:alphamax-100-c-30}{{9.1}{26}}
\@writefile{lof}{\contentsline {figure}{\numberline {1}{\ignorespaces Зависимость потребляемой энергии от параметра $\alpha $, $c = 30$}}{26}\protected@file@percent }
\newlabel{fig:EZ-alphamax-100-c-30}{{9.1}{27}}
\@writefile{lof}{\contentsline {figure}{\numberline {2}{\ignorespaces Зависимость числа требований от параметра $\alpha $, $c = 30$}}{27}\protected@file@percent }
\@writefile{toc}{\contentsline {subsection}{\numberline {9.2}Зависимость численных характеристик от $c$}{27}\protected@file@percent }
\newlabel{section:measures-on-c}{{9.2}{27}}
\csxdef {autonum@section:measures-on-alphaReferenced}{}
\newlabel{fig:cmax_20_ro_0.7}{{9.2}{28}}
\@writefile{lof}{\contentsline {figure}{\numberline {3}{\ignorespaces Зависимость потребляемой энергии от количества серверов, $\rho = 0.7$}}{28}\protected@file@percent }
\newlabel{fig:EZ_cmax_20_ro_0.7}{{9.2}{28}}
\@writefile{lof}{\contentsline {figure}{\numberline {4}{\ignorespaces Зависимость числа требований от количества серверов, $\rho = 0.7$}}{28}\protected@file@percent }
\csxdef {autonum@section:measures-on-alphaReferenced}{}
\@writefile{toc}{\contentsline {subsection}{\numberline {9.3}Зависимость численных характеристик от $\rho $}{29}\protected@file@percent }
\newlabel{section:measures-on-ro}{{9.3}{29}}
\csxdef {autonum@section:measures-on-cReferenced}{}
\csxdef {autonum@section:measures-on-alphaReferenced}{}
\newlabel{fig:rhomax_1_c_15}{{9.3}{29}}
\@writefile{lof}{\contentsline {figure}{\numberline {5}{\ignorespaces Зависимость потребляемой энергии от $\rho $, $c = 15$}}{29}\protected@file@percent }
\citation{BocharovPage240}
\newlabel{fig:EZ_rhomax_1_c_15}{{9.3}{30}}
\@writefile{lof}{\contentsline {figure}{\numberline {6}{\ignorespaces Зависимость числа требований от $\rho $, $c = 15$}}{30}\protected@file@percent }
\csxdef {autonum@ssae-matrixReferenced}{}
\@writefile{toc}{\contentsline {subsection}{\numberline {9.4}Итоги экспериментов}{30}\protected@file@percent }
\newlabel{section:experiments-results}{{9.4}{30}}
\@writefile{toc}{\contentsline {section}{\numberline {10}Заключение}{31}\protected@file@percent }
\newlabel{section:conclusion}{{10}{31}}
\bibstyle{utf8gost705u}
\bibdata{biblio}
\bibcite{EnergyEfficient}{1}
\bibcite{CaseEnergyPropotional}{2}
\bibcite{PhungDuc}{3}
\bibcite{Ventsel}{4}
\bibcite{Ivchenko}{5}
\bibcite{BocharovPage37}{6}
\bibcite{Fedotkin}{7}
\bibcite{GJMiller}{8}
\bibcite{neuts}{9}
\bibcite{BocharovPage240}{10}
\bibcite{DemidovichMathStability}{11}
\bibcite{knut_tom4}{12}
\bibcite{hubbard1999vector}{13}
