\relax 
\catcode `"\active 
\providecommand\csxdef[2]{}
\@writefile{toc}{\providecommand\autonum@processReference[2]{}}
\@writefile{lof}{\providecommand\autonum@processReference[2]{}}
\select@language {russian}
\@writefile{toc}{\select@language {russian}}
\@writefile{lof}{\select@language {russian}}
\@writefile{lot}{\select@language {russian}}
\select@language {russian}
\@writefile{toc}{\select@language {russian}}
\@writefile{lof}{\select@language {russian}}
\@writefile{lot}{\select@language {russian}}
\@writefile{toc}{\contentsline {section}{\numberline {1}Постановка задачи}{3}}
\newlabel{eq:i}{{1.1}{3}}
\newlabel{i2}{{1.2}{3}}
\@writefile{toc}{\contentsline {section}{\numberline {2}Описание методов}{3}}
\@writefile{toc}{\contentsline {subsection}{\numberline {2.1}Метод Монте-Карло 1}{3}}
\@writefile{toc}{\contentsline {subsubsection}{\numberline {2.1.1}Определенный интеграл по отрезку}{3}}
\csxdef {autonum@eq:iReferenced}{}
\csxdef {autonum@eq:iReferenced}{}
\@writefile{toc}{\contentsline {subsubsection}{\numberline {2.1.2}Определенный интеграл по объему}{4}}
\csxdef {autonum@i2Referenced}{}
\csxdef {autonum@i2Referenced}{}
\@writefile{toc}{\contentsline {subsection}{\numberline {2.2}Метод Монте-Карло 2}{5}}
\csxdef {autonum@eq:iReferenced}{}
\csxdef {autonum@eq:iReferenced}{}
\csxdef {autonum@i2Referenced}{}
\@writefile{toc}{\contentsline {section}{\numberline {3}Результаты}{5}}
\@writefile{toc}{\contentsline {subsection}{\numberline {3.1}Определенный интеграл по отрезку}{5}}
\newlabel{myi1}{{3.1}{5}}
\csxdef {autonum@tab1Referenced}{}
\csxdef {autonum@tab1Referenced}{}
\@writefile{lot}{\contentsline {table}{\numberline {1}{\ignorespaces }}{6}}
\newlabel{tab1}{{1}{6}}
\csxdef {autonum@myi1Referenced}{}
\csxdef {autonum@myi1Referenced}{}
\@writefile{toc}{\contentsline {subsection}{\numberline {3.2}Определенный интеграл по объему}{6}}
\csxdef {autonum@tab2Referenced}{}
\newlabel{mc1}{{3.1}{7}}
\@writefile{lof}{\contentsline {figure}{\numberline {1}{\ignorespaces }}{7}}
\@writefile{lot}{\contentsline {table}{\numberline {2}{\ignorespaces }}{7}}
\newlabel{tab2}{{2}{7}}
\newlabel{fig:mc2}{{3.2}{8}}
\@writefile{lof}{\contentsline {figure}{\numberline {2}{\ignorespaces }}{8}}
\csxdef {autonum@tab2Referenced}{}
\csxdef {autonum@myi1Referenced}{}
\csxdef {autonum@myi1Referenced}{}
\@writefile{toc}{\contentsline {section}{\numberline {4}Заключение}{9}}
\@writefile{toc}{\contentsline {section}{\numberline {5}Код программ}{9}}
\@writefile{toc}{\contentsline {subsection}{\numberline {5.1}Вычисление определенного интеграла по отрезку}{9}}
\@writefile{lol}{\contentsline {lstlisting}{mc1.py}{9}}
\@writefile{toc}{\contentsline {subsection}{\numberline {5.2}Вычисление определенного интеграла по объему}{10}}
\@writefile{lol}{\contentsline {lstlisting}{mc2.py}{10}}
