%!PS-Adobe-3.0 EPSF-3.0
%%Title: cmpp-lab1-frequency.eps
%%Creator: matplotlib version 2.2.4, http://matplotlib.org/
%%CreationDate: Mon Dec 23 17:49:21 2019
%%Orientation: portrait
%%BoundingBox: 75 223 536 568
%%EndComments
%%BeginProlog
/mpldict 8 dict def
mpldict begin
/m { moveto } bind def
/l { lineto } bind def
/r { rlineto } bind def
/c { curveto } bind def
/cl { closepath } bind def
/box {
m
1 index 0 r
0 exch r
neg 0 r
cl
} bind def
/clipbox {
box
clip
newpath
} bind def
%!PS-Adobe-3.0 Resource-Font
%%Title: DejaVu Sans
%%Copyright: Copyright (c) 2003 by Bitstream, Inc. All Rights Reserved. Copyright (c) 2006 by Tavmjong Bah. All Rights Reserved. DejaVu changes are in public domain 
%%Creator: Converted from TrueType to type 3 by PPR
25 dict begin
/_d{bind def}bind def
/_m{moveto}_d
/_l{lineto}_d
/_cl{closepath eofill}_d
/_c{curveto}_d
/_sc{7 -1 roll{setcachedevice}{pop pop pop pop pop pop}ifelse}_d
/_e{exec}_d
/FontName /DejaVuSans def
/PaintType 0 def
/FontMatrix[.001 0 0 .001 0 0]def
/FontBBox[-1021 -463 1793 1232]def
/FontType 3 def
/Encoding [ /space /hyphen /period /zero /one /two /five /seven /equal /D /I /N /b /c /d /e /f /h /m /n /o /p /r /s /t /u /minus ] def
/FontInfo 10 dict dup begin
/FamilyName (DejaVu Sans) def
/FullName (DejaVu Sans) def
/Notice (Copyright (c) 2003 by Bitstream, Inc. All Rights Reserved. Copyright (c) 2006 by Tavmjong Bah. All Rights Reserved. DejaVu changes are in public domain ) def
/Weight (Book) def
/Version (Version 2.35) def
/ItalicAngle 0.0 def
/isFixedPitch false def
/UnderlinePosition -130 def
/UnderlineThickness 90 def
end readonly def
/CharStrings 28 dict dup begin
/.notdef 0 def
/space{318 0 0 0 0 0 _sc
}_d
/hyphen{361 0 49 234 312 314 _sc
49 314 _m
312 314 _l
312 234 _l
49 234 _l
49 314 _l
_cl}_d
/period{318 0 107 0 210 124 _sc
107 124 _m
210 124 _l
210 0 _l
107 0 _l
107 124 _l
_cl}_d
/zero{636 0 66 -13 570 742 _sc
318 664 _m
267 664 229 639 203 589 _c
177 539 165 464 165 364 _c
165 264 177 189 203 139 _c
229 89 267 64 318 64 _c
369 64 407 89 433 139 _c
458 189 471 264 471 364 _c
471 464 458 539 433 589 _c
407 639 369 664 318 664 _c
318 742 _m
399 742 461 709 505 645 _c
548 580 570 486 570 364 _c
570 241 548 147 505 83 _c
461 19 399 -13 318 -13 _c
236 -13 173 19 130 83 _c
87 147 66 241 66 364 _c
66 486 87 580 130 645 _c
173 709 236 742 318 742 _c
_cl}_d
/one{636 0 110 0 544 729 _sc
124 83 _m
285 83 _l
285 639 _l
110 604 _l
110 694 _l
284 729 _l
383 729 _l
383 83 _l
544 83 _l
544 0 _l
124 0 _l
124 83 _l
_cl}_d
/two{{636 0 73 0 536 742 _sc
192 83 _m
536 83 _l
536 0 _l
73 0 _l
73 83 _l
110 121 161 173 226 239 _c
290 304 331 346 348 365 _c
380 400 402 430 414 455 _c
426 479 433 504 433 528 _c
433 566 419 598 392 622 _c
365 646 330 659 286 659 _c
255 659 222 653 188 643 _c
154 632 117 616 78 594 _c
78 694 _l
118 710 155 722 189 730 _c
223 738 255 742 284 742 _c
}_e{359 742 419 723 464 685 _c
509 647 532 597 532 534 _c
532 504 526 475 515 449 _c
504 422 484 390 454 354 _c
446 344 420 317 376 272 _c
332 227 271 164 192 83 _c
_cl}_e}_d
/five{{636 0 77 -13 549 729 _sc
108 729 _m
495 729 _l
495 646 _l
198 646 _l
198 467 _l
212 472 227 476 241 478 _c
255 480 270 482 284 482 _c
365 482 429 459 477 415 _c
525 370 549 310 549 234 _c
549 155 524 94 475 51 _c
426 8 357 -13 269 -13 _c
238 -13 207 -10 175 -6 _c
143 -1 111 6 77 17 _c
77 116 _l
106 100 136 88 168 80 _c
199 72 232 69 267 69 _c
}_e{323 69 368 83 401 113 _c
433 143 450 183 450 234 _c
450 284 433 324 401 354 _c
368 384 323 399 267 399 _c
241 399 214 396 188 390 _c
162 384 135 375 108 363 _c
108 729 _l
_cl}_e}_d
/seven{636 0 82 0 551 729 _sc
82 729 _m
551 729 _l
551 687 _l
286 0 _l
183 0 _l
432 646 _l
82 646 _l
82 729 _l
_cl}_d
/equal{838 0 106 172 732 454 _sc
106 454 _m
732 454 _l
732 372 _l
106 372 _l
106 454 _l
106 255 _m
732 255 _l
732 172 _l
106 172 _l
106 255 _l
_cl}_d
/D{770 0 98 0 711 729 _sc
197 648 _m
197 81 _l
316 81 _l
416 81 490 103 537 149 _c
583 195 607 267 607 365 _c
607 463 583 534 537 580 _c
490 625 416 648 316 648 _c
197 648 _l
98 729 _m
301 729 _l
442 729 546 699 612 641 _c
678 582 711 490 711 365 _c
711 239 677 147 611 88 _c
545 29 441 0 301 0 _c
98 0 _l
98 729 _l
_cl}_d
/I{295 0 98 0 197 729 _sc
98 729 _m
197 729 _l
197 0 _l
98 0 _l
98 729 _l
_cl}_d
/N{748 0 98 0 650 729 _sc
98 729 _m
231 729 _l
554 119 _l
554 729 _l
650 729 _l
650 0 _l
517 0 _l
194 610 _l
194 0 _l
98 0 _l
98 729 _l
_cl}_d
/b{{635 0 91 -13 580 760 _sc
487 273 _m
487 339 473 390 446 428 _c
418 466 381 485 334 485 _c
286 485 249 466 222 428 _c
194 390 181 339 181 273 _c
181 207 194 155 222 117 _c
249 79 286 61 334 61 _c
381 61 418 79 446 117 _c
473 155 487 207 487 273 _c
181 464 _m
199 496 223 520 252 536 _c
281 552 316 560 356 560 _c
422 560 476 533 518 481 _c
559 428 580 359 580 273 _c
}_e{580 187 559 117 518 65 _c
476 13 422 -13 356 -13 _c
316 -13 281 -5 252 10 _c
223 25 199 49 181 82 _c
181 0 _l
91 0 _l
91 760 _l
181 760 _l
181 464 _l
_cl}_e}_d
/c{{550 0 55 -13 488 560 _sc
488 526 _m
488 442 _l
462 456 437 466 411 473 _c
385 480 360 484 334 484 _c
276 484 230 465 198 428 _c
166 391 150 339 150 273 _c
150 206 166 154 198 117 _c
230 80 276 62 334 62 _c
360 62 385 65 411 72 _c
437 79 462 90 488 104 _c
488 21 _l
462 9 436 0 410 -5 _c
383 -10 354 -13 324 -13 _c
242 -13 176 12 128 64 _c
}_e{79 115 55 185 55 273 _c
55 362 79 432 128 483 _c
177 534 244 560 330 560 _c
358 560 385 557 411 551 _c
437 545 463 537 488 526 _c
_cl}_e}_d
/d{{635 0 55 -13 544 760 _sc
454 464 _m
454 760 _l
544 760 _l
544 0 _l
454 0 _l
454 82 _l
435 49 411 25 382 10 _c
353 -5 319 -13 279 -13 _c
213 -13 159 13 117 65 _c
75 117 55 187 55 273 _c
55 359 75 428 117 481 _c
159 533 213 560 279 560 _c
319 560 353 552 382 536 _c
411 520 435 496 454 464 _c
148 273 _m
148 207 161 155 188 117 _c
215 79 253 61 301 61 _c
}_e{348 61 385 79 413 117 _c
440 155 454 207 454 273 _c
454 339 440 390 413 428 _c
385 466 348 485 301 485 _c
253 485 215 466 188 428 _c
161 390 148 339 148 273 _c
_cl}_e}_d
/e{{615 0 55 -13 562 560 _sc
562 296 _m
562 252 _l
149 252 _l
153 190 171 142 205 110 _c
238 78 284 62 344 62 _c
378 62 412 66 444 74 _c
476 82 509 95 541 113 _c
541 28 _l
509 14 476 3 442 -3 _c
408 -9 373 -13 339 -13 _c
251 -13 182 12 131 62 _c
80 112 55 181 55 268 _c
55 357 79 428 127 481 _c
175 533 241 560 323 560 _c
397 560 455 536 498 489 _c
}_e{540 441 562 377 562 296 _c
472 322 _m
471 371 457 410 431 440 _c
404 469 368 484 324 484 _c
274 484 234 469 204 441 _c
174 413 156 373 152 322 _c
472 322 _l
_cl}_e}_d
/f{352 0 23 0 371 760 _sc
371 760 _m
371 685 _l
285 685 _l
253 685 230 678 218 665 _c
205 652 199 629 199 595 _c
199 547 _l
347 547 _l
347 477 _l
199 477 _l
199 0 _l
109 0 _l
109 477 _l
23 477 _l
23 547 _l
109 547 _l
109 585 _l
109 645 123 690 151 718 _c
179 746 224 760 286 760 _c
371 760 _l
_cl}_d
/h{634 0 91 0 549 760 _sc
549 330 _m
549 0 _l
459 0 _l
459 327 _l
459 379 448 417 428 443 _c
408 469 378 482 338 482 _c
289 482 251 466 223 435 _c
195 404 181 362 181 309 _c
181 0 _l
91 0 _l
91 760 _l
181 760 _l
181 462 _l
202 494 227 519 257 535 _c
286 551 320 560 358 560 _c
420 560 468 540 500 501 _c
532 462 549 405 549 330 _c
_cl}_d
/m{{974 0 91 0 889 560 _sc
520 442 _m
542 482 569 511 600 531 _c
631 550 668 560 711 560 _c
767 560 811 540 842 500 _c
873 460 889 403 889 330 _c
889 0 _l
799 0 _l
799 327 _l
799 379 789 418 771 444 _c
752 469 724 482 686 482 _c
639 482 602 466 575 435 _c
548 404 535 362 535 309 _c
535 0 _l
445 0 _l
445 327 _l
445 379 435 418 417 444 _c
398 469 369 482 331 482 _c
}_e{285 482 248 466 221 435 _c
194 404 181 362 181 309 _c
181 0 _l
91 0 _l
91 547 _l
181 547 _l
181 462 _l
201 495 226 520 255 536 _c
283 552 317 560 357 560 _c
397 560 430 550 458 530 _c
486 510 506 480 520 442 _c
_cl}_e}_d
/n{634 0 91 0 549 560 _sc
549 330 _m
549 0 _l
459 0 _l
459 327 _l
459 379 448 417 428 443 _c
408 469 378 482 338 482 _c
289 482 251 466 223 435 _c
195 404 181 362 181 309 _c
181 0 _l
91 0 _l
91 547 _l
181 547 _l
181 462 _l
202 494 227 519 257 535 _c
286 551 320 560 358 560 _c
420 560 468 540 500 501 _c
532 462 549 405 549 330 _c
_cl}_d
/o{612 0 55 -13 557 560 _sc
306 484 _m
258 484 220 465 192 427 _c
164 389 150 338 150 273 _c
150 207 163 156 191 118 _c
219 80 257 62 306 62 _c
354 62 392 80 420 118 _c
448 156 462 207 462 273 _c
462 337 448 389 420 427 _c
392 465 354 484 306 484 _c
306 560 _m
384 560 445 534 490 484 _c
534 433 557 363 557 273 _c
557 183 534 113 490 63 _c
445 12 384 -13 306 -13 _c
227 -13 165 12 121 63 _c
77 113 55 183 55 273 _c
55 363 77 433 121 484 _c
165 534 227 560 306 560 _c
_cl}_d
/p{{635 0 91 -207 580 560 _sc
181 82 _m
181 -207 _l
91 -207 _l
91 547 _l
181 547 _l
181 464 _l
199 496 223 520 252 536 _c
281 552 316 560 356 560 _c
422 560 476 533 518 481 _c
559 428 580 359 580 273 _c
580 187 559 117 518 65 _c
476 13 422 -13 356 -13 _c
316 -13 281 -5 252 10 _c
223 25 199 49 181 82 _c
487 273 _m
487 339 473 390 446 428 _c
418 466 381 485 334 485 _c
}_e{286 485 249 466 222 428 _c
194 390 181 339 181 273 _c
181 207 194 155 222 117 _c
249 79 286 61 334 61 _c
381 61 418 79 446 117 _c
473 155 487 207 487 273 _c
_cl}_e}_d
/r{411 0 91 0 411 560 _sc
411 463 _m
401 469 390 473 378 476 _c
366 478 353 480 339 480 _c
288 480 249 463 222 430 _c
194 397 181 350 181 288 _c
181 0 _l
91 0 _l
91 547 _l
181 547 _l
181 462 _l
199 495 224 520 254 536 _c
284 552 321 560 365 560 _c
371 560 378 559 386 559 _c
393 558 401 557 411 555 _c
411 463 _l
_cl}_d
/s{{521 0 54 -13 472 560 _sc
443 531 _m
443 446 _l
417 458 391 468 364 475 _c
336 481 308 485 279 485 _c
234 485 200 478 178 464 _c
156 450 145 430 145 403 _c
145 382 153 366 169 354 _c
185 342 217 330 265 320 _c
296 313 _l
360 299 405 279 432 255 _c
458 230 472 195 472 151 _c
472 100 452 60 412 31 _c
372 1 316 -13 246 -13 _c
216 -13 186 -10 154 -5 _c
}_e{122 0 89 8 54 20 _c
54 113 _l
87 95 120 82 152 74 _c
184 65 216 61 248 61 _c
290 61 323 68 346 82 _c
368 96 380 117 380 144 _c
380 168 371 187 355 200 _c
339 213 303 226 247 238 _c
216 245 _l
160 257 119 275 95 299 _c
70 323 58 356 58 399 _c
58 450 76 490 112 518 _c
148 546 200 560 268 560 _c
301 560 332 557 362 552 _c
391 547 418 540 443 531 _c
}_e{_cl}_e}_d
/t{392 0 27 0 368 702 _sc
183 702 _m
183 547 _l
368 547 _l
368 477 _l
183 477 _l
183 180 _l
183 135 189 106 201 94 _c
213 81 238 75 276 75 _c
368 75 _l
368 0 _l
276 0 _l
206 0 158 13 132 39 _c
106 65 93 112 93 180 _c
93 477 _l
27 477 _l
27 547 _l
93 547 _l
93 702 _l
183 702 _l
_cl}_d
/u{634 0 85 -13 543 560 _sc
85 216 _m
85 547 _l
175 547 _l
175 219 _l
175 167 185 129 205 103 _c
225 77 255 64 296 64 _c
344 64 383 79 411 110 _c
439 141 453 183 453 237 _c
453 547 _l
543 547 _l
543 0 _l
453 0 _l
453 84 _l
431 50 405 26 377 10 _c
348 -5 315 -13 277 -13 _c
214 -13 166 6 134 45 _c
101 83 85 140 85 216 _c
311 560 _m
311 560 _l
_cl}_d
/minus{838 0 106 272 732 355 _sc
106 355 _m
732 355 _l
732 272 _l
106 272 _l
106 355 _l
_cl}_d
end readonly def

/BuildGlyph
 {exch begin
 CharStrings exch
 2 copy known not{pop /.notdef}if
 true 3 1 roll get exec
 end}_d

/BuildChar {
 1 index /Encoding get exch get
 1 index /BuildGlyph get exec
}_d

FontName currentdict end definefont pop
end
%%EndProlog
mpldict begin
75.6 223.2 translate
460.8 345.6 0 0 clipbox
gsave
0 0 m
460.8 0 l
460.8 345.6 l
0 345.6 l
cl
1.000 setgray
fill
grestore
gsave
57.6 38.016 m
379.008 38.016 l
379.008 304.128 l
57.6 304.128 l
cl
1.000 setgray
fill
grestore
0.800 setlinewidth
1 setlinejoin
2 setlinecap
[] 0 setdash
0.690 setgray
gsave
321.4 266.1 57.6 38.02 clipbox
72.063287 38.016 m
72.063287 304.128 l
stroke
grestore
0 setlinecap
0.000 setgray
gsave
/o {
gsave
newpath
translate
0.8 setlinewidth
1 setlinejoin
0 setlinecap
0 0 m
0 -3.5 l

gsave
0.000 setgray
fill
grestore
stroke
grestore
} bind def
72.0633 38.016 o
grestore
/DejaVuSans findfont
10.000 scalefont
setfont
gsave
68.883599 23.422250 translate
0.000000 rotate
0.000000 0.000000 m /zero glyphshow
grestore
2 setlinecap
0.690 setgray
gsave
321.4 266.1 57.6 38.02 clipbox
108.605194 38.016 m
108.605194 304.128 l
stroke
grestore
0 setlinecap
0.000 setgray
gsave
/o {
gsave
newpath
translate
0.8 setlinewidth
1 setlinejoin
0 setlinecap
0 0 m
0 -3.5 l

gsave
0.000 setgray
fill
grestore
stroke
grestore
} bind def
108.605 38.016 o
grestore
gsave
99.066132 23.422250 translate
0.000000 rotate
0.000000 0.000000 m /two glyphshow
6.362305 0.000000 m /five glyphshow
12.724609 0.000000 m /zero glyphshow
grestore
2 setlinecap
0.690 setgray
gsave
321.4 266.1 57.6 38.02 clipbox
145.147102 38.016 m
145.147102 304.128 l
stroke
grestore
0 setlinecap
0.000 setgray
gsave
/o {
gsave
newpath
translate
0.8 setlinewidth
1 setlinejoin
0 setlinecap
0 0 m
0 -3.5 l

gsave
0.000 setgray
fill
grestore
stroke
grestore
} bind def
145.147 38.016 o
grestore
gsave
135.608039 23.422250 translate
0.000000 rotate
0.000000 0.000000 m /five glyphshow
6.362305 0.000000 m /zero glyphshow
12.724609 0.000000 m /zero glyphshow
grestore
2 setlinecap
0.690 setgray
gsave
321.4 266.1 57.6 38.02 clipbox
181.689009 38.016 m
181.689009 304.128 l
stroke
grestore
0 setlinecap
0.000 setgray
gsave
/o {
gsave
newpath
translate
0.8 setlinewidth
1 setlinejoin
0 setlinecap
0 0 m
0 -3.5 l

gsave
0.000 setgray
fill
grestore
stroke
grestore
} bind def
181.689 38.016 o
grestore
gsave
172.149946 23.422250 translate
0.000000 rotate
0.000000 0.000000 m /seven glyphshow
6.362305 0.000000 m /five glyphshow
12.724609 0.000000 m /zero glyphshow
grestore
2 setlinecap
0.690 setgray
gsave
321.4 266.1 57.6 38.02 clipbox
218.230916 38.016 m
218.230916 304.128 l
stroke
grestore
0 setlinecap
0.000 setgray
gsave
/o {
gsave
newpath
translate
0.8 setlinewidth
1 setlinejoin
0 setlinecap
0 0 m
0 -3.5 l

gsave
0.000 setgray
fill
grestore
stroke
grestore
} bind def
218.231 38.016 o
grestore
gsave
205.512166 23.422250 translate
0.000000 rotate
0.000000 0.000000 m /one glyphshow
6.362305 0.000000 m /zero glyphshow
12.724609 0.000000 m /zero glyphshow
19.086914 0.000000 m /zero glyphshow
grestore
2 setlinecap
0.690 setgray
gsave
321.4 266.1 57.6 38.02 clipbox
254.772824 38.016 m
254.772824 304.128 l
stroke
grestore
0 setlinecap
0.000 setgray
gsave
/o {
gsave
newpath
translate
0.8 setlinewidth
1 setlinejoin
0 setlinecap
0 0 m
0 -3.5 l

gsave
0.000 setgray
fill
grestore
stroke
grestore
} bind def
254.773 38.016 o
grestore
gsave
242.054074 23.422250 translate
0.000000 rotate
0.000000 0.000000 m /one glyphshow
6.362305 0.000000 m /two glyphshow
12.724609 0.000000 m /five glyphshow
19.086914 0.000000 m /zero glyphshow
grestore
2 setlinecap
0.690 setgray
gsave
321.4 266.1 57.6 38.02 clipbox
291.314731 38.016 m
291.314731 304.128 l
stroke
grestore
0 setlinecap
0.000 setgray
gsave
/o {
gsave
newpath
translate
0.8 setlinewidth
1 setlinejoin
0 setlinecap
0 0 m
0 -3.5 l

gsave
0.000 setgray
fill
grestore
stroke
grestore
} bind def
291.315 38.016 o
grestore
gsave
278.595981 23.422250 translate
0.000000 rotate
0.000000 0.000000 m /one glyphshow
6.362305 0.000000 m /five glyphshow
12.724609 0.000000 m /zero glyphshow
19.086914 0.000000 m /zero glyphshow
grestore
2 setlinecap
0.690 setgray
gsave
321.4 266.1 57.6 38.02 clipbox
327.856638 38.016 m
327.856638 304.128 l
stroke
grestore
0 setlinecap
0.000 setgray
gsave
/o {
gsave
newpath
translate
0.8 setlinewidth
1 setlinejoin
0 setlinecap
0 0 m
0 -3.5 l

gsave
0.000 setgray
fill
grestore
stroke
grestore
} bind def
327.857 38.016 o
grestore
gsave
315.137888 23.422250 translate
0.000000 rotate
0.000000 0.000000 m /one glyphshow
6.362305 0.000000 m /seven glyphshow
12.724609 0.000000 m /five glyphshow
19.086914 0.000000 m /zero glyphshow
grestore
2 setlinecap
0.690 setgray
gsave
321.4 266.1 57.6 38.02 clipbox
364.398545 38.016 m
364.398545 304.128 l
stroke
grestore
0 setlinecap
0.000 setgray
gsave
/o {
gsave
newpath
translate
0.8 setlinewidth
1 setlinejoin
0 setlinecap
0 0 m
0 -3.5 l

gsave
0.000 setgray
fill
grestore
stroke
grestore
} bind def
364.399 38.016 o
grestore
gsave
351.679795 23.422250 translate
0.000000 rotate
0.000000 0.000000 m /two glyphshow
6.362305 0.000000 m /zero glyphshow
12.724609 0.000000 m /zero glyphshow
19.086914 0.000000 m /zero glyphshow
grestore
gsave
179.397750 9.750375 translate
0.000000 rotate
0.000000 0.000000 m /N glyphshow
7.480469 0.000000 m /u glyphshow
13.818359 0.000000 m /m glyphshow
23.559570 0.000000 m /b glyphshow
29.907227 0.000000 m /e glyphshow
36.059570 0.000000 m /r glyphshow
40.170898 0.000000 m /space glyphshow
43.349609 0.000000 m /o glyphshow
49.467773 0.000000 m /f glyphshow
52.988281 0.000000 m /space glyphshow
56.166992 0.000000 m /d glyphshow
62.514648 0.000000 m /o glyphshow
68.632812 0.000000 m /t glyphshow
72.553711 0.000000 m /s glyphshow
grestore
2 setlinecap
0.690 setgray
gsave
321.4 266.1 57.6 38.02 clipbox
57.6 69.268072 m
379.008 69.268072 l
stroke
grestore
0 setlinecap
0.000 setgray
gsave
/o {
gsave
newpath
translate
0.8 setlinewidth
1 setlinejoin
0 setlinecap
0 0 m
-3.5 0 l

gsave
0.000 setgray
fill
grestore
stroke
grestore
} bind def
57.6 69.2681 o
grestore
gsave
26.318750 65.471197 translate
0.000000 rotate
0.000000 0.000000 m /minus glyphshow
8.378906 0.000000 m /two glyphshow
14.741211 0.000000 m /period glyphshow
17.919922 0.000000 m /zero glyphshow
grestore
2 setlinecap
0.690 setgray
gsave
321.4 266.1 57.6 38.02 clipbox
57.6 110.52357 m
379.008 110.52357 l
stroke
grestore
0 setlinecap
0.000 setgray
gsave
/o {
gsave
newpath
translate
0.8 setlinewidth
1 setlinejoin
0 setlinecap
0 0 m
-3.5 0 l

gsave
0.000 setgray
fill
grestore
stroke
grestore
} bind def
57.6 110.524 o
grestore
gsave
26.318750 106.726695 translate
0.000000 rotate
0.000000 0.000000 m /minus glyphshow
8.378906 0.000000 m /one glyphshow
14.741211 0.000000 m /period glyphshow
17.919922 0.000000 m /five glyphshow
grestore
2 setlinecap
0.690 setgray
gsave
321.4 266.1 57.6 38.02 clipbox
57.6 151.779067 m
379.008 151.779067 l
stroke
grestore
0 setlinecap
0.000 setgray
gsave
/o {
gsave
newpath
translate
0.8 setlinewidth
1 setlinejoin
0 setlinecap
0 0 m
-3.5 0 l

gsave
0.000 setgray
fill
grestore
stroke
grestore
} bind def
57.6 151.779 o
grestore
gsave
26.318750 147.982192 translate
0.000000 rotate
0.000000 0.000000 m /minus glyphshow
8.378906 0.000000 m /one glyphshow
14.741211 0.000000 m /period glyphshow
17.919922 0.000000 m /zero glyphshow
grestore
2 setlinecap
0.690 setgray
gsave
321.4 266.1 57.6 38.02 clipbox
57.6 193.034564 m
379.008 193.034564 l
stroke
grestore
0 setlinecap
0.000 setgray
gsave
/o {
gsave
newpath
translate
0.8 setlinewidth
1 setlinejoin
0 setlinecap
0 0 m
-3.5 0 l

gsave
0.000 setgray
fill
grestore
stroke
grestore
} bind def
57.6 193.035 o
grestore
gsave
26.318750 189.237689 translate
0.000000 rotate
0.000000 0.000000 m /minus glyphshow
8.378906 0.000000 m /zero glyphshow
14.741211 0.000000 m /period glyphshow
17.919922 0.000000 m /five glyphshow
grestore
2 setlinecap
0.690 setgray
gsave
321.4 266.1 57.6 38.02 clipbox
57.6 234.290062 m
379.008 234.290062 l
stroke
grestore
0 setlinecap
0.000 setgray
gsave
/o {
gsave
newpath
translate
0.8 setlinewidth
1 setlinejoin
0 setlinecap
0 0 m
-3.5 0 l

gsave
0.000 setgray
fill
grestore
stroke
grestore
} bind def
57.6 234.29 o
grestore
gsave
34.693750 230.493187 translate
0.000000 rotate
0.000000 0.000000 m /zero glyphshow
6.362305 0.000000 m /period glyphshow
9.541016 0.000000 m /zero glyphshow
grestore
2 setlinecap
0.690 setgray
gsave
321.4 266.1 57.6 38.02 clipbox
57.6 275.545559 m
379.008 275.545559 l
stroke
grestore
0 setlinecap
0.000 setgray
gsave
/o {
gsave
newpath
translate
0.8 setlinewidth
1 setlinejoin
0 setlinecap
0 0 m
-3.5 0 l

gsave
0.000 setgray
fill
grestore
stroke
grestore
} bind def
57.6 275.546 o
grestore
gsave
34.693750 271.748684 translate
0.000000 rotate
0.000000 0.000000 m /zero glyphshow
6.362305 0.000000 m /period glyphshow
9.541016 0.000000 m /five glyphshow
grestore
gsave
20.240625 153.587625 translate
90.000000 rotate
0.000000 0.000000 m /I glyphshow
2.949219 0.000000 m /one glyphshow
9.311523 0.000000 m /space glyphshow
12.490234 0.000000 m /hyphen glyphshow
16.098633 0.000000 m /space glyphshow
19.277344 0.000000 m /I glyphshow
22.226562 0.000000 m /one glyphshow
28.588867 0.000000 m /one glyphshow
grestore
1.500 setlinewidth
2 setlinecap
1.000 0.000 0.000 setrgbcolor
gsave
321.4 266.1 57.6 38.02 clipbox
72.209455 292.032 m
72.50179 292.032 l
72.647957 50.112 l
72.794125 292.032 l
73.524963 292.032 l
73.817298 130.752 l
74.401969 171.072 l
74.548137 235.109647 l
74.694304 184.512 l
74.840472 241.101474 l
74.98664 195.264 l
75.57131 211.392 l
76.302148 225.295448 l
77.032986 235.109647 l
77.909992 243.648 l
78.786998 249.958957 l
79.664004 254.813538 l
79.810171 237.25766 l
80.541009 241.979586 l
80.687177 259.229288 l
80.833345 243.648 l
81.856518 248.703045 l
83.025859 253.3248 l
83.464362 254.813538 l
83.61053 243.035544 l
84.779871 247.540966 l
86.095379 251.712 l
86.972385 254.083765 l
87.118553 245.057243 l
87.26472 245.508923 l
87.410888 236.736 l
88.580229 240.650761 l
88.726397 249.589895 l
88.872564 241.544348 l
90.334241 245.58336 l
91.211246 247.710779 l
91.357414 255.377455 l
91.795917 256.192 l
92.088252 242.588496 l
93.696096 246.263351 l
93.842264 240.076027 l
93.988431 240.4224 l
94.134599 247.172662 l
95.596275 249.958957 l
95.742443 256.192 l
97.642622 258.8544 l
99.542801 261.148596 l
99.688969 261.312 l
99.981304 271.76645 l
100.127472 266.832 l
101.004478 267.595636 l
101.150645 272.581146 l
101.296813 267.84 l
103.050824 269.209358 l
103.196992 264.773408 l
103.34316 269.422654 l
103.489327 265.026977 l
105.389506 266.566737 l
105.535674 262.452262 l
105.681842 262.58087 l
105.828009 258.519273 l
107.143518 259.776 l
107.289686 255.894573 l
107.435853 256.043901 l
107.582021 260.174222 l
107.728188 256.338885 l
107.874356 256.484571 l
108.020524 260.562732 l
108.459027 260.94188 l
108.605194 257.19552 l
108.897529 265.152 l
109.189865 265.363654 l
109.336032 269.263059 l
111.674714 270.607351 l
111.820882 267.128471 l
111.96705 267.219692 l
112.113217 263.778569 l
113.282558 264.580085 l
113.428726 261.257724 l
115.62124 262.806765 l
115.913576 256.5504 l
117.667587 257.915077 l
117.813755 261.115706 l
118.252258 261.409215 l
118.398425 258.453199 l
118.544593 258.558792 l
118.690761 255.630245 l
119.275431 256.08104 l
119.421599 253.205333 l
119.567766 256.302277 l
121.17561 257.472 l
121.467946 251.95058 l
121.614113 254.923327 l
122.637287 255.674081 l
122.783454 252.990156 l
123.07579 253.213891 l
123.221957 256.0896 l
123.368125 253.435077 l
124.098963 253.977169 l
124.245131 251.373176 l
125.122136 252.045223 l
125.268304 249.496615 l
127.022316 250.854128 l
127.168483 248.396562 l
129.507165 250.173069 l
129.653333 252.73535 l
130.676506 253.421327 l
130.822674 251.110209 l
132.28435 252.103456 l
132.430518 249.857085 l
132.576685 249.958957 l
132.722853 247.728578 l
133.015188 247.941065 l
133.161356 245.731522 l
133.599859 246.061454 l
133.746026 243.877308 l
134.7692 244.663049 l
134.915368 247.023628 l
136.523211 248.146286 l
136.669379 246.056253 l
136.815547 246.160036 l
136.961714 244.083892 l
137.984888 244.828098 l
138.131055 247.073416 l
138.277223 245.036503 l
138.569558 245.243077 l
138.715726 243.223579 l
139.300396 243.648 l
139.446564 241.653866 l
140.762073 242.618553 l
140.90824 240.668943 l
141.931414 241.421121 l
142.077581 239.506572 l
143.100755 240.263111 l
143.246922 238.38239 l
144.708599 239.461859 l
144.854766 237.624289 l
145.147102 237.84192 l
145.293269 236.018587 l
145.585604 236.241304 l
145.87794 240.294653 l
148.362789 241.979586 l
148.508957 240.22504 l
148.655125 240.323908 l
148.801292 242.2656 l
149.53213 242.735094 l
149.678298 241.005559 l
150.409136 241.481552 l
150.555304 243.377698 l
151.139974 243.737434 l
151.286142 242.041151 l
151.43231 242.133215 l
151.578477 244.003765 l
153.478656 245.124711 l
153.624824 243.474581 l
153.770992 245.292537 l
155.525003 246.274802 l
155.671171 244.663049 l
155.963506 244.828098 l
156.109674 243.22727 l
156.255841 243.312 l
156.402009 241.719348 l
156.840512 241.979586 l
156.98668 240.400193 l
157.132847 240.488907 l
157.279015 238.917489 l
158.594523 239.724973 l
158.740691 238.181342 l
160.0562 238.986419 l
160.202367 237.469612 l
160.64087 237.739723 l
160.933206 234.735158 l
161.517876 235.109647 l
161.664044 233.623909 l
162.248714 234.002567 l
162.394882 232.530641 l
162.541049 232.626766 l
162.687217 234.283355 l
162.833385 232.818087 l
164.002726 233.571205 l
164.148893 232.128 l
164.441229 232.31757 l
164.587396 230.883185 l
164.733564 230.979634 l
164.879732 229.551874 l
165.025899 229.650113 l
165.172067 228.228923 l
168.826257 230.638405 l
168.972425 229.271457 l
169.410928 229.554162 l
169.557096 228.197037 l
170.141766 228.577574 l
170.287934 227.232 l
171.74961 228.182147 l
171.895778 226.858823 l
173.795957 228.076138 l
173.942125 226.779547 l
174.088292 226.873032 l
174.23446 228.350627 l
174.81913 228.712967 l
174.965298 230.177455 l
175.111466 228.892596 l
175.403801 229.071208 l
175.549968 227.793356 l
177.157812 228.776145 l
177.30398 227.52 l
178.619489 228.316444 l
178.765656 229.729315 l
179.057992 229.899541 l
179.204159 228.664142 l
179.642662 228.922435 l
179.78883 227.695066 l
180.519668 228.128604 l
180.665835 226.912215 l
180.812003 226.999742 l
180.958171 228.385933 l
181.835176 228.894423 l
181.981344 227.691574 l
185.197032 229.520372 l
185.3432 228.352413 l
185.489367 228.434474 l
185.635535 227.270919 l
186.220205 227.602602 l
186.366373 226.44755 l
187.097211 226.864224 l
187.243379 225.718904 l
188.558887 226.467734 l
188.705055 227.762526 l
191.043737 229.025808 l
191.189905 227.915779 l
193.236252 228.998562 l
193.382419 230.240386 l
193.96709 230.536748 l
194.113257 229.451497 l
194.55176 229.675532 l
194.844096 227.52 l
196.598107 228.42862 l
196.744275 227.368741 l
197.03661 227.52 l
197.182778 226.464897 l
197.62128 226.693886 l
197.767448 225.644651 l
198.644454 226.10461 l
198.790621 227.296775 l
198.936789 227.371355 l
199.229124 225.295448 l
199.375292 225.372069 l
199.52146 224.338789 l
201.713974 225.483545 l
201.860142 226.648216 l
202.59098 227.014307 l
202.737147 228.16945 l
202.883315 228.240804 l
203.029483 227.232 l
204.052656 227.734326 l
204.198824 226.735009 l
204.491159 229.015311 l
205.221997 229.361177 l
205.368165 228.368842 l
205.514332 228.438572 l
205.6605 227.449418 l
206.683673 227.940274 l
206.976009 225.982336 l
207.122176 226.053818 l
207.268344 225.079005 l
207.999182 225.438968 l
208.14535 224.471098 l
209.607026 225.189067 l
209.753194 226.287287 l
209.899361 226.357005 l
210.045529 225.401492 l
211.068702 225.891937 l
211.21487 226.977882 l
211.653373 227.182241 l
211.79954 226.237858 l
212.238043 226.443679 l
212.384211 225.504 l
213.115049 225.848705 l
213.407384 223.984182 l
213.69972 224.124632 l
213.845887 225.192247 l
214.28439 225.398331 l
214.430558 226.460255 l
215.599899 226.994444 l
215.892234 229.093463 l
217.646246 229.851759 l
217.792413 230.884718 l
218.815587 231.311044 l
218.961754 230.408597 l
219.400257 230.592 l
219.546425 231.611941 l
221.008101 232.204875 l
221.154269 231.314824 l
221.592772 231.49288 l
221.738939 230.607 l
222.469777 230.905469 l
222.762113 229.146879 l
223.054448 229.268631 l
223.200616 228.39347 l
224.223789 228.821395 l
224.369957 229.810733 l
228.024147 231.268589 l
228.170315 232.231551 l
228.901153 232.510211 l
229.047321 231.664626 l
229.193488 231.720781 l
229.339656 230.877502 l
230.216662 231.216621 l
230.362829 230.379258 l
231.093668 230.662588 l
231.386003 228.999633 l
231.53217 229.057408 l
231.678338 230.001231 l
232.409176 230.28396 l
232.555344 229.458885 l
233.870853 229.96761 l
234.01702 230.896982 l
235.040194 231.280789 l
235.186361 230.468129 l
237.232708 231.230867 l
237.378876 232.140223 l
239.717558 232.975679 l
240.009893 231.394089 l
241.179234 231.813366 l
241.325402 231.02972 l
242.64091 231.500175 l
242.787078 232.380493 l
243.810251 232.735864 l
243.956419 231.963429 l
244.394922 232.116275 l
244.541089 231.346983 l
246.295101 231.957906 l
246.441269 231.19713 l
247.464442 231.552 l
247.61061 230.796629 l
247.902945 230.898434 l
248.19528 232.606008 l
248.341448 232.655284 l
248.487615 231.902754 l
249.072286 232.101364 l
249.218454 232.949228 l
249.364621 232.997936 l
249.510789 232.249463 l
249.803124 233.939368 l
250.533962 234.177258 l
250.68013 233.43272 l
251.118633 233.576229 l
251.2648 234.413207 l
251.410968 234.460166 l
251.557136 235.295062 l
252.141806 235.479273 l
252.287974 234.740321 l
252.726477 234.879379 l
252.872644 234.143302 l
253.16498 234.236746 l
253.311147 235.063742 l
254.334321 235.383532 l
254.480488 236.204308 l
255.649829 236.559898 l
255.795997 235.834196 l
257.257673 236.277746 l
257.403841 237.084871 l
259.888691 237.811798 l
260.034858 237.101487 l
260.619529 237.271814 l
260.765696 238.063789 l
261.058032 238.147267 l
261.204199 237.441088 l
261.496534 239.018667 l
262.812043 239.384276 l
262.958211 240.165538 l
263.396714 240.284406 l
263.542881 239.585221 l
265.296893 240.061289 l
265.44306 240.832 l
266.027731 240.986333 l
266.173899 240.296096 l
266.320066 240.335025 l
266.466234 239.646316 l
266.758569 239.724973 l
266.904737 240.490155 l
269.097251 241.063691 l
269.243419 240.384142 l
270.705095 240.764185 l
270.851263 240.090353 l
274.505453 241.027928 l
274.651621 240.366545 l
275.674794 240.626171 l
275.820962 241.357222 l
275.96713 240.699871 l
276.113297 240.736642 l
276.259465 240.080676 l
277.136471 240.302848 l
277.428806 238.999004 l
277.574974 239.036723 l
277.721141 239.762149 l
278.013477 239.836344 l
278.159644 239.187064 l
280.352159 239.743326 l
280.498326 240.458592 l
281.082997 240.602853 l
281.229164 239.962566 l
283.129344 240.431335 l
283.275511 241.13672 l
284.59102 241.451752 l
284.737188 240.821443 l
285.17569 240.926815 l
285.321858 240.298594 l
285.614193 240.369413 l
285.760361 239.742862 l
286.198864 239.849939 l
286.345031 240.545615 l
287.222037 240.755478 l
287.368205 240.133344 l
289.414552 240.621966 l
289.560719 240.006194 l
289.706887 240.691019 l
293.653413 241.605404 l
293.799581 242.276535 l
293.945748 242.309312 l
294.091916 241.704995 l
295.115089 241.935853 l
295.261257 241.334947 l
297.015268 241.730246 l
297.161436 241.134545 l
297.453771 241.20056 l
297.599939 240.606362 l
298.038442 240.706153 l
298.184609 241.364851 l
299.35395 241.625518 l
299.500118 241.03601 l
300.523291 241.264399 l
300.669459 241.915581 l
300.815627 241.947604 l
300.961794 241.361655 l
301.25413 241.426286 l
301.400297 240.84179 l
302.861974 241.165984 l
303.008141 241.810633 l
303.592812 241.937455 l
303.738979 242.579584 l
304.177482 242.673008 l
304.32365 243.313057 l
304.469817 242.735094 l
305.200656 242.88963 l
305.346823 243.526737 l
307.39317 243.948522 l
307.539338 243.377698 l
309.87802 243.856167 l
310.024187 243.291361 l
310.170355 243.321282 l
310.316523 243.944834 l
310.755026 244.033176 l
310.901193 244.654766 l
311.047361 244.683743 l
311.193528 245.304176 l
311.632031 245.389706 l
311.778199 244.828098 l
312.509037 244.971574 l
312.655205 244.412267 l
312.801372 244.44118 l
312.94754 245.057243 l
313.093708 244.498901 l
314.409216 244.756922 l
314.555384 245.368709 l
316.163228 245.676072 l
316.455563 244.57401 l
317.624904 244.8 l
317.917239 243.705532 l
318.209575 243.762926 l
318.355742 243.217282 l
318.648077 243.275154 l
318.794245 242.730768 l
318.940413 242.759957 l
319.08658 242.216521 l
319.232748 242.24598 l
319.378916 241.703489 l
319.525083 241.733217 l
319.671251 241.191669 l
319.817419 241.221664 l
319.963586 240.681057 l
323.617777 241.427003 l
323.763945 240.894439 l
324.05628 240.953763 l
324.202447 240.4224 l
324.494783 240.482168 l
324.64095 239.952 l
325.956459 240.221845 l
326.102627 240.808433 l
328.002806 241.188733 l
328.295141 240.142713 l
328.587476 240.201846 l
328.733644 239.680292 l
329.025979 239.73985 l
329.172147 240.319709 l
329.318314 239.799273 l
329.464482 239.828934 l
329.61065 240.407755 l
330.341488 240.553834 l
330.487655 240.03562 l
332.095499 240.357126 l
332.241667 240.929798 l
334.872684 241.441388 l
335.018852 240.931611 l
335.74969 241.073242 l
335.895858 240.565363 l
336.188193 240.622327 l
336.334361 241.185982 l
343.935077 242.607484 l
344.227413 241.621173 l
344.519748 241.675262 l
344.665916 242.221126 l
344.812083 241.729235 l
345.542921 241.863662 l
345.689089 242.407385 l
345.835257 241.917232 l
345.981424 241.943974 l
346.273759 243.029015 l
346.419927 243.055122 l
346.566095 242.56593 l
347.150765 242.671065 l
347.296933 243.211182 l
347.589268 243.262981 l
347.881603 242.289043 l
348.027771 242.31539 l
348.173939 241.829438 l
348.758609 241.935518 l
348.904777 241.45105 l
349.050944 241.988391 l
351.243459 242.381403 l
351.389626 241.901011 l
351.828129 241.979586 l
351.974297 241.500407 l
352.4128 241.579445 l
352.558967 241.101474 l
353.582141 241.286579 l
353.728309 240.810744 l
354.751482 240.996137 l
354.89765 240.522419 l
355.774655 240.681645 l
355.920823 240.209796 l
356.943996 240.39592 l
357.090164 239.926154 l
357.236332 240.448853 l
357.821002 240.554394 l
357.96717 241.075436 l
358.113337 240.607003 l
358.259505 240.633267 l
358.405673 240.165538 l
359.282678 240.323908 l
359.428846 239.858002 l
360.013517 239.963939 l
360.305852 239.035327 l
361.03669 239.16936 l
361.182858 238.706863 l
361.767528 238.814482 l
361.913696 238.353331 l
364.398545 238.8096 l
364.398545 238.8096 l
stroke
grestore
0.800 setlinewidth
0 setlinejoin
[] 0 setdash
0.000 setgray
gsave
57.6 38.016 m
57.6 304.128 l
stroke
grestore
gsave
379.008 38.016 m
379.008 304.128 l
stroke
grestore
gsave
57.6 38.016 m
379.008 38.016 l
stroke
grestore
gsave
57.6 304.128 m
379.008 304.128 l
stroke
grestore
/DejaVuSans findfont
12.000 scalefont
setfont
gsave
72.399472 424.065349 translate
0.000000 rotate
0.000000 0.000000 m /n glyphshow
7.605469 0.000000 m /u glyphshow
15.210938 0.000000 m /m glyphshow
26.900391 0.000000 m /b glyphshow
34.517578 0.000000 m /e glyphshow
41.900391 0.000000 m /r glyphshow
46.833984 0.000000 m /space glyphshow
50.648438 0.000000 m /o glyphshow
57.990234 0.000000 m /f glyphshow
62.214844 0.000000 m /space glyphshow
66.029297 0.000000 m /d glyphshow
73.646484 0.000000 m /o glyphshow
80.988281 0.000000 m /t glyphshow
85.693359 0.000000 m /s glyphshow
91.945312 0.000000 m /space glyphshow
95.759766 0.000000 m /equal glyphshow
105.814453 0.000000 m /space glyphshow
109.628906 0.000000 m /one glyphshow
117.263672 0.000000 m /zero glyphshow
124.898438 0.000000 m /zero glyphshow
132.533203 0.000000 m /zero glyphshow
grestore
gsave
86.975875 310.128000 translate
0.000000 rotate
0.000000 0.000000 m /D glyphshow
9.240234 0.000000 m /e glyphshow
16.623047 0.000000 m /p glyphshow
24.240234 0.000000 m /e glyphshow
31.623047 0.000000 m /n glyphshow
39.228516 0.000000 m /d glyphshow
46.845703 0.000000 m /e glyphshow
54.228516 0.000000 m /n glyphshow
61.833984 0.000000 m /c glyphshow
68.431641 0.000000 m /e glyphshow
75.814453 0.000000 m /space glyphshow
79.628906 0.000000 m /o glyphshow
86.970703 0.000000 m /f glyphshow
91.195312 0.000000 m /space glyphshow
95.009766 0.000000 m /e glyphshow
102.392578 0.000000 m /r glyphshow
107.326172 0.000000 m /r glyphshow
112.259766 0.000000 m /o glyphshow
119.601562 0.000000 m /r glyphshow
124.535156 0.000000 m /space glyphshow
128.349609 0.000000 m /o glyphshow
135.691406 0.000000 m /n glyphshow
143.296875 0.000000 m /space glyphshow
147.111328 0.000000 m /t glyphshow
151.816406 0.000000 m /h glyphshow
159.421875 0.000000 m /e glyphshow
166.804688 0.000000 m /space glyphshow
170.619141 0.000000 m /n glyphshow
178.224609 0.000000 m /u glyphshow
185.830078 0.000000 m /m glyphshow
197.519531 0.000000 m /b glyphshow
205.136719 0.000000 m /e glyphshow
212.519531 0.000000 m /r glyphshow
217.453125 0.000000 m /space glyphshow
221.267578 0.000000 m /o glyphshow
228.609375 0.000000 m /f glyphshow
232.833984 0.000000 m /space glyphshow
236.648438 0.000000 m /d glyphshow
244.265625 0.000000 m /o glyphshow
251.607422 0.000000 m /t glyphshow
256.312500 0.000000 m /s glyphshow
grestore

end
showpage
