%!PS-Adobe-3.0 EPSF-3.0
%%Title: cmpp-lab1-frequency.eps
%%Creator: matplotlib version 2.2.4, http://matplotlib.org/
%%CreationDate: Mon Dec 23 23:05:20 2019
%%Orientation: portrait
%%BoundingBox: 75 223 536 568
%%EndComments
%%BeginProlog
/mpldict 8 dict def
mpldict begin
/m { moveto } bind def
/l { lineto } bind def
/r { rlineto } bind def
/c { curveto } bind def
/cl { closepath } bind def
/box {
m
1 index 0 r
0 exch r
neg 0 r
cl
} bind def
/clipbox {
box
clip
newpath
} bind def
%!PS-Adobe-3.0 Resource-Font
%%Title: DejaVu Sans
%%Copyright: Copyright (c) 2003 by Bitstream, Inc. All Rights Reserved. Copyright (c) 2006 by Tavmjong Bah. All Rights Reserved. DejaVu changes are in public domain 
%%Creator: Converted from TrueType to type 3 by PPR
25 dict begin
/_d{bind def}bind def
/_m{moveto}_d
/_l{lineto}_d
/_cl{closepath eofill}_d
/_c{curveto}_d
/_sc{7 -1 roll{setcachedevice}{pop pop pop pop pop pop}ifelse}_d
/_e{exec}_d
/FontName /DejaVuSans def
/PaintType 0 def
/FontMatrix[.001 0 0 .001 0 0]def
/FontBBox[-1021 -463 1793 1232]def
/FontType 3 def
/Encoding [ /space /hyphen /period /zero /one /two /five /seven /D /I /N /b /c /d /e /f /h /m /n /o /p /r /s /t /u /minus ] def
/FontInfo 10 dict dup begin
/FamilyName (DejaVu Sans) def
/FullName (DejaVu Sans) def
/Notice (Copyright (c) 2003 by Bitstream, Inc. All Rights Reserved. Copyright (c) 2006 by Tavmjong Bah. All Rights Reserved. DejaVu changes are in public domain ) def
/Weight (Book) def
/Version (Version 2.35) def
/ItalicAngle 0.0 def
/isFixedPitch false def
/UnderlinePosition -130 def
/UnderlineThickness 90 def
end readonly def
/CharStrings 27 dict dup begin
/.notdef 0 def
/space{318 0 0 0 0 0 _sc
}_d
/hyphen{361 0 49 234 312 314 _sc
49 314 _m
312 314 _l
312 234 _l
49 234 _l
49 314 _l
_cl}_d
/period{318 0 107 0 210 124 _sc
107 124 _m
210 124 _l
210 0 _l
107 0 _l
107 124 _l
_cl}_d
/zero{636 0 66 -13 570 742 _sc
318 664 _m
267 664 229 639 203 589 _c
177 539 165 464 165 364 _c
165 264 177 189 203 139 _c
229 89 267 64 318 64 _c
369 64 407 89 433 139 _c
458 189 471 264 471 364 _c
471 464 458 539 433 589 _c
407 639 369 664 318 664 _c
318 742 _m
399 742 461 709 505 645 _c
548 580 570 486 570 364 _c
570 241 548 147 505 83 _c
461 19 399 -13 318 -13 _c
236 -13 173 19 130 83 _c
87 147 66 241 66 364 _c
66 486 87 580 130 645 _c
173 709 236 742 318 742 _c
_cl}_d
/one{636 0 110 0 544 729 _sc
124 83 _m
285 83 _l
285 639 _l
110 604 _l
110 694 _l
284 729 _l
383 729 _l
383 83 _l
544 83 _l
544 0 _l
124 0 _l
124 83 _l
_cl}_d
/two{{636 0 73 0 536 742 _sc
192 83 _m
536 83 _l
536 0 _l
73 0 _l
73 83 _l
110 121 161 173 226 239 _c
290 304 331 346 348 365 _c
380 400 402 430 414 455 _c
426 479 433 504 433 528 _c
433 566 419 598 392 622 _c
365 646 330 659 286 659 _c
255 659 222 653 188 643 _c
154 632 117 616 78 594 _c
78 694 _l
118 710 155 722 189 730 _c
223 738 255 742 284 742 _c
}_e{359 742 419 723 464 685 _c
509 647 532 597 532 534 _c
532 504 526 475 515 449 _c
504 422 484 390 454 354 _c
446 344 420 317 376 272 _c
332 227 271 164 192 83 _c
_cl}_e}_d
/five{{636 0 77 -13 549 729 _sc
108 729 _m
495 729 _l
495 646 _l
198 646 _l
198 467 _l
212 472 227 476 241 478 _c
255 480 270 482 284 482 _c
365 482 429 459 477 415 _c
525 370 549 310 549 234 _c
549 155 524 94 475 51 _c
426 8 357 -13 269 -13 _c
238 -13 207 -10 175 -6 _c
143 -1 111 6 77 17 _c
77 116 _l
106 100 136 88 168 80 _c
199 72 232 69 267 69 _c
}_e{323 69 368 83 401 113 _c
433 143 450 183 450 234 _c
450 284 433 324 401 354 _c
368 384 323 399 267 399 _c
241 399 214 396 188 390 _c
162 384 135 375 108 363 _c
108 729 _l
_cl}_e}_d
/seven{636 0 82 0 551 729 _sc
82 729 _m
551 729 _l
551 687 _l
286 0 _l
183 0 _l
432 646 _l
82 646 _l
82 729 _l
_cl}_d
/D{770 0 98 0 711 729 _sc
197 648 _m
197 81 _l
316 81 _l
416 81 490 103 537 149 _c
583 195 607 267 607 365 _c
607 463 583 534 537 580 _c
490 625 416 648 316 648 _c
197 648 _l
98 729 _m
301 729 _l
442 729 546 699 612 641 _c
678 582 711 490 711 365 _c
711 239 677 147 611 88 _c
545 29 441 0 301 0 _c
98 0 _l
98 729 _l
_cl}_d
/I{295 0 98 0 197 729 _sc
98 729 _m
197 729 _l
197 0 _l
98 0 _l
98 729 _l
_cl}_d
/N{748 0 98 0 650 729 _sc
98 729 _m
231 729 _l
554 119 _l
554 729 _l
650 729 _l
650 0 _l
517 0 _l
194 610 _l
194 0 _l
98 0 _l
98 729 _l
_cl}_d
/b{{635 0 91 -13 580 760 _sc
487 273 _m
487 339 473 390 446 428 _c
418 466 381 485 334 485 _c
286 485 249 466 222 428 _c
194 390 181 339 181 273 _c
181 207 194 155 222 117 _c
249 79 286 61 334 61 _c
381 61 418 79 446 117 _c
473 155 487 207 487 273 _c
181 464 _m
199 496 223 520 252 536 _c
281 552 316 560 356 560 _c
422 560 476 533 518 481 _c
559 428 580 359 580 273 _c
}_e{580 187 559 117 518 65 _c
476 13 422 -13 356 -13 _c
316 -13 281 -5 252 10 _c
223 25 199 49 181 82 _c
181 0 _l
91 0 _l
91 760 _l
181 760 _l
181 464 _l
_cl}_e}_d
/c{{550 0 55 -13 488 560 _sc
488 526 _m
488 442 _l
462 456 437 466 411 473 _c
385 480 360 484 334 484 _c
276 484 230 465 198 428 _c
166 391 150 339 150 273 _c
150 206 166 154 198 117 _c
230 80 276 62 334 62 _c
360 62 385 65 411 72 _c
437 79 462 90 488 104 _c
488 21 _l
462 9 436 0 410 -5 _c
383 -10 354 -13 324 -13 _c
242 -13 176 12 128 64 _c
}_e{79 115 55 185 55 273 _c
55 362 79 432 128 483 _c
177 534 244 560 330 560 _c
358 560 385 557 411 551 _c
437 545 463 537 488 526 _c
_cl}_e}_d
/d{{635 0 55 -13 544 760 _sc
454 464 _m
454 760 _l
544 760 _l
544 0 _l
454 0 _l
454 82 _l
435 49 411 25 382 10 _c
353 -5 319 -13 279 -13 _c
213 -13 159 13 117 65 _c
75 117 55 187 55 273 _c
55 359 75 428 117 481 _c
159 533 213 560 279 560 _c
319 560 353 552 382 536 _c
411 520 435 496 454 464 _c
148 273 _m
148 207 161 155 188 117 _c
215 79 253 61 301 61 _c
}_e{348 61 385 79 413 117 _c
440 155 454 207 454 273 _c
454 339 440 390 413 428 _c
385 466 348 485 301 485 _c
253 485 215 466 188 428 _c
161 390 148 339 148 273 _c
_cl}_e}_d
/e{{615 0 55 -13 562 560 _sc
562 296 _m
562 252 _l
149 252 _l
153 190 171 142 205 110 _c
238 78 284 62 344 62 _c
378 62 412 66 444 74 _c
476 82 509 95 541 113 _c
541 28 _l
509 14 476 3 442 -3 _c
408 -9 373 -13 339 -13 _c
251 -13 182 12 131 62 _c
80 112 55 181 55 268 _c
55 357 79 428 127 481 _c
175 533 241 560 323 560 _c
397 560 455 536 498 489 _c
}_e{540 441 562 377 562 296 _c
472 322 _m
471 371 457 410 431 440 _c
404 469 368 484 324 484 _c
274 484 234 469 204 441 _c
174 413 156 373 152 322 _c
472 322 _l
_cl}_e}_d
/f{352 0 23 0 371 760 _sc
371 760 _m
371 685 _l
285 685 _l
253 685 230 678 218 665 _c
205 652 199 629 199 595 _c
199 547 _l
347 547 _l
347 477 _l
199 477 _l
199 0 _l
109 0 _l
109 477 _l
23 477 _l
23 547 _l
109 547 _l
109 585 _l
109 645 123 690 151 718 _c
179 746 224 760 286 760 _c
371 760 _l
_cl}_d
/h{634 0 91 0 549 760 _sc
549 330 _m
549 0 _l
459 0 _l
459 327 _l
459 379 448 417 428 443 _c
408 469 378 482 338 482 _c
289 482 251 466 223 435 _c
195 404 181 362 181 309 _c
181 0 _l
91 0 _l
91 760 _l
181 760 _l
181 462 _l
202 494 227 519 257 535 _c
286 551 320 560 358 560 _c
420 560 468 540 500 501 _c
532 462 549 405 549 330 _c
_cl}_d
/m{{974 0 91 0 889 560 _sc
520 442 _m
542 482 569 511 600 531 _c
631 550 668 560 711 560 _c
767 560 811 540 842 500 _c
873 460 889 403 889 330 _c
889 0 _l
799 0 _l
799 327 _l
799 379 789 418 771 444 _c
752 469 724 482 686 482 _c
639 482 602 466 575 435 _c
548 404 535 362 535 309 _c
535 0 _l
445 0 _l
445 327 _l
445 379 435 418 417 444 _c
398 469 369 482 331 482 _c
}_e{285 482 248 466 221 435 _c
194 404 181 362 181 309 _c
181 0 _l
91 0 _l
91 547 _l
181 547 _l
181 462 _l
201 495 226 520 255 536 _c
283 552 317 560 357 560 _c
397 560 430 550 458 530 _c
486 510 506 480 520 442 _c
_cl}_e}_d
/n{634 0 91 0 549 560 _sc
549 330 _m
549 0 _l
459 0 _l
459 327 _l
459 379 448 417 428 443 _c
408 469 378 482 338 482 _c
289 482 251 466 223 435 _c
195 404 181 362 181 309 _c
181 0 _l
91 0 _l
91 547 _l
181 547 _l
181 462 _l
202 494 227 519 257 535 _c
286 551 320 560 358 560 _c
420 560 468 540 500 501 _c
532 462 549 405 549 330 _c
_cl}_d
/o{612 0 55 -13 557 560 _sc
306 484 _m
258 484 220 465 192 427 _c
164 389 150 338 150 273 _c
150 207 163 156 191 118 _c
219 80 257 62 306 62 _c
354 62 392 80 420 118 _c
448 156 462 207 462 273 _c
462 337 448 389 420 427 _c
392 465 354 484 306 484 _c
306 560 _m
384 560 445 534 490 484 _c
534 433 557 363 557 273 _c
557 183 534 113 490 63 _c
445 12 384 -13 306 -13 _c
227 -13 165 12 121 63 _c
77 113 55 183 55 273 _c
55 363 77 433 121 484 _c
165 534 227 560 306 560 _c
_cl}_d
/p{{635 0 91 -207 580 560 _sc
181 82 _m
181 -207 _l
91 -207 _l
91 547 _l
181 547 _l
181 464 _l
199 496 223 520 252 536 _c
281 552 316 560 356 560 _c
422 560 476 533 518 481 _c
559 428 580 359 580 273 _c
580 187 559 117 518 65 _c
476 13 422 -13 356 -13 _c
316 -13 281 -5 252 10 _c
223 25 199 49 181 82 _c
487 273 _m
487 339 473 390 446 428 _c
418 466 381 485 334 485 _c
}_e{286 485 249 466 222 428 _c
194 390 181 339 181 273 _c
181 207 194 155 222 117 _c
249 79 286 61 334 61 _c
381 61 418 79 446 117 _c
473 155 487 207 487 273 _c
_cl}_e}_d
/r{411 0 91 0 411 560 _sc
411 463 _m
401 469 390 473 378 476 _c
366 478 353 480 339 480 _c
288 480 249 463 222 430 _c
194 397 181 350 181 288 _c
181 0 _l
91 0 _l
91 547 _l
181 547 _l
181 462 _l
199 495 224 520 254 536 _c
284 552 321 560 365 560 _c
371 560 378 559 386 559 _c
393 558 401 557 411 555 _c
411 463 _l
_cl}_d
/s{{521 0 54 -13 472 560 _sc
443 531 _m
443 446 _l
417 458 391 468 364 475 _c
336 481 308 485 279 485 _c
234 485 200 478 178 464 _c
156 450 145 430 145 403 _c
145 382 153 366 169 354 _c
185 342 217 330 265 320 _c
296 313 _l
360 299 405 279 432 255 _c
458 230 472 195 472 151 _c
472 100 452 60 412 31 _c
372 1 316 -13 246 -13 _c
216 -13 186 -10 154 -5 _c
}_e{122 0 89 8 54 20 _c
54 113 _l
87 95 120 82 152 74 _c
184 65 216 61 248 61 _c
290 61 323 68 346 82 _c
368 96 380 117 380 144 _c
380 168 371 187 355 200 _c
339 213 303 226 247 238 _c
216 245 _l
160 257 119 275 95 299 _c
70 323 58 356 58 399 _c
58 450 76 490 112 518 _c
148 546 200 560 268 560 _c
301 560 332 557 362 552 _c
391 547 418 540 443 531 _c
}_e{_cl}_e}_d
/t{392 0 27 0 368 702 _sc
183 702 _m
183 547 _l
368 547 _l
368 477 _l
183 477 _l
183 180 _l
183 135 189 106 201 94 _c
213 81 238 75 276 75 _c
368 75 _l
368 0 _l
276 0 _l
206 0 158 13 132 39 _c
106 65 93 112 93 180 _c
93 477 _l
27 477 _l
27 547 _l
93 547 _l
93 702 _l
183 702 _l
_cl}_d
/u{634 0 85 -13 543 560 _sc
85 216 _m
85 547 _l
175 547 _l
175 219 _l
175 167 185 129 205 103 _c
225 77 255 64 296 64 _c
344 64 383 79 411 110 _c
439 141 453 183 453 237 _c
453 547 _l
543 547 _l
543 0 _l
453 0 _l
453 84 _l
431 50 405 26 377 10 _c
348 -5 315 -13 277 -13 _c
214 -13 166 6 134 45 _c
101 83 85 140 85 216 _c
311 560 _m
311 560 _l
_cl}_d
/minus{838 0 106 272 732 355 _sc
106 355 _m
732 355 _l
732 272 _l
106 272 _l
106 355 _l
_cl}_d
end readonly def

/BuildGlyph
 {exch begin
 CharStrings exch
 2 copy known not{pop /.notdef}if
 true 3 1 roll get exec
 end}_d

/BuildChar {
 1 index /Encoding get exch get
 1 index /BuildGlyph get exec
}_d

FontName currentdict end definefont pop
end
%%EndProlog
mpldict begin
75.6 223.2 translate
460.8 345.6 0 0 clipbox
gsave
0 0 m
460.8 0 l
460.8 345.6 l
0 345.6 l
cl
1.000 setgray
fill
grestore
gsave
57.6 38.016 m
379.008 38.016 l
379.008 304.128 l
57.6 304.128 l
cl
1.000 setgray
fill
grestore
0.800 setlinewidth
1 setlinejoin
2 setlinecap
[] 0 setdash
0.690 setgray
gsave
321.4 266.1 57.6 38.02 clipbox
72.063287 38.016 m
72.063287 304.128 l
stroke
grestore
0 setlinecap
0.000 setgray
gsave
/o {
gsave
newpath
translate
0.8 setlinewidth
1 setlinejoin
0 setlinecap
0 0 m
0 -3.5 l

gsave
0.000 setgray
fill
grestore
stroke
grestore
} bind def
72.0633 38.016 o
grestore
/DejaVuSans findfont
10.000 scalefont
setfont
gsave
68.883599 23.422250 translate
0.000000 rotate
0.000000 0.000000 m /zero glyphshow
grestore
2 setlinecap
0.690 setgray
gsave
321.4 266.1 57.6 38.02 clipbox
108.605194 38.016 m
108.605194 304.128 l
stroke
grestore
0 setlinecap
0.000 setgray
gsave
/o {
gsave
newpath
translate
0.8 setlinewidth
1 setlinejoin
0 setlinecap
0 0 m
0 -3.5 l

gsave
0.000 setgray
fill
grestore
stroke
grestore
} bind def
108.605 38.016 o
grestore
gsave
99.066132 23.422250 translate
0.000000 rotate
0.000000 0.000000 m /two glyphshow
6.362305 0.000000 m /five glyphshow
12.724609 0.000000 m /zero glyphshow
grestore
2 setlinecap
0.690 setgray
gsave
321.4 266.1 57.6 38.02 clipbox
145.147102 38.016 m
145.147102 304.128 l
stroke
grestore
0 setlinecap
0.000 setgray
gsave
/o {
gsave
newpath
translate
0.8 setlinewidth
1 setlinejoin
0 setlinecap
0 0 m
0 -3.5 l

gsave
0.000 setgray
fill
grestore
stroke
grestore
} bind def
145.147 38.016 o
grestore
gsave
135.608039 23.422250 translate
0.000000 rotate
0.000000 0.000000 m /five glyphshow
6.362305 0.000000 m /zero glyphshow
12.724609 0.000000 m /zero glyphshow
grestore
2 setlinecap
0.690 setgray
gsave
321.4 266.1 57.6 38.02 clipbox
181.689009 38.016 m
181.689009 304.128 l
stroke
grestore
0 setlinecap
0.000 setgray
gsave
/o {
gsave
newpath
translate
0.8 setlinewidth
1 setlinejoin
0 setlinecap
0 0 m
0 -3.5 l

gsave
0.000 setgray
fill
grestore
stroke
grestore
} bind def
181.689 38.016 o
grestore
gsave
172.149946 23.422250 translate
0.000000 rotate
0.000000 0.000000 m /seven glyphshow
6.362305 0.000000 m /five glyphshow
12.724609 0.000000 m /zero glyphshow
grestore
2 setlinecap
0.690 setgray
gsave
321.4 266.1 57.6 38.02 clipbox
218.230916 38.016 m
218.230916 304.128 l
stroke
grestore
0 setlinecap
0.000 setgray
gsave
/o {
gsave
newpath
translate
0.8 setlinewidth
1 setlinejoin
0 setlinecap
0 0 m
0 -3.5 l

gsave
0.000 setgray
fill
grestore
stroke
grestore
} bind def
218.231 38.016 o
grestore
gsave
205.512166 23.422250 translate
0.000000 rotate
0.000000 0.000000 m /one glyphshow
6.362305 0.000000 m /zero glyphshow
12.724609 0.000000 m /zero glyphshow
19.086914 0.000000 m /zero glyphshow
grestore
2 setlinecap
0.690 setgray
gsave
321.4 266.1 57.6 38.02 clipbox
254.772824 38.016 m
254.772824 304.128 l
stroke
grestore
0 setlinecap
0.000 setgray
gsave
/o {
gsave
newpath
translate
0.8 setlinewidth
1 setlinejoin
0 setlinecap
0 0 m
0 -3.5 l

gsave
0.000 setgray
fill
grestore
stroke
grestore
} bind def
254.773 38.016 o
grestore
gsave
242.054074 23.422250 translate
0.000000 rotate
0.000000 0.000000 m /one glyphshow
6.362305 0.000000 m /two glyphshow
12.724609 0.000000 m /five glyphshow
19.086914 0.000000 m /zero glyphshow
grestore
2 setlinecap
0.690 setgray
gsave
321.4 266.1 57.6 38.02 clipbox
291.314731 38.016 m
291.314731 304.128 l
stroke
grestore
0 setlinecap
0.000 setgray
gsave
/o {
gsave
newpath
translate
0.8 setlinewidth
1 setlinejoin
0 setlinecap
0 0 m
0 -3.5 l

gsave
0.000 setgray
fill
grestore
stroke
grestore
} bind def
291.315 38.016 o
grestore
gsave
278.595981 23.422250 translate
0.000000 rotate
0.000000 0.000000 m /one glyphshow
6.362305 0.000000 m /five glyphshow
12.724609 0.000000 m /zero glyphshow
19.086914 0.000000 m /zero glyphshow
grestore
2 setlinecap
0.690 setgray
gsave
321.4 266.1 57.6 38.02 clipbox
327.856638 38.016 m
327.856638 304.128 l
stroke
grestore
0 setlinecap
0.000 setgray
gsave
/o {
gsave
newpath
translate
0.8 setlinewidth
1 setlinejoin
0 setlinecap
0 0 m
0 -3.5 l

gsave
0.000 setgray
fill
grestore
stroke
grestore
} bind def
327.857 38.016 o
grestore
gsave
315.137888 23.422250 translate
0.000000 rotate
0.000000 0.000000 m /one glyphshow
6.362305 0.000000 m /seven glyphshow
12.724609 0.000000 m /five glyphshow
19.086914 0.000000 m /zero glyphshow
grestore
2 setlinecap
0.690 setgray
gsave
321.4 266.1 57.6 38.02 clipbox
364.398545 38.016 m
364.398545 304.128 l
stroke
grestore
0 setlinecap
0.000 setgray
gsave
/o {
gsave
newpath
translate
0.8 setlinewidth
1 setlinejoin
0 setlinecap
0 0 m
0 -3.5 l

gsave
0.000 setgray
fill
grestore
stroke
grestore
} bind def
364.399 38.016 o
grestore
gsave
351.679795 23.422250 translate
0.000000 rotate
0.000000 0.000000 m /two glyphshow
6.362305 0.000000 m /zero glyphshow
12.724609 0.000000 m /zero glyphshow
19.086914 0.000000 m /zero glyphshow
grestore
gsave
179.397750 9.750375 translate
0.000000 rotate
0.000000 0.000000 m /N glyphshow
7.480469 0.000000 m /u glyphshow
13.818359 0.000000 m /m glyphshow
23.559570 0.000000 m /b glyphshow
29.907227 0.000000 m /e glyphshow
36.059570 0.000000 m /r glyphshow
40.170898 0.000000 m /space glyphshow
43.349609 0.000000 m /o glyphshow
49.467773 0.000000 m /f glyphshow
52.988281 0.000000 m /space glyphshow
56.166992 0.000000 m /d glyphshow
62.514648 0.000000 m /o glyphshow
68.632812 0.000000 m /t glyphshow
72.553711 0.000000 m /s glyphshow
grestore
2 setlinecap
0.690 setgray
gsave
321.4 266.1 57.6 38.02 clipbox
57.6 65.151935 m
379.008 65.151935 l
stroke
grestore
0 setlinecap
0.000 setgray
gsave
/o {
gsave
newpath
translate
0.8 setlinewidth
1 setlinejoin
0 setlinecap
0 0 m
-3.5 0 l

gsave
0.000 setgray
fill
grestore
stroke
grestore
} bind def
57.6 65.1519 o
grestore
gsave
26.318750 61.355060 translate
0.000000 rotate
0.000000 0.000000 m /minus glyphshow
8.378906 0.000000 m /one glyphshow
14.741211 0.000000 m /period glyphshow
17.919922 0.000000 m /zero glyphshow
grestore
2 setlinecap
0.690 setgray
gsave
321.4 266.1 57.6 38.02 clipbox
57.6 108.981518 m
379.008 108.981518 l
stroke
grestore
0 setlinecap
0.000 setgray
gsave
/o {
gsave
newpath
translate
0.8 setlinewidth
1 setlinejoin
0 setlinecap
0 0 m
-3.5 0 l

gsave
0.000 setgray
fill
grestore
stroke
grestore
} bind def
57.6 108.982 o
grestore
gsave
26.318750 105.184643 translate
0.000000 rotate
0.000000 0.000000 m /minus glyphshow
8.378906 0.000000 m /zero glyphshow
14.741211 0.000000 m /period glyphshow
17.919922 0.000000 m /five glyphshow
grestore
2 setlinecap
0.690 setgray
gsave
321.4 266.1 57.6 38.02 clipbox
57.6 152.8111 m
379.008 152.8111 l
stroke
grestore
0 setlinecap
0.000 setgray
gsave
/o {
gsave
newpath
translate
0.8 setlinewidth
1 setlinejoin
0 setlinecap
0 0 m
-3.5 0 l

gsave
0.000 setgray
fill
grestore
stroke
grestore
} bind def
57.6 152.811 o
grestore
gsave
34.693750 149.014225 translate
0.000000 rotate
0.000000 0.000000 m /zero glyphshow
6.362305 0.000000 m /period glyphshow
9.541016 0.000000 m /zero glyphshow
grestore
2 setlinecap
0.690 setgray
gsave
321.4 266.1 57.6 38.02 clipbox
57.6 196.640683 m
379.008 196.640683 l
stroke
grestore
0 setlinecap
0.000 setgray
gsave
/o {
gsave
newpath
translate
0.8 setlinewidth
1 setlinejoin
0 setlinecap
0 0 m
-3.5 0 l

gsave
0.000 setgray
fill
grestore
stroke
grestore
} bind def
57.6 196.641 o
grestore
gsave
34.693750 192.843808 translate
0.000000 rotate
0.000000 0.000000 m /zero glyphshow
6.362305 0.000000 m /period glyphshow
9.541016 0.000000 m /five glyphshow
grestore
2 setlinecap
0.690 setgray
gsave
321.4 266.1 57.6 38.02 clipbox
57.6 240.470265 m
379.008 240.470265 l
stroke
grestore
0 setlinecap
0.000 setgray
gsave
/o {
gsave
newpath
translate
0.8 setlinewidth
1 setlinejoin
0 setlinecap
0 0 m
-3.5 0 l

gsave
0.000 setgray
fill
grestore
stroke
grestore
} bind def
57.6 240.47 o
grestore
gsave
34.693750 236.673390 translate
0.000000 rotate
0.000000 0.000000 m /one glyphshow
6.362305 0.000000 m /period glyphshow
9.541016 0.000000 m /zero glyphshow
grestore
2 setlinecap
0.690 setgray
gsave
321.4 266.1 57.6 38.02 clipbox
57.6 284.299848 m
379.008 284.299848 l
stroke
grestore
0 setlinecap
0.000 setgray
gsave
/o {
gsave
newpath
translate
0.8 setlinewidth
1 setlinejoin
0 setlinecap
0 0 m
-3.5 0 l

gsave
0.000 setgray
fill
grestore
stroke
grestore
} bind def
57.6 284.3 o
grestore
gsave
34.693750 280.502973 translate
0.000000 rotate
0.000000 0.000000 m /one glyphshow
6.362305 0.000000 m /period glyphshow
9.541016 0.000000 m /five glyphshow
grestore
gsave
20.240625 153.587625 translate
90.000000 rotate
0.000000 0.000000 m /I glyphshow
2.949219 0.000000 m /two glyphshow
9.311523 0.000000 m /space glyphshow
12.490234 0.000000 m /hyphen glyphshow
16.098633 0.000000 m /space glyphshow
19.277344 0.000000 m /I glyphshow
22.226562 0.000000 m /two glyphshow
28.588867 0.000000 m /one glyphshow
grestore
1.500 setlinewidth
2 setlinecap
1.000 0.000 0.000 setrgbcolor
gsave
321.4 266.1 57.6 38.02 clipbox
72.209455 50.112 m
72.794125 50.112 l
72.940293 165.312 l
73.08646 148.854857 l
73.232628 222.912 l
73.671131 175.784727 l
73.817298 165.312 l
74.109634 247.597714 l
74.401969 222.912 l
74.548137 253.406118 l
74.694304 242.112 l
74.98664 292.032 l
75.57131 251.712 l
76.155981 222.912 l
76.302148 240.787862 l
77.032986 212.747294 l
77.325322 203.712 l
77.471489 218.24173 l
78.05616 201.838829 l
78.202327 214.683429 l
79.079333 194.112 l
79.956339 178.112 l
80.394842 171.375158 l
80.687177 190.695051 l
81.271848 181.769143 l
81.418015 190.512 l
82.148853 180.338087 l
82.295021 188.352 l
83.464362 174.173538 l
84.633703 162.63293 l
85.510709 155.294609 l
85.656876 161.595871 l
85.803044 160.409872 l
85.949212 166.524632 l
86.533882 161.821091 l
86.826217 173.296158 l
87.557056 167.485585 l
87.703223 172.848449 l
87.995559 170.596404 l
88.141726 175.784727 l
88.872564 170.320696 l
89.018732 175.243034 l
89.311067 173.122169 l
89.457235 177.896874 l
89.603402 176.832 l
89.74957 181.497124 l
90.772743 174.312 l
90.918911 178.707349 l
92.088252 171.198131 l
92.380587 179.401209 l
93.549928 172.365061 l
93.988431 183.744 l
94.865437 178.604308 l
95.011605 182.188433 l
96.619449 173.540571 l
97.350287 169.973272 l
97.496454 173.256828 l
98.37346 169.152 l
98.519628 172.313105 l
99.104298 169.670919 l
99.250466 172.744258 l
99.542801 171.43966 l
99.688969 174.454857 l
100.85831 169.405401 l
101.004478 172.293818 l
102.904657 164.766028 l
103.92783 161.084477 l
104.073998 163.733918 l
104.220165 163.217455 l
104.366333 165.833267 l
104.804836 164.283429 l
104.951004 166.848 l
105.389506 165.312 l
105.535674 167.827284 l
105.974177 166.305103 l
106.41268 173.645617 l
107.289686 170.570091 l
107.435853 172.928529 l
108.605194 168.9984 l
109.043697 175.784727 l
109.336032 174.799059 l
109.4822 177.012 l
110.359206 174.105893 l
110.505373 176.26257 l
111.382379 173.448803 l
111.528547 175.552 l
111.674714 175.089122 l
111.820882 177.170824 l
112.113217 176.243387 l
112.259385 178.298182 l
113.721061 173.800421 l
113.867229 175.784727 l
114.598067 173.625402 l
114.744235 175.569534 l
115.767408 172.632401 l
115.913576 174.528 l
116.790581 172.088471 l
116.936749 173.942619 l
117.813755 171.568869 l
118.10609 175.186286 l
118.690761 173.617956 l
119.129264 178.907031 l
121.614113 172.448283 l
122.637287 169.973272 l
122.783454 171.619781 l
122.929622 171.270621 l
123.07579 172.903977 l
123.952795 170.82862 l
124.098963 172.431101 l
125.414472 169.415014 l
125.852974 174.077217 l
127.460818 170.479282 l
127.606986 171.981474 l
130.238003 166.469789 l
130.530339 165.888 l
130.676506 167.322973 l
131.115009 166.452594 l
131.407344 169.284414 l
131.553512 168.991607 l
131.845847 171.79024 l
132.430518 170.611758 l
132.722853 173.36212 l
134.184529 170.462118 l
134.330697 171.802141 l
134.7692 170.951161 l
134.915368 172.277581 l
135.646206 170.873379 l
135.792373 172.181725 l
136.084709 171.624329 l
136.230876 172.922023 l
136.815547 171.813129 l
136.961714 173.095784 l
137.107882 172.819416 l
137.25405 174.094063 l
138.131055 172.448283 l
138.277223 173.704053 l
139.592732 171.296416 l
139.738899 172.527551 l
142.808419 167.216132 l
142.954587 168.399835 l
144.562431 165.776516 l
144.854766 168.087904 l
145.000934 167.851479 l
145.147102 168.9984 l
145.731772 168.054857 l
145.87794 169.19002 l
148.216622 165.533113 l
148.362789 166.636138 l
149.385963 165.094231 l
149.53213 166.181434 l
149.824466 165.745083 l
149.970633 166.824946 l
150.701471 165.740253 l
150.847639 166.808104 l
154.209495 162.032285 l
154.794165 161.241329 l
154.940333 162.264381 l
155.525003 161.478725 l
155.671171 162.49242 l
156.694344 161.133762 l
156.840512 162.134069 l
157.132847 161.749113 l
157.279015 162.743218 l
158.740691 160.843872 l
158.886859 161.821091 l
159.325362 161.259739 l
159.471529 162.229726 l
159.763864 161.856 l
159.910032 162.820153 l
161.664044 160.613794 l
161.810211 161.559557 l
162.102547 161.197714 l
162.248714 162.137932 l
163.564223 160.527335 l
163.71039 161.453627 l
164.441229 160.572759 l
164.587396 161.490199 l
164.879732 161.139402 l
165.025899 162.051623 l
165.464402 161.526085 l
165.61057 162.432 l
166.049073 161.907956 l
166.19524 162.807652 l
167.072246 161.767385 l
167.364581 163.545129 l
167.656916 163.198239 l
167.803084 164.080855 l
171.603442 159.729621 l
172.918951 158.299826 l
173.065119 159.143548 l
176.719309 155.336581 l
176.865477 156.153841 l
177.157812 155.858871 l
177.30398 156.672 l
177.888651 156.083271 l
178.180986 157.695471 l
178.327153 157.547488 l
178.619489 159.149037 l
178.911824 158.850714 l
179.204159 160.439967 l
180.3735 159.248842 l
180.519668 160.033294 l
181.104338 159.443903 l
181.396674 160.999701 l
181.542841 160.851653 l
181.689009 161.6256 l
182.273679 161.034016 l
182.419847 161.802596 l
182.712182 161.507509 l
183.004518 163.03532 l
183.150685 162.886737 l
183.296853 163.646823 l
185.197032 161.739907 l
185.3432 162.487742 l
186.220205 161.62442 l
186.366373 162.365708 l
187.535714 161.228962 l
187.681882 161.962316 l
187.974217 161.680222 l
188.120385 162.410237 l
188.41272 162.12808 l
188.558887 162.854785 l
188.851223 162.572576 l
188.99739 163.296 l
189.143558 163.154697 l
189.289726 163.875591 l
190.312899 162.891234 l
190.459067 163.605333 l
190.751402 163.325793 l
191.043737 164.745907 l
191.774575 164.046066 l
191.920743 164.750049 l
192.066911 164.610417 l
192.213078 165.312 l
194.113257 163.518467 l
194.259425 164.209608 l
194.844096 163.666286 l
194.990263 164.353141 l
195.282598 164.082107 l
195.428766 164.766028 l
196.451939 163.822928 l
196.598107 164.500732 l
198.352119 162.912 l
198.498286 163.580671 l
199.229124 162.928552 l
199.375292 163.592597 l
200.983136 162.177306 l
201.275471 163.487566 l
201.860142 162.976865 l
202.006309 163.627411 l
203.17565 162.61501 l
203.321818 163.259439 l
204.929662 161.890218 l
205.07583 162.526945 l
205.514332 162.157564 l
205.6605 162.791212 l
205.952835 162.545188 l
206.099003 163.17634 l
206.829841 162.563193 l
206.976009 163.190223 l
207.560679 162.702291 l
207.706847 163.325793 l
208.437685 162.719074 l
208.583853 163.338552 l
209.168523 162.85571 l
209.314691 163.471744 l
210.484032 162.514112 l
210.630199 163.124658 l
214.28439 160.220941 l
214.430558 160.817544 l
215.307564 160.139755 l
215.599899 161.323405 l
216.76924 160.424727 l
216.915408 161.01089 l
219.692592 158.924673 l
219.83876 159.500724 l
221.446604 158.32335 l
221.592772 158.893232 l
224.954627 156.501293 l
225.100795 157.059851 l
225.246962 156.957802 l
225.39313 157.51486 l
228.170315 155.604135 l
228.316483 156.152037 l
228.46265 156.052935 l
228.608818 156.599395 l
231.53217 154.647289 l
231.824506 155.720783 l
234.01702 154.291061 l
234.163188 154.820386 l
235.332529 154.07046 l
235.478696 154.595721 l
235.771032 154.409143 l
235.917199 154.932696 l
236.794205 154.374644 l
237.08654 155.414391 l
240.448396 153.312 l
240.594563 153.821974 l
241.763904 153.107349 l
241.910072 153.613549 l
242.05624 153.524554 l
242.202407 154.029526 l
243.810251 153.056681 l
243.956419 153.556898 l
244.541089 153.206237 l
244.687257 153.70421 l
245.564263 153.180576 l
245.71043 153.675636 l
245.856598 153.588535 l
246.002766 154.08242 l
246.148933 153.995123 l
246.295101 154.487839 l
247.172107 153.965088 l
247.318274 154.454952 l
247.756777 154.194529 l
247.902945 154.682574 l
248.487615 154.336027 l
248.633783 154.821934 l
249.218454 154.476356 l
249.364621 154.960145 l
249.656956 154.787556 l
249.803124 155.269895 l
251.703303 154.157566 l
251.849471 154.634927 l
253.018812 153.959496 l
253.16498 154.43355 l
253.603482 154.181565 l
253.895818 155.125505 l
257.696176 152.975622 l
257.842344 153.438515 l
258.280847 153.195203 l
258.427014 153.656471 l
258.573182 153.575323 l
258.865517 154.495099 l
261.058032 153.284158 l
261.204199 153.738584 l
263.542881 152.472916 l
263.689049 152.922069 l
263.981384 152.765465 l
264.127552 153.21337 l
265.296893 152.589458 l
265.44306 153.034449 l
265.589228 152.956713 l
265.735396 153.400755 l
266.173899 153.167422 l
266.320066 153.609968 l
266.612401 153.454449 l
266.758569 153.895784 l
267.92791 153.276179 l
268.074078 153.714685 l
272.605274 151.373808 l
272.751442 151.803479 l
273.920783 151.21439 l
274.066951 151.641378 l
276.113297 150.623175 l
276.259465 151.046001 l
277.428806 150.471288 l
277.574974 150.891516 l
277.721141 150.819889 l
277.867309 151.239273 l
279.328985 150.526104 l
279.62132 151.358197 l
280.205991 151.073798 l
280.352159 151.488 l
281.375332 150.992447 l
281.5215 151.404394 l
283.275511 150.563211 l
283.421679 150.971751 l
284.298685 150.554975 l
284.444852 150.961553 l
286.637367 149.931074 l
286.783534 150.333647 l
287.07587 150.197384 l
287.222037 150.598957 l
288.391378 150.055784 l
288.537546 150.455011 l
289.414552 150.05013 l
289.706887 150.844304 l
290.876228 150.305988 l
291.022396 150.700518 l
291.753234 150.365892 l
291.899401 150.758809 l
292.630239 150.42532 l
292.776407 150.816636 l
294.822754 149.891528 l
294.968922 150.279344 l
295.261257 150.148149 l
295.407424 150.535037 l
297.307604 149.68786 l
297.453771 150.071533 l
300.230956 148.854857 l
300.377124 149.234151 l
301.107962 148.917871 l
301.25413 149.295673 l
301.400297 149.232459 l
301.546465 149.60958 l
303.154309 148.917313 l
303.300476 149.291772 l
304.177482 148.917038 l
304.32365 149.289848 l
304.90832 149.040814 l
305.054488 149.412376 l
306.8085 148.670406 l
306.954667 149.039194 l
307.539338 148.793564 l
307.685505 149.161132 l
308.124008 148.977139 l
308.270176 149.343683 l
308.562511 149.221023 l
308.708679 149.586737 l
310.024187 149.036816 l
310.170355 149.400398 l
311.778199 148.734439 l
312.070534 149.456214 l
312.94754 149.094524 l
313.093708 149.453662 l
313.239875 149.393455 l
313.386043 149.751976 l
313.970713 149.511154 l
314.116881 149.868522 l
314.847719 149.568231 l
314.993887 149.924274 l
315.578557 149.684629 l
315.724725 150.039534 l
317.917239 149.148385 l
318.063407 149.500235 l
319.963586 148.738415 l
320.109754 149.087604 l
320.548257 148.912941 l
320.694424 149.261206 l
321.132927 149.086648 l
321.279095 149.433994 l
321.717598 149.259541 l
321.863765 149.605973 l
322.594603 149.315734 l
322.886939 150.005706 l
323.325442 149.831372 l
323.471609 150.175256 l
324.05628 149.94309 l
324.202447 150.285913 l
324.494783 150.169904 l
324.64095 150.512 l
325.371788 150.222329 l
325.517956 150.563211 l
327.1258 149.929994 l
327.271968 150.268701 l
328.002806 149.982702 l
328.148973 150.320219 l
328.879812 150.035051 l
329.025979 150.371386 l
329.756817 150.087043 l
329.902985 150.422204 l
330.19532 150.308602 l
330.341488 150.64307 l
330.633823 150.529411 l
330.779991 150.863186 l
331.364661 150.636014 l
331.656996 151.301189 l
331.803164 151.244245 l
331.949332 151.576117 l
332.095499 151.519083 l
332.241667 151.850427 l
332.387835 151.793303 l
332.534002 152.124121 l
332.68017 152.066907 l
332.826338 152.397202 l
333.118673 152.282661 l
333.26484 152.61228 l
333.703343 152.440492 l
333.849511 152.769286 l
334.141846 152.654777 l
334.288014 152.982903 l
334.434181 152.925593 l
334.580349 153.253203 l
334.726517 153.195806 l
334.872684 153.522901 l
335.018852 153.465419 l
335.16502 153.792 l
336.772864 153.162248 l
337.065199 153.811062 l
337.796037 153.525861 l
337.942205 153.848998 l
338.380707 153.678191 l
338.526875 154.000535 l
340.427054 153.264941 l
340.71939 153.904818 l
342.473401 153.231568 l
342.619569 153.549277 l
343.78891 153.104146 l
343.935077 153.420387 l
344.665916 153.143421 l
344.812083 153.458624 l
348.904777 151.930796 l
349.050944 152.241815 l
351.389626 151.386725 l
351.535794 151.695264 l
351.974297 151.536125 l
352.120465 151.843942 l
352.266632 151.790873 l
352.4128 152.098236 l
353.728309 151.621912 l
353.874476 151.927768 l
354.312979 151.769587 l
354.459147 152.074733 l
354.89765 151.916651 l
355.043817 152.221091 l
355.336152 152.115715 l
355.48232 152.419581 l
357.96717 151.530405 l
358.113337 151.831775 l
358.990343 151.520864 l
359.136511 151.821165 l
360.159684 151.459945 l
360.305852 151.759059 l
361.913696 151.195207 l
362.059863 151.492645 l
364.398545 150.6816 l
364.398545 150.6816 l
stroke
grestore
0.800 setlinewidth
0 setlinejoin
[] 0 setdash
0.000 setgray
gsave
57.6 38.016 m
57.6 304.128 l
stroke
grestore
gsave
379.008 38.016 m
379.008 304.128 l
stroke
grestore
gsave
57.6 38.016 m
379.008 38.016 l
stroke
grestore
gsave
57.6 304.128 m
379.008 304.128 l
stroke
grestore
/DejaVuSans findfont
12.000 scalefont
setfont
gsave
86.975875 310.128000 translate
0.000000 rotate
0.000000 0.000000 m /D glyphshow
9.240234 0.000000 m /e glyphshow
16.623047 0.000000 m /p glyphshow
24.240234 0.000000 m /e glyphshow
31.623047 0.000000 m /n glyphshow
39.228516 0.000000 m /d glyphshow
46.845703 0.000000 m /e glyphshow
54.228516 0.000000 m /n glyphshow
61.833984 0.000000 m /c glyphshow
68.431641 0.000000 m /e glyphshow
75.814453 0.000000 m /space glyphshow
79.628906 0.000000 m /o glyphshow
86.970703 0.000000 m /f glyphshow
91.195312 0.000000 m /space glyphshow
95.009766 0.000000 m /e glyphshow
102.392578 0.000000 m /r glyphshow
107.326172 0.000000 m /r glyphshow
112.259766 0.000000 m /o glyphshow
119.601562 0.000000 m /r glyphshow
124.535156 0.000000 m /space glyphshow
128.349609 0.000000 m /o glyphshow
135.691406 0.000000 m /n glyphshow
143.296875 0.000000 m /space glyphshow
147.111328 0.000000 m /t glyphshow
151.816406 0.000000 m /h glyphshow
159.421875 0.000000 m /e glyphshow
166.804688 0.000000 m /space glyphshow
170.619141 0.000000 m /n glyphshow
178.224609 0.000000 m /u glyphshow
185.830078 0.000000 m /m glyphshow
197.519531 0.000000 m /b glyphshow
205.136719 0.000000 m /e glyphshow
212.519531 0.000000 m /r glyphshow
217.453125 0.000000 m /space glyphshow
221.267578 0.000000 m /o glyphshow
228.609375 0.000000 m /f glyphshow
232.833984 0.000000 m /space glyphshow
236.648438 0.000000 m /d glyphshow
244.265625 0.000000 m /o glyphshow
251.607422 0.000000 m /t glyphshow
256.312500 0.000000 m /s glyphshow
grestore

end
showpage
