\relax 
\@nameuse{bbl@beforestart}
\catcode `"\active 
\providecommand\csxdef[2]{}
\@writefile{toc}{\providecommand\autonum@processReference[2]{}}
\@writefile{lof}{\providecommand\autonum@processReference[2]{}}
\babel@aux{russian}{}
\citation{Ivchenko}
\@writefile{toc}{\contentsline {section}{\numberline {1}Постановка задачи}{3}\protected@file@percent }
\newlabel{section:formulation-of-the-problem}{{1}{3}}
\@writefile{toc}{\contentsline {section}{\numberline {2}Построение модели}{3}\protected@file@percent }
\newlabel{section:model}{{2}{3}}
\citation{BocharovPage37}
\newlabel{eq:state}{{2.1}{4}}
\csxdef {autonum@eq:stateReferenced}{}
\newlabel{process}{{2}{4}}
\@writefile{toc}{\contentsline {section}{\numberline {3}Вычисление интенсивностей переходов}{5}\protected@file@percent }
\newlabel{section:intenses}{{3}{5}}
\newlabel{th:intense-1}{{3.1}{5}}
\newlabel{intensity:case1}{{3.1}{5}}
\csxdef {autonum@intensity:case1Referenced}{}
\newlabel{th:intense-2}{{3.2}{5}}
\newlabel{intensity:case2}{{3.2}{5}}
\csxdef {autonum@intensity:case2Referenced}{}
\newlabel{th:intense-3}{{3.3}{6}}
\newlabel{intensity:case3}{{3.3}{6}}
\csxdef {autonum@intensity:case3Referenced}{}
\newlabel{th-regular}{{3}{6}}
\@writefile{toc}{\contentsline {section}{\numberline {4}Стационарное распределение}{8}\protected@file@percent }
\newlabel{section:stationary-distr}{{4}{8}}
\@writefile{toc}{\contentsline {subsection}{\numberline {4.1}Система уравнений для поиска стационарного распределения}{8}\protected@file@percent }
\newlabel{section:stationary-distr-definition}{{4.1}{8}}
\csxdef {autonum@intensity:case1Referenced}{}
\csxdef {autonum@intensity:case2Referenced}{}
\csxdef {autonum@intensity:case3Referenced}{}
\citation{neuts}
\citation{BocharovPage240}
\newlabel{eq:ssae}{{4.1}{9}}
\csxdef {autonum@eq:ssaeReferenced}{}
\csxdef {autonum@eq:ssaeReferenced}{}
\newlabel{eq:recurrence-solve}{{4.2}{9}}
\csxdef {autonum@eq:recurrence-solveReferenced}{}
\newlabel{eq:homogeneous-quadric-eq}{{4.3}{9}}
\@writefile{toc}{\contentsline {subsection}{\numberline {4.2}Поиск матриц $R$}{9}\protected@file@percent }
\newlabel{section:stationary-distr-homogeneous-Ri}{{4.2}{9}}
\csxdef {autonum@eq:homogeneous-quadric-eqReferenced}{}
\csxdef {autonum@eq:homogeneous-quadric-eqReferenced}{}
\@writefile{toc}{\contentsline {subsection}{\numberline {4.3}Поиск неоднородных компонент вектора $\vec  {\pi }$}{10}\protected@file@percent }
\newlabel{section:stationary-distr-nonhomogeneous-Ri}{{4.3}{10}}
\csxdef {autonum@eq:ssaeReferenced}{}
\csxdef {autonum@eq:homogeneous-quadric-eqReferenced}{}
\newlabel{eq:finite-ssae}{{4.4}{10}}
\csxdef {autonum@eq:homogeneous-quadric-eqReferenced}{}
\csxdef {autonum@eq:finite-ssaeReferenced}{}
\citation{Ventsel}
\@writefile{toc}{\contentsline {section}{\numberline {5}Вычисление характеристики энергопотребления}{11}\protected@file@percent }
\newlabel{section:mean-power-consumption}{{5}{11}}
\newlabel{eq:mean-energy-consumption}{{5.1}{11}}
\csxdef {autonum@eq:mean-energy-consumptionReferenced}{}
\@writefile{toc}{\contentsline {section}{\numberline {6}Проведение численных экспериментов}{11}\protected@file@percent }
\newlabel{section:numerical-results}{{6}{11}}
\csxdef {autonum@section:stationary-distr-nonhomogeneous-RiReferenced}{}
\csxdef {autonum@section:stationary-distrReferenced}{}
\@writefile{toc}{\contentsline {subsection}{\numberline {6.1}Зависимость численных характеристик от $\alpha $}{11}\protected@file@percent }
\newlabel{section:measures-on-alpha}{{6.1}{11}}
\newlabel{fig:alphamax-100-c-30}{{6.1}{13}}
\@writefile{lof}{\contentsline {figure}{\numberline {1}{\ignorespaces Зависимость потребляемой энергии от параметра $\alpha $, $c = 30$}}{13}\protected@file@percent }
\newlabel{fig:EZ-alphamax-100-c-30}{{6.1}{13}}
\@writefile{lof}{\contentsline {figure}{\numberline {2}{\ignorespaces Зависимость числа требований от параметра $\alpha $, $c = 30$}}{13}\protected@file@percent }
\@writefile{toc}{\contentsline {subsection}{\numberline {6.2}Зависимость численных характеристик от $c$}{14}\protected@file@percent }
\newlabel{section:measures-on-c}{{6.2}{14}}
\csxdef {autonum@section:measures-on-alphaReferenced}{}
\csxdef {autonum@section:measures-on-alphaReferenced}{}
\newlabel{fig:cmax_20_ro_0.7}{{6.2}{14}}
\@writefile{lof}{\contentsline {figure}{\numberline {3}{\ignorespaces Зависимость потребляемой энергии от количества серверов, $\rho = 0.7$}}{14}\protected@file@percent }
\newlabel{fig:EZ_cmax_20_ro_0.7}{{6.2}{15}}
\@writefile{lof}{\contentsline {figure}{\numberline {4}{\ignorespaces Зависимость числа требований от количества серверов, $\rho = 0.7$}}{15}\protected@file@percent }
\@writefile{toc}{\contentsline {subsection}{\numberline {6.3}Зависимость численных характеристик от $\rho $}{15}\protected@file@percent }
\newlabel{section:measures-on-ro}{{6.3}{15}}
\csxdef {autonum@section:measures-on-cReferenced}{}
\csxdef {autonum@section:measures-on-alphaReferenced}{}
\newlabel{fig:rhomax_1_c_15}{{6.3}{16}}
\@writefile{lof}{\contentsline {figure}{\numberline {5}{\ignorespaces Зависимость потребляемой энергии от $\rho $, $c = 15$}}{16}\protected@file@percent }
\newlabel{fig:EZ_rhomax_1_c_15}{{6.3}{16}}
\@writefile{lof}{\contentsline {figure}{\numberline {6}{\ignorespaces Зависимость числа требований от $\rho $, $c = 15$}}{16}\protected@file@percent }
\@writefile{toc}{\contentsline {subsection}{\numberline {6.4}Итоги экспериментов}{17}\protected@file@percent }
\newlabel{section:experiments-results}{{6.4}{17}}
\@writefile{toc}{\contentsline {section}{\numberline {7}Заключение}{18}\protected@file@percent }
\newlabel{section:conclusion}{{7}{18}}
\bibstyle{utf8gost705u}
\bibdata{biblio}
\bibcite{EnergyEfficient}{1}
\bibcite{CaseEnergyPropotional}{2}
\bibcite{PhungDuc}{3}
\bibcite{Ivchenko}{4}
\bibcite{BocharovPage37}{5}
\bibcite{GJMiller}{6}
\bibcite{neuts}{7}
\bibcite{BocharovPage240}{8}
\bibcite{DemidovichMathStability}{9}
\bibcite{Ventsel}{10}
