\relax 
\@nameuse{bbl@beforestart}
\catcode `"\active 
\providecommand\csxdef[2]{}
\@writefile{toc}{\providecommand\autonum@processReference[2]{}}
\@writefile{lof}{\providecommand\autonum@processReference[2]{}}
\babel@aux{russian}{}
\@writefile{toc}{\contentsline {section}{\numberline {1}Марковские процессы}{3}\protected@file@percent }
\@writefile{toc}{\contentsline {subsection}{\numberline {1.1}Дискретные марковские цепи}{3}\protected@file@percent }
\@writefile{toc}{\contentsline {subsubsection}{\numberline {1.1.1}Упражнение 2.11}{3}\protected@file@percent }
\@writefile{toc}{\contentsline {subsubsection}{\numberline {1.1.2}Упражнение 2.12}{5}\protected@file@percent }
\@writefile{toc}{\contentsline {subsubsection}{\numberline {1.1.3}Упражнение 2.13}{6}\protected@file@percent }
\@writefile{toc}{\contentsline {subsection}{\numberline {1.2}Эргодические марковские цепи}{7}\protected@file@percent }
\@writefile{toc}{\contentsline {subsubsection}{\numberline {1.2.1}Упражнение 2.14}{7}\protected@file@percent }
\newlabel{tour}{{1.1}{8}}
\csxdef {autonum@tourReferenced}{}
\@writefile{toc}{\contentsline {subsubsection}{\numberline {1.2.2}Упражнение 2.15}{9}\protected@file@percent }
\csxdef {autonum@tourReferenced}{}
\@writefile{toc}{\contentsline {subsubsection}{\numberline {1.2.3}Упражнение 2.16}{10}\protected@file@percent }
\citation{BocharovPage31}
\newlabel{ergo}{{1.2}{11}}
\csxdef {autonum@ergoReferenced}{}
\@writefile{toc}{\contentsline {subsubsection}{\numberline {1.2.4}Упражнение 2.17}{13}\protected@file@percent }
\@writefile{toc}{\contentsline {section}{\numberline {2}Диффузионные процессы}{14}\protected@file@percent }
\@writefile{toc}{\contentsline {subsection}{\numberline {2.1}Вычисление винеровских интегралов}{14}\protected@file@percent }
\@writefile{toc}{\contentsline {subsubsection}{\numberline {2.1.1}Упражнение 2.18}{14}\protected@file@percent }
\@writefile{toc}{\contentsline {subsubsection}{\numberline {2.1.2}Упражнение 2.19}{16}\protected@file@percent }
\@writefile{toc}{\contentsline {subsection}{\numberline {2.2}Приближенное построение броуновских траекторий}{18}\protected@file@percent }
\@writefile{toc}{\contentsline {subsubsection}{\numberline {2.2.1}Упражнение 2.20}{18}\protected@file@percent }
\bibstyle{utf8gost705u}
\bibdata{biblio}
\bibcite{BocharovPage31}{1}
