This is BibTeX, Version 0.99d (TeX Live 2020/W32TeX)
Capacity: max_strings=200000, hash_size=200000, hash_prime=170003
The top-level auxiliary file: main.aux
The style file: utf8gost705u.bst
Database file #1: biblio.bib
I was expecting a `,' or a `}'---line 51 of file biblio.bib
 : pages = 240
 :            -244
I'm skipping whatever remains of this entry
I was expecting a `,' or a `}'---line 69 of file biblio.bib
 : pages = 33
 :           -37
I'm skipping whatever remains of this entry
I was expecting a `,' or a `}'---line 87 of file biblio.bib
 : pages = 309
 :            -324
I'm skipping whatever remains of this entry
You've used 1 entry,
            2958 wiz_defined-function locations,
            674 strings with 5355 characters,
and the built_in function-call counts, 341 in all, are:
= -- 44
> -- 5
< -- 1
+ -- 2
- -- 1
* -- 9
:= -- 43
add.period$ -- 4
call.type$ -- 1
change.case$ -- 0
chr.to.int$ -- 0
cite$ -- 1
duplicate$ -- 17
empty$ -- 36
format.name$ -- 1
if$ -- 91
int.to.chr$ -- 0
int.to.str$ -- 1
missing$ -- 0
newline$ -- 16
num.names$ -- 3
pop$ -- 10
preamble$ -- 1
purify$ -- 0
quote$ -- 0
skip$ -- 9
stack$ -- 0
substring$ -- 4
swap$ -- 11
text.length$ -- 0
text.prefix$ -- 0
top$ -- 0
type$ -- 0
warning$ -- 0
while$ -- 2
width$ -- 2
write$ -- 26
(There were 3 error messages)
