\babel@toc {russian}{}
\beamer@sectionintoc {1}{Введение}{2}{0}{1}
\beamer@sectionintoc {2}{Цель}{3}{0}{2}
\beamer@sectionintoc {3}{Постановка задачи}{4}{0}{3}
\beamer@sectionintoc {4}{Построение модели}{6}{0}{4}
\beamer@sectionintoc {5}{Стационарное распределение}{10}{0}{5}
