\headcommand {\slideentry {0}{0}{1}{1/1}{}{0}}
\headcommand {\beamer@framepages {1}{1}}
\headcommand {\beamer@sectionpages {1}{1}}
\headcommand {\beamer@subsectionpages {1}{1}}
\headcommand {\sectionentry {1}{Введение}{2}{Введение}{0}}
\headcommand {\slideentry {1}{0}{1}{2/2}{}{0}}
\headcommand {\beamer@framepages {2}{2}}
\headcommand {\beamer@sectionpages {2}{2}}
\headcommand {\beamer@subsectionpages {2}{2}}
\headcommand {\sectionentry {2}{Цель}{3}{Цель}{0}}
\headcommand {\slideentry {2}{0}{1}{3/3}{}{0}}
\headcommand {\beamer@framepages {3}{3}}
\headcommand {\beamer@sectionpages {3}{3}}
\headcommand {\beamer@subsectionpages {3}{3}}
\headcommand {\sectionentry {3}{Постановка задачи}{4}{Постановка задачи}{0}}
\headcommand {\slideentry {3}{0}{1}{4/4}{}{0}}
\headcommand {\beamer@framepages {4}{4}}
\headcommand {\slideentry {3}{0}{2}{5/5}{}{0}}
\headcommand {\beamer@framepages {5}{5}}
\headcommand {\beamer@sectionpages {4}{5}}
\headcommand {\beamer@subsectionpages {4}{5}}
\headcommand {\sectionentry {4}{Построение модели}{6}{Построение модели}{0}}
\headcommand {\slideentry {4}{0}{1}{6/6}{}{0}}
\headcommand {\beamer@framepages {6}{6}}
\headcommand {\slideentry {4}{0}{2}{7/7}{}{0}}
\headcommand {\beamer@framepages {7}{7}}
\headcommand {\slideentry {4}{0}{3}{8/8}{}{0}}
\headcommand {\beamer@framepages {8}{8}}
\headcommand {\slideentry {4}{0}{4}{9/9}{}{0}}
\headcommand {\beamer@framepages {9}{9}}
\headcommand {\beamer@sectionpages {6}{9}}
\headcommand {\beamer@subsectionpages {6}{9}}
\headcommand {\sectionentry {5}{Стационарное распределение}{10}{Стационарное распределение}{0}}
\headcommand {\slideentry {5}{0}{1}{10/10}{}{0}}
\headcommand {\beamer@framepages {10}{10}}
\headcommand {\slideentry {5}{0}{2}{11/11}{}{0}}
\headcommand {\beamer@framepages {11}{11}}
\headcommand {\slideentry {5}{0}{3}{12/12}{}{0}}
\headcommand {\beamer@framepages {12}{12}}
\headcommand {\slideentry {5}{0}{4}{13/13}{}{0}}
\headcommand {\beamer@framepages {13}{13}}
\headcommand {\slideentry {5}{0}{5}{14/14}{}{0}}
\headcommand {\beamer@framepages {14}{14}}
\headcommand {\slideentry {5}{0}{6}{15/15}{}{0}}
\headcommand {\beamer@framepages {15}{15}}
\headcommand {\slideentry {5}{0}{7}{16/16}{}{0}}
\headcommand {\beamer@framepages {16}{16}}
\headcommand {\slideentry {5}{0}{8}{17/17}{}{0}}
\headcommand {\beamer@framepages {17}{17}}
\headcommand {\slideentry {5}{0}{9}{18/18}{}{0}}
\headcommand {\beamer@framepages {18}{18}}
\headcommand {\beamer@partpages {1}{18}}
\headcommand {\beamer@subsectionpages {10}{18}}
\headcommand {\beamer@sectionpages {10}{18}}
\headcommand {\beamer@documentpages {18}}
\headcommand {\gdef \inserttotalframenumber {18}}
