\relax 
\providecommand\hyper@newdestlabel[2]{}
\providecommand\HyperFirstAtBeginDocument{\AtBeginDocument}
\HyperFirstAtBeginDocument{\ifx\hyper@anchor\@undefined
\global\let\oldcontentsline\contentsline
\gdef\contentsline#1#2#3#4{\oldcontentsline{#1}{#2}{#3}}
\global\let\oldnewlabel\newlabel
\gdef\newlabel#1#2{\newlabelxx{#1}#2}
\gdef\newlabelxx#1#2#3#4#5#6{\oldnewlabel{#1}{{#2}{#3}}}
\AtEndDocument{\ifx\hyper@anchor\@undefined
\let\contentsline\oldcontentsline
\let\newlabel\oldnewlabel
\fi}
\fi}
\global\let\hyper@last\relax 
\gdef\HyperFirstAtBeginDocument#1{#1}
\providecommand\HyField@AuxAddToFields[1]{}
\providecommand\HyField@AuxAddToCoFields[2]{}
\@nameuse{bbl@beforestart}
\catcode `"\active 
\babel@aux{russian}{}
\@writefile{nav}{\headcommand {\slideentry {0}{0}{1}{1/1}{}{0}}}
\@writefile{nav}{\headcommand {\beamer@framepages {1}{1}}}
\citation{CaseEnergyPropotional}
\@writefile{toc}{\beamer@sectionintoc {1}{Введение}{2}{0}{1}}
\@writefile{nav}{\headcommand {\beamer@sectionpages {1}{1}}}
\@writefile{nav}{\headcommand {\beamer@subsectionpages {1}{1}}}
\@writefile{nav}{\headcommand {\sectionentry {1}{Введение}{2}{Введение}{0}}}
\@writefile{nav}{\headcommand {\slideentry {1}{0}{1}{2/2}{}{0}}}
\@writefile{nav}{\headcommand {\beamer@framepages {2}{2}}}
\@writefile{toc}{\beamer@sectionintoc {2}{Цель}{3}{0}{2}}
\@writefile{nav}{\headcommand {\beamer@sectionpages {2}{2}}}
\@writefile{nav}{\headcommand {\beamer@subsectionpages {2}{2}}}
\@writefile{nav}{\headcommand {\sectionentry {2}{Цель}{3}{Цель}{0}}}
\@writefile{nav}{\headcommand {\slideentry {2}{0}{1}{3/3}{}{0}}}
\@writefile{nav}{\headcommand {\beamer@framepages {3}{3}}}
\@writefile{toc}{\beamer@sectionintoc {3}{Постановка задачи}{4}{0}{3}}
\@writefile{nav}{\headcommand {\beamer@sectionpages {3}{3}}}
\@writefile{nav}{\headcommand {\beamer@subsectionpages {3}{3}}}
\@writefile{nav}{\headcommand {\sectionentry {3}{Постановка задачи}{4}{Постановка задачи}{0}}}
\@writefile{nav}{\headcommand {\slideentry {3}{0}{1}{4/4}{}{0}}}
\@writefile{nav}{\headcommand {\beamer@framepages {4}{4}}}
\@writefile{nav}{\headcommand {\slideentry {3}{0}{2}{5/5}{}{0}}}
\@writefile{nav}{\headcommand {\beamer@framepages {5}{5}}}
\@writefile{toc}{\beamer@sectionintoc {4}{Построение модели}{6}{0}{4}}
\@writefile{nav}{\headcommand {\beamer@sectionpages {4}{5}}}
\@writefile{nav}{\headcommand {\beamer@subsectionpages {4}{5}}}
\@writefile{nav}{\headcommand {\sectionentry {4}{Построение модели}{6}{Построение модели}{0}}}
\@writefile{nav}{\headcommand {\slideentry {4}{0}{1}{6/6}{}{0}}}
\@writefile{nav}{\headcommand {\beamer@framepages {6}{6}}}
\@writefile{nav}{\headcommand {\slideentry {4}{0}{2}{7/7}{}{0}}}
\@writefile{nav}{\headcommand {\beamer@framepages {7}{7}}}
\@writefile{nav}{\headcommand {\slideentry {4}{0}{3}{8/8}{}{0}}}
\@writefile{nav}{\headcommand {\beamer@framepages {8}{8}}}
\@writefile{nav}{\headcommand {\slideentry {4}{0}{4}{9/9}{}{0}}}
\@writefile{nav}{\headcommand {\beamer@framepages {9}{9}}}
\@writefile{toc}{\beamer@sectionintoc {5}{Стационарное распределение}{10}{0}{5}}
\@writefile{nav}{\headcommand {\beamer@sectionpages {6}{9}}}
\@writefile{nav}{\headcommand {\beamer@subsectionpages {6}{9}}}
\@writefile{nav}{\headcommand {\sectionentry {5}{Стационарное распределение}{10}{Стационарное распределение}{0}}}
\@writefile{nav}{\headcommand {\slideentry {5}{0}{1}{10/10}{}{0}}}
\@writefile{nav}{\headcommand {\beamer@framepages {10}{10}}}
\citation{neuts}
\@writefile{snm}{\beamer@slide {ssae}{11}}
\newlabel{ssae}{{{1}}{11}{Стационарное распределение}{Doc-Start}{}}
\@writefile{nav}{\headcommand {\slideentry {5}{0}{2}{11/11}{}{0}}}
\@writefile{nav}{\headcommand {\beamer@framepages {11}{11}}}
\@writefile{snm}{\beamer@slide {Rk}{12}}
\newlabel{Rk}{{{3}}{12}{Стационарное распределение}{Doc-Start}{}}
\@writefile{nav}{\headcommand {\slideentry {5}{0}{3}{12/12}{}{0}}}
\@writefile{nav}{\headcommand {\beamer@framepages {12}{12}}}
\citation{PhungDuc}
\bibcite{baumann}{\hyperlink {beamerbibbaumann}{1}}
\bibcite{bright}{\hyperlink {beamerbibbright}{2}}
\bibcite{PhungDuc2}{\hyperlink {beamerbibPhungDuc2}{3}}
\@writefile{nav}{\headcommand {\slideentry {5}{0}{4}{13/13}{}{0}}}
\@writefile{nav}{\headcommand {\beamer@framepages {13}{13}}}
\bibcite{CaseEnergyPropotional}{\hyperlink {beamerbibCaseEnergyPropotional}{1}}
\bibcite{neuts}{\hyperlink {beamerbibneuts}{2}}
\bibcite{PhungDuc}{\hyperlink {beamerbibPhungDuc}{3}}
\@writefile{nav}{\headcommand {\slideentry {5}{0}{5}{14/14}{}{0}}}
\@writefile{nav}{\headcommand {\beamer@framepages {14}{14}}}
\@writefile{nav}{\headcommand {\beamer@partpages {1}{14}}}
\@writefile{nav}{\headcommand {\beamer@subsectionpages {10}{14}}}
\@writefile{nav}{\headcommand {\beamer@sectionpages {10}{14}}}
\@writefile{nav}{\headcommand {\beamer@documentpages {14}}}
\@writefile{nav}{\headcommand {\gdef \inserttotalframenumber {14}}}
