\relax 
\catcode `"\active 
\providecommand\csxdef[2]{}
\@writefile{toc}{\providecommand\autonum@processReference[2]{}}
\@writefile{lof}{\providecommand\autonum@processReference[2]{}}
\select@language {russian}
\@writefile{toc}{\select@language {russian}}
\@writefile{lof}{\select@language {russian}}
\@writefile{lot}{\select@language {russian}}
\select@language {russian}
\@writefile{toc}{\select@language {russian}}
\@writefile{lof}{\select@language {russian}}
\@writefile{lot}{\select@language {russian}}
\@writefile{toc}{\contentsline {section}{\numberline {1}Постановка задачи}{3}}
\citation{Knuth}
\@writefile{toc}{\contentsline {section}{\numberline {2}Моделирование заданного распределения}{4}}
\citation{KS}
\newlabel{vs}{{2.1}{5}}
\@writefile{toc}{\contentsline {section}{\numberline {3}Вычисление основных числовых характеристик распределения}{5}}
\csxdef {autonum@vsReferenced}{}
\newlabel{MyM}{{3.1}{5}}
\csxdef {autonum@MxiReferenced}{}
\bibstyle{utf8gost705u}
\bibdata{biblio}
\bibcite{Knuth}{1}
\newlabel{Mxi}{{3.2}{6}}
\newlabel{tab1}{{3}{6}}
\@writefile{lot}{\contentsline {table}{\numberline {1}{\ignorespaces }}{6}}
\csxdef {autonum@vsReferenced}{}
\csxdef {autonum@MyMReferenced}{}
\bibcite{KS}{2}
\newlabel{tab2}{{3}{7}}
\@writefile{lot}{\contentsline {table}{\numberline {2}{\ignorespaces }}{7}}
\@writefile{toc}{\contentsline {section}{\numberline {4}Код программы}{7}}
