\providecommand \autonum@processReference [2]{}
\select@language {russian}
\select@language {russian}
\contentsline {section}{\numberline {1}Постановка задачи}{3}
\contentsline {section}{\numberline {2}Моделирование заданного распределения}{4}
\contentsline {section}{\numberline {3}Вычисление основных числовых характеристик распределения}{5}
\contentsline {section}{\numberline {4}Код программы}{7}
